test_command,coeff_of_variation_fixed,coeff_of_variation_random,KW_dist_type,Normal_fixed,Normal_random,SW_test_stat_fixed,SW_p-value_fixed,SW_test_stat_random,SW_p-value_random,KW_test_stat,KW_p-value,percent_diff,KW_effect_size,fixed_pth_quantile,fixed_ci_low,fixed_ci_high,random_pth_quantile,random_ci_low,random_ci_high,ci_case,inner_diff
/bin/bash ~/os-benchmarks/scripts/run_memory.sh -n 0 -d 1 -b stream -t MT -s 100 -u 200 -- add_omp,0.004,0.003,different,False,True,0.9359047412872314,0.00010941291111521423,0.9889803528785706,0.5830258727073669,21.859611917506893,2.9334348664511596e-06,-0.23041812238619616,0.10984729606787383,37918.12,37875.38,37957.26,37985.375,37960.47,38029.6,1,3.209999999999127
/bin/bash ~/os-benchmarks/scripts/run_memory.sh -n 0 -d 1 -b stream -t MT -s 100 -u 200 -- copy_omp,0.004,0.003,different,False,True,0.900765061378479,1.536176455374516e-06,0.9938229322433472,0.932375967502594,19.60205373134329,9.536663198385848e-06,-0.22521086599995285,0.09850278256956427,33775.315,33739.06,33825.87,33846.7,33818.12,33869.61,3,
/bin/bash ~/os-benchmarks/scripts/run_cpu.sh -n 0 -d 1 -b is -t MT -s 100 -u 200,0.002,0.002,same,True,False,0.9888452291488647,0.572445273399353,0.9674116373062134,0.014057089574635029,0.648218518746247,0.4207503265149548,0.013679590947947282,0.003257379491187171,27.8515,27.835,27.874,27.8445,27.821,27.866,2,
/bin/bash ~/os-benchmarks/scripts/run_memory.sh -n 0 -d 1 -b stream -t MT -s 100 -u 200 -- scale_omp,0.004,0.002,different,False,True,0.902374804019928,1.8314880207981332e-06,0.9913935661315918,0.7757624983787537,20.23451343283591,6.850577740227008e-06,-0.22259220991678882,0.10168097202430106,33681.03,33648.06,33724.38,33743.625,33727.99,33770.99,1,3.610000000000582
/bin/bash ~/os-benchmarks/scripts/run_memory.sh -n 0 -d 1 -b stream -t MT -s 100 -u 200 -- triad_omp,0.004,0.002,different,False,True,0.9268065094947815,3.294123598607257e-05,0.9890907406806946,0.5917184352874756,19.182439760323877,1.1880124423889023e-05,-0.21489089667957934,0.09639416964986873,38077.53,38017.73,38109.91,38142.884999999995,38113.47,38176.03,1,3.5599999999976717
