run_uuid,hostname,run_num,total_runs,order_type,random_seed,time_start,time_stop
1f0d43ff-9e80-11ec-b6ec-1c34da757fa2,hp009.utah.cloudlab.us,0,200,fixed,1646703365.5607867,5035.730354204,5113.082430875
e25ff25c-9e80-11ec-98a5-1c34da757fa2,hp009.utah.cloudlab.us,1,200,random,1646703365.5607867,5363.441718727,5440.95895806
a5c0e4c4-9e81-11ec-9d5b-1c34da757fa2,hp009.utah.cloudlab.us,2,200,fixed,1646703365.5607867,5691.233045537,5768.685021931
6924fe18-9e82-11ec-bea4-1c34da757fa2,hp009.utah.cloudlab.us,3,200,random,1646703365.5607867,6019.04439114,6096.595988985
2c984214-9e83-11ec-a79e-1c34da757fa2,hp009.utah.cloudlab.us,4,200,fixed,1646703365.5607867,6346.949405629,6424.421788671
f0054084-9e83-11ec-9808-1c34da757fa2,hp009.utah.cloudlab.us,5,200,random,1646703365.5607867,6674.824995776,6752.206942373
b35dd4bc-9e84-11ec-b07f-1c34da757fa2,hp009.utah.cloudlab.us,6,200,fixed,1646703365.5607867,7002.563205855,7080.035411448
76c5153c-9e85-11ec-9c31-1c34da757fa2,hp009.utah.cloudlab.us,7,200,random,1646703365.5607867,7330.39464518,7408.004958843
3a414827-9e86-11ec-8d4e-1c34da757fa2,hp009.utah.cloudlab.us,8,200,fixed,1646703365.5607867,7658.36455513,7736.05319389
fdca15ac-9e86-11ec-9a67-1c34da757fa2,hp009.utah.cloudlab.us,9,200,random,1646703365.5607867,7986.398947436,8064.081844742
c1557adc-9e87-11ec-9bef-1c34da757fa2,hp009.utah.cloudlab.us,10,200,fixed,1646703365.5607867,8314.485234028,8392.010999705
84c4ff74-9e88-11ec-9cc5-1c34da757fa2,hp009.utah.cloudlab.us,11,200,random,1646703365.5607867,8642.372762792,8719.857727365
482d6ad1-9e89-11ec-b368-1c34da757fa2,hp009.utah.cloudlab.us,12,200,fixed,1646703365.5607867,8970.211398322,9047.370929211
0b650ebd-9e8a-11ec-ba09-1c34da757fa2,hp009.utah.cloudlab.us,13,200,random,1646703365.5607867,9297.732712418,9375.218447642
cecd9cf5-9e8a-11ec-b4d7-1c34da757fa2,hp009.utah.cloudlab.us,14,200,fixed,1646703365.5607867,9625.574863479,9703.293044401
925aa14a-9e8b-11ec-b324-1c34da757fa2,hp009.utah.cloudlab.us,15,200,random,1646703365.5607867,9953.633386095,10031.01025125
55b69a7a-9e8c-11ec-ab0b-1c34da757fa2,hp009.utah.cloudlab.us,16,200,fixed,1646703365.5607867,10281.412004943,10359.031400185
1934a316-9e8d-11ec-b673-1c34da757fa2,hp009.utah.cloudlab.us,17,200,random,1646703365.5607867,10609.373242,10686.791685466
dc908733-9e8d-11ec-ad88-1c34da757fa2,hp009.utah.cloudlab.us,18,200,fixed,1646703365.5607867,10937.133125276,11014.77606744
a00f500a-9e8e-11ec-87e5-1c34da757fa2,hp009.utah.cloudlab.us,19,200,random,1646703365.5607867,11265.136280861,11342.941806016
63a98809-9e8f-11ec-8ea2-1c34da757fa2,hp009.utah.cloudlab.us,20,200,fixed,1646703365.5607867,11593.285222466,11670.811108469
2715d140-9e90-11ec-8ad3-1c34da757fa2,hp009.utah.cloudlab.us,21,200,random,1646703365.5607867,11921.170155321,11998.638367601
ea7e689b-9e90-11ec-b323-1c34da757fa2,hp009.utah.cloudlab.us,22,200,fixed,1646703365.5607867,12249.011667282,12326.732964075
ae0b7178-9e91-11ec-9308-1c34da757fa2,hp009.utah.cloudlab.us,23,200,random,1646703365.5607867,12577.092025151,12654.599775239
71784904-9e92-11ec-b4ca-1c34da757fa2,hp009.utah.cloudlab.us,24,200,fixed,1646703365.5607867,12904.961344086,12982.621872856
34fd2d82-9e93-11ec-b644-1c34da757fa2,hp009.utah.cloudlab.us,25,200,random,1646703365.5607867,13232.985878888,13310.514820185
f86d0b4a-9e93-11ec-8d20-1c34da757fa2,hp009.utah.cloudlab.us,26,200,fixed,1646703365.5607867,13560.856175402,13638.480238041
bbef3049-9e94-11ec-9551-1c34da757fa2,hp009.utah.cloudlab.us,27,200,random,1646703365.5607867,13888.877206506,13966.552269705
7f73de98-9e95-11ec-b0ee-1c34da757fa2,hp009.utah.cloudlab.us,28,200,fixed,1646703365.5607867,14216.889782767,14294.886973982
43282bc1-9e96-11ec-868c-1c34da757fa2,hp009.utah.cloudlab.us,29,200,random,1646703365.5607867,14545.239915412,14622.644568342
0683dc7d-9e97-11ec-acdc-1c34da757fa2,hp009.utah.cloudlab.us,30,200,fixed,1646703365.5607867,14872.985358869,14950.43259554
c9e3afb1-9e97-11ec-b5ad-1c34da757fa2,hp009.utah.cloudlab.us,31,200,random,1646703365.5607867,15200.769251496,15278.376340708
8d5cbd92-9e98-11ec-a2fc-1c34da757fa2,hp009.utah.cloudlab.us,32,200,fixed,1646703365.5607867,15528.735544548,15606.281670422
50ca782e-9e99-11ec-87c4-1c34da757fa2,hp009.utah.cloudlab.us,33,200,random,1646703365.5607867,15856.611409954,15934.31552062
14556de0-9e9a-11ec-9cc6-1c34da757fa2,hp009.utah.cloudlab.us,34,200,fixed,1646703365.5607867,16184.67827513,16262.054670983
d7aee0f4-9e9a-11ec-9fe2-1c34da757fa2,hp009.utah.cloudlab.us,35,200,random,1646703365.5607867,16512.41976596,16590.274125055
9b50f631-9e9b-11ec-924c-1c34da757fa2,hp009.utah.cloudlab.us,36,200,fixed,1646703365.5607867,16840.635889465,16918.048804764
5eaed52d-9e9c-11ec-987c-1c34da757fa2,hp009.utah.cloudlab.us,37,200,random,1646703365.5607867,17168.407539303,17245.822254449
220d7a11-9e9d-11ec-9341-1c34da757fa2,hp009.utah.cloudlab.us,38,200,fixed,1646703365.5607867,17496.184205424,17573.918919546
e59c4ad9-9e9d-11ec-84ee-1c34da757fa2,hp009.utah.cloudlab.us,39,200,random,1646703365.5607867,17824.276204458,17901.726752246
a8febc53-9e9e-11ec-ba36-1c34da757fa2,hp009.utah.cloudlab.us,40,200,fixed,1646703365.5607867,18152.077234254,18229.81033445
6c8dbced-9e9f-11ec-a0f8-1c34da757fa2,hp009.utah.cloudlab.us,41,200,random,1646703365.5607867,18480.15263106,18557.581409644
2febb6bd-9ea0-11ec-b57f-1c34da757fa2,hp009.utah.cloudlab.us,42,200,fixed,1646703365.5607867,18807.935109428,18885.594301829
f36e792f-9ea0-11ec-a9d4-1c34da757fa2,hp009.utah.cloudlab.us,43,200,random,1646703365.5607867,19135.955114604,19213.520237281
b6e2fed6-9ea1-11ec-b646-1c34da757fa2,hp009.utah.cloudlab.us,44,200,fixed,1646703365.5607867,19463.873355022,19541.342146533
7a40ab35-9ea2-11ec-9ec9-1c34da757fa2,hp009.utah.cloudlab.us,45,200,random,1646703365.5607867,19791.642557399,19869.175796367
3db12809-9ea3-11ec-ba46-1c34da757fa2,hp009.utah.cloudlab.us,46,200,fixed,1646703365.5607867,20119.536292615,20196.981315602
0114e024-9ea4-11ec-bb59-1c34da757fa2,hp009.utah.cloudlab.us,47,200,random,1646703365.5607867,20447.326205803,20524.851219596
c479b304-9ea4-11ec-aef7-1c34da757fa2,hp009.utah.cloudlab.us,48,200,fixed,1646703365.5607867,20775.160906487,20852.524461596
87cf9626-9ea5-11ec-abb4-1c34da757fa2,hp009.utah.cloudlab.us,49,200,random,1646703365.5607867,21102.861725125,21180.376287367
4b3951a4-9ea6-11ec-985c-1c34da757fa2,hp009.utah.cloudlab.us,50,200,fixed,1646703365.5607867,21430.729189745,21508.251140219
0e9b99d8-9ea7-11ec-8b5f-1c34da757fa2,hp009.utah.cloudlab.us,51,200,random,1646703365.5607867,21758.529419566,21836.118702975
d214b408-9ea7-11ec-aa1c-1c34da757fa2,hp009.utah.cloudlab.us,52,200,fixed,1646703365.5607867,22086.460789419,22164.042388325
95897ecd-9ea8-11ec-90d1-1c34da757fa2,hp009.utah.cloudlab.us,53,200,random,1646703365.5607867,22414.400448172,22492.014801626
590d70cc-9ea9-11ec-98ef-1c34da757fa2,hp009.utah.cloudlab.us,54,200,fixed,1646703365.5607867,22742.41968114,22819.836018471
1c73d4f0-9eaa-11ec-8352-1c34da757fa2,hp009.utah.cloudlab.us,55,200,random,1646703365.5607867,23070.246474998,23147.740140974
dfdd5b3a-9eaa-11ec-bba2-1c34da757fa2,hp009.utah.cloudlab.us,56,200,fixed,1646703365.5607867,23398.092169414,23475.557748526
a3490814-9eab-11ec-8e86-1c34da757fa2,hp009.utah.cloudlab.us,57,200,random,1646703365.5607867,23725.954679193,23803.416322515
66b3c165-9eac-11ec-b366-1c34da757fa2,hp009.utah.cloudlab.us,58,200,fixed,1646703365.5607867,24053.811532579,24131.44244013
2a336053-9ead-11ec-8342-1c34da757fa2,hp009.utah.cloudlab.us,59,200,random,1646703365.5607867,24381.801190381,24459.151952055
ed8788cf-9ead-11ec-82be-1c34da757fa2,hp009.utah.cloudlab.us,60,200,fixed,1646703365.5607867,24709.504018731,24787.132355724
b1057d8e-9eae-11ec-8bba-1c34da757fa2,hp009.utah.cloudlab.us,61,200,random,1646703365.5607867,25037.485219913,25115.117384841
7484dd62-9eaf-11ec-b7a8-1c34da757fa2,hp009.utah.cloudlab.us,62,200,fixed,1646703365.5607867,25365.481657004,25442.999506168
37f9cf61-9eb0-11ec-93f8-1c34da757fa2,hp009.utah.cloudlab.us,63,200,random,1646703365.5607867,25693.385534632,25771.061946035
fb83c85f-9eb0-11ec-9106-1c34da757fa2,hp009.utah.cloudlab.us,64,200,fixed,1646703365.5607867,26021.464754215,26099.090126248
bf026675-9eb1-11ec-8f94-1c34da757fa2,hp009.utah.cloudlab.us,65,200,random,1646703365.5607867,26349.448499504,26426.927382602
82697dc7-9eb2-11ec-86da-1c34da757fa2,hp009.utah.cloudlab.us,66,200,fixed,1646703365.5607867,26677.280344076,26754.835182213
45dd264a-9eb3-11ec-9542-1c34da757fa2,hp009.utah.cloudlab.us,67,200,random,1646703365.5607867,27005.193204976,27082.714302637
094b27ee-9eb4-11ec-aa48-1c34da757fa2,hp009.utah.cloudlab.us,68,200,fixed,1646703365.5607867,27333.064327449,27410.559273685
ccb515d5-9eb4-11ec-af8a-1c34da757fa2,hp009.utah.cloudlab.us,69,200,random,1646703365.5607867,27660.899377833,27738.404841884
901e6a3a-9eb5-11ec-b431-1c34da757fa2,hp009.utah.cloudlab.us,70,200,fixed,1646703365.5607867,27988.75956572,28066.424675658
53a210c8-9eb6-11ec-aaca-1c34da757fa2,hp009.utah.cloudlab.us,71,200,random,1646703365.5607867,28316.785362472,28394.366678767
17196124-9eb7-11ec-bbac-1c34da757fa2,hp009.utah.cloudlab.us,72,200,fixed,1646703365.5607867,28644.722051491,28722.342098344
da96b48a-9eb7-11ec-8dd0-1c34da757fa2,hp009.utah.cloudlab.us,73,200,random,1646703365.5607867,28972.68137668,29050.293173626
9e1075e8-9eb8-11ec-90db-1c34da757fa2,hp009.utah.cloudlab.us,74,200,fixed,1646703365.5607867,29300.647163935,29378.129101527
6178c238-9eb9-11ec-830d-1c34da757fa2,hp009.utah.cloudlab.us,75,200,random,1646703365.5607867,29628.485488947,29705.92628736
24e0a6dc-9eba-11ec-9369-1c34da757fa2,hp009.utah.cloudlab.us,76,200,fixed,1646703365.5607867,29956.328436521,30033.910047753
e85f6567-9eba-11ec-9658-1c34da757fa2,hp009.utah.cloudlab.us,77,200,random,1646703365.5607867,30284.315693673,30361.547817327
aba1d161-9ebb-11ec-9509-1c34da757fa2,hp009.utah.cloudlab.us,78,200,fixed,1646703365.5607867,30611.905811304,30689.464127861
6f1622ff-9ebc-11ec-9c49-1c34da757fa2,hp009.utah.cloudlab.us,79,200,random,1646703365.5607867,30939.82514151,31017.301591018
327e075f-9ebd-11ec-9e66-1c34da757fa2,hp009.utah.cloudlab.us,80,200,fixed,1646703365.5607867,31267.639948888,31345.175492053
f5ebef8d-9ebd-11ec-8e76-1c34da757fa2,hp009.utah.cloudlab.us,81,200,random,1646703365.5607867,31595.537007713,31673.010519228
b953e73e-9ebe-11ec-9967-1c34da757fa2,hp009.utah.cloudlab.us,82,200,fixed,1646703365.5607867,31923.354306156,32000.765386918
7caf1c32-9ebf-11ec-8eb1-1c34da757fa2,hp009.utah.cloudlab.us,83,200,random,1646703365.5607867,32251.125952697,32328.685776334
40232947-9ec0-11ec-95a4-1c34da757fa2,hp009.utah.cloudlab.us,84,200,fixed,1646703365.5607867,32579.025761112,32656.363367258
0372fc3f-9ec1-11ec-b22e-1c34da757fa2,hp009.utah.cloudlab.us,85,200,random,1646703365.5607867,32906.722234877,32984.007405171
c6b6b7b9-9ec1-11ec-962d-1c34da757fa2,hp009.utah.cloudlab.us,86,200,fixed,1646703365.5607867,33234.323069885,33311.747682948
8a0f2fe0-9ec2-11ec-ae51-1c34da757fa2,hp009.utah.cloudlab.us,87,200,random,1646703365.5607867,33562.057958618,33639.679158318
4d8d3829-9ec3-11ec-ba03-1c34da757fa2,hp009.utah.cloudlab.us,88,200,fixed,1646703365.5607867,33890.020023069,33967.402207934
10e36acc-9ec4-11ec-a464-1c34da757fa2,hp009.utah.cloudlab.us,89,200,random,1646703365.5607867,34217.738982602,34295.126206752
d43a3db8-9ec4-11ec-941a-1c34da757fa2,hp009.utah.cloudlab.us,90,200,fixed,1646703365.5607867,34545.478693745,34623.265348837
97d0ee32-9ec5-11ec-b581-1c34da757fa2,hp009.utah.cloudlab.us,91,200,random,1646703365.5607867,34873.627609456,34951.310806679
5b5894a4-9ec6-11ec-ad91-1c34da757fa2,hp009.utah.cloudlab.us,92,200,fixed,1646703365.5607867,35201.665542521,35279.372808169
1ee229c8-9ec7-11ec-ab98-1c34da757fa2,hp009.utah.cloudlab.us,93,200,random,1646703365.5607867,35529.731464228,35607.157868898
e2492cd6-9ec7-11ec-9fd6-1c34da757fa2,hp009.utah.cloudlab.us,94,200,fixed,1646703365.5607867,35857.560553025,35935.122477911
a5bd52d2-9ec8-11ec-9263-1c34da757fa2,hp009.utah.cloudlab.us,95,200,random,1646703365.5607867,36185.460047288,36263.051182732
6933fdef-9ec9-11ec-8faa-1c34da757fa2,hp009.utah.cloudlab.us,96,200,fixed,1646703365.5607867,36513.412327996,36590.800419087
2c8e78aa-9eca-11ec-a749-1c34da757fa2,hp009.utah.cloudlab.us,97,200,random,1646703365.5607867,36841.16016067,36918.628066986
eff0efe3-9eca-11ec-95c6-1c34da757fa2,hp009.utah.cloudlab.us,98,200,fixed,1646703365.5607867,37168.960873465,37246.464238181
b35c8a6f-9ecb-11ec-9b71-1c34da757fa2,hp009.utah.cloudlab.us,99,200,random,1646703365.5607867,37496.82129134,37574.22393984
76b986e6-9ecc-11ec-b74e-1c34da757fa2,hp009.utah.cloudlab.us,100,200,fixed,1646703365.5607867,37824.587024046,37902.070266862
3a22af8c-9ecd-11ec-ab5f-1c34da757fa2,hp009.utah.cloudlab.us,101,200,random,1646703365.5607867,38152.424846152,38229.917459601
fd8b894c-9ecd-11ec-b281-1c34da757fa2,hp009.utah.cloudlab.us,102,200,fixed,1646703365.5607867,38480.275022381,38557.944011067
c110e6be-9ece-11ec-95d4-1c34da757fa2,hp009.utah.cloudlab.us,103,200,random,1646703365.5607867,38808.303452019,38885.578130351
8459c98d-9ecf-11ec-9058-1c34da757fa2,hp009.utah.cloudlab.us,104,200,fixed,1646703365.5607867,39135.938032891,39213.538902486
47d3f0e0-9ed0-11ec-a656-1c34da757fa2,hp009.utah.cloudlab.us,105,200,random,1646703365.5607867,39463.892551406,39541.300620609
0b311cf2-9ed1-11ec-95a0-1c34da757fa2,hp009.utah.cloudlab.us,106,200,fixed,1646703365.5607867,39791.642385745,39869.116820778
ce95e7f6-9ed1-11ec-83a6-1c34da757fa2,hp009.utah.cloudlab.us,107,200,random,1646703365.5607867,40119.476836444,40196.981893558
9201d8e6-9ed2-11ec-9fc9-1c34da757fa2,hp009.utah.cloudlab.us,108,200,fixed,1646703365.5607867,40447.340115783,40524.989756081
557c80ac-9ed3-11ec-a239-1c34da757fa2,hp009.utah.cloudlab.us,109,200,random,1646703365.5607867,40775.299925119,40852.646624726
18cfc8b1-9ed4-11ec-9704-1c34da757fa2,hp009.utah.cloudlab.us,110,200,fixed,1646703365.5607867,41103.000095416,41180.455208031
dc34718e-9ed4-11ec-b42e-1c34da757fa2,hp009.utah.cloudlab.us,111,200,random,1646703365.5607867,41430.816111326,41508.214986682
9f90bdbe-9ed5-11ec-a719-1c34da757fa2,hp009.utah.cloudlab.us,112,200,fixed,1646703365.5607867,41758.577130176,41836.346710636
632562fe-9ed6-11ec-bd82-1c34da757fa2,hp009.utah.cloudlab.us,113,200,random,1646703365.5607867,42086.688284518,42164.172875472
268bbe69-9ed7-11ec-8cfd-1c34da757fa2,hp009.utah.cloudlab.us,114,200,fixed,1646703365.5607867,42414.53232643,42491.975098136
e9ee355b-9ed7-11ec-829c-1c34da757fa2,hp009.utah.cloudlab.us,115,200,random,1646703365.5607867,42742.333320479,42819.77558138
ad47f771-9ed8-11ec-a936-1c34da757fa2,hp009.utah.cloudlab.us,116,200,fixed,1646703365.5607867,43070.077961253,43147.48081721
70a495ab-9ed9-11ec-9a73-1c34da757fa2,hp009.utah.cloudlab.us,117,200,random,1646703365.5607867,43397.821850833,43475.493757841
342730ab-9eda-11ec-865b-1c34da757fa2,hp009.utah.cloudlab.us,118,200,fixed,1646703365.5607867,43725.852336661,43803.640548473
f7be5479-9eda-11ec-8f2e-1c34da757fa2,hp009.utah.cloudlab.us,119,200,random,1646703365.5607867,44053.999056056,44131.45299849
bb143d5c-9edb-11ec-b4e6-1c34da757fa2,hp009.utah.cloudlab.us,120,200,fixed,1646703365.5607867,44381.698139365,44459.219790812
7e7f5b09-9edc-11ec-8146-1c34da757fa2,hp009.utah.cloudlab.us,121,200,random,1646703365.5607867,44709.575482002,44787.006724735
41e08999-9edd-11ec-9c22-1c34da757fa2,hp009.utah.cloudlab.us,122,200,fixed,1646703365.5607867,45037.366760152,45114.904641255
0551f5ba-9ede-11ec-a381-1c34da757fa2,hp009.utah.cloudlab.us,123,200,random,1646703365.5607867,45365.268424251,45442.674503267
c8a8bf42-9ede-11ec-8244-1c34da757fa2,hp009.utah.cloudlab.us,124,200,fixed,1646703365.5607867,45692.972715266,45770.567329497
8c1fdf0b-9edf-11ec-9841-1c34da757fa2,hp009.utah.cloudlab.us,125,200,random,1646703365.5607867,46020.925396254,46098.260443671
4f717ed3-9ee0-11ec-b23f-1c34da757fa2,hp009.utah.cloudlab.us,126,200,fixed,1646703365.5607867,46348.619468232,46426.288157681
12fd3587-9ee1-11ec-9285-1c34da757fa2,hp009.utah.cloudlab.us,127,200,random,1646703365.5607867,46676.670149488,46754.09463922
d65933d3-9ee1-11ec-8f4e-1c34da757fa2,hp009.utah.cloudlab.us,128,200,fixed,1646703365.5607867,47004.430935832,47082.045104215
99d39ab6-9ee2-11ec-a331-1c34da757fa2,hp009.utah.cloudlab.us,129,200,random,1646703365.5607867,47332.405433954,47409.854921659
5d319d88-9ee3-11ec-973e-1c34da757fa2,hp009.utah.cloudlab.us,130,200,fixed,1646703365.5607867,47660.172077414,47737.87642822
20bb9bf2-9ee4-11ec-ad21-1c34da757fa2,hp009.utah.cloudlab.us,131,200,random,1646703365.5607867,47988.237812563,48065.8917311
e43df6a7-9ee4-11ec-9d41-1c34da757fa2,hp009.utah.cloudlab.us,132,200,fixed,1646703365.5607867,48316.247345164,48393.705999762
a7a99916-9ee5-11ec-8dde-1c34da757fa2,hp009.utah.cloudlab.us,133,200,random,1646703365.5607867,48644.088968234,48721.714673562
6b2bb98c-9ee6-11ec-8d7a-1c34da757fa2,hp009.utah.cloudlab.us,134,200,fixed,1646703365.5607867,48972.117538819,49049.658688555
2ea44cda-9ee7-11ec-9331-1c34da757fa2,hp009.utah.cloudlab.us,135,200,random,1646703365.5607867,49300.064615953,49377.60502082
f215a746-9ee7-11ec-8643-1c34da757fa2,hp009.utah.cloudlab.us,136,200,fixed,1646703365.5607867,49627.962111677,49705.450966281
b57fa980-9ee8-11ec-a93a-1c34da757fa2,hp009.utah.cloudlab.us,137,200,random,1646703365.5607867,49955.806219115,50033.377252643
78f4dabc-9ee9-11ec-b77f-1c34da757fa2,hp009.utah.cloudlab.us,138,200,fixed,1646703365.5607867,50283.716876003,50361.287228702
3c6f385e-9eea-11ec-8e91-1c34da757fa2,hp009.utah.cloudlab.us,139,200,random,1646703365.5607867,50611.694501504,50689.030202555
ffc1e8e4-9eea-11ec-8105-1c34da757fa2,hp009.utah.cloudlab.us,140,200,fixed,1646703365.5607867,50939.392843465,51016.931083158
c3334058-9eeb-11ec-8e2f-1c34da757fa2,hp009.utah.cloudlab.us,141,200,random,1646703365.5607867,51267.289778076,51344.791396187
869fb7d7-9eec-11ec-bece-1c34da757fa2,hp009.utah.cloudlab.us,142,200,fixed,1646703365.5607867,51595.157136549,51672.743912683
4a18a4f6-9eed-11ec-9734-1c34da757fa2,hp009.utah.cloudlab.us,143,200,random,1646703365.5607867,51923.103194725,52000.434828986
0d6a77f8-9eee-11ec-961c-1c34da757fa2,hp009.utah.cloudlab.us,144,200,fixed,1646703365.5607867,52250.796570757,52328.341414758
d0dcc1a2-9eee-11ec-ae9b-1c34da757fa2,hp009.utah.cloudlab.us,145,200,random,1646703365.5607867,52578.700795236,52656.012647444
9425fb09-9eef-11ec-9d90-1c34da757fa2,hp009.utah.cloudlab.us,146,200,fixed,1646703365.5607867,52906.336534118,52983.787089803
57897bac-9ef0-11ec-b83f-1c34da757fa2,hp009.utah.cloudlab.us,147,200,random,1646703365.5607867,53234.144823564,53311.818087294
1b1009de-9ef1-11ec-bc54-1c34da757fa2,hp009.utah.cloudlab.us,148,200,fixed,1646703365.5607867,53562.176427561,53639.700922659
de7e238b-9ef1-11ec-ab93-1c34da757fa2,hp009.utah.cloudlab.us,149,200,random,1646703365.5607867,53890.040867367,53967.627892488
a1f45117-9ef2-11ec-afe6-1c34da757fa2,hp009.utah.cloudlab.us,150,200,fixed,1646703365.5607867,54217.98962618,54295.54003729
656dd4ca-9ef3-11ec-adf0-1c34da757fa2,hp009.utah.cloudlab.us,151,200,random,1646703365.5607867,54545.921406321,54623.712196296
2901fd42-9ef4-11ec-970b-1c34da757fa2,hp009.utah.cloudlab.us,152,200,fixed,1646703365.5607867,54874.069470058,54951.58889771
ec707bcd-9ef4-11ec-8181-1c34da757fa2,hp009.utah.cloudlab.us,153,200,random,1646703365.5607867,55201.948683047,55279.531645134
afe02bb2-9ef5-11ec-91f4-1c34da757fa2,hp009.utah.cloudlab.us,154,200,fixed,1646703365.5607867,55529.836824198,55607.405491624
735cf371-9ef6-11ec-9a62-1c34da757fa2,hp009.utah.cloudlab.us,155,200,random,1646703365.5607867,55857.809303699,55935.120842954
36abaea2-9ef7-11ec-a0f5-1c34da757fa2,hp009.utah.cloudlab.us,156,200,fixed,1646703365.5607867,56185.474935663,56262.90086638
fa0af0a0-9ef7-11ec-af4d-1c34da757fa2,hp009.utah.cloudlab.us,157,200,random,1646703365.5607867,56513.260592736,56590.736086
bd729103-9ef8-11ec-afa2-1c34da757fa2,hp009.utah.cloudlab.us,158,200,fixed,1646703365.5607867,56841.096419168,56918.62870517
80e36e25-9ef9-11ec-b387-1c34da757fa2,hp009.utah.cloudlab.us,159,200,random,1646703365.5607867,57168.985540085,57246.477366447
444c9064-9efa-11ec-98d6-1c34da757fa2,hp009.utah.cloudlab.us,160,200,fixed,1646703365.5607867,57496.83617841,57574.483338391
07d51738-9efb-11ec-8a02-1c34da757fa2,hp009.utah.cloudlab.us,161,200,random,1646703365.5607867,57824.887216319,57902.365315274
cb3d665c-9efb-11ec-add1-1c34da757fa2,hp009.utah.cloudlab.us,162,200,fixed,1646703365.5607867,58152.725984404,58230.146574663
8e9c98f2-9efc-11ec-8826-1c34da757fa2,hp009.utah.cloudlab.us,163,200,random,1646703365.5607867,58480.505767101,58558.164033002
5220192f-9efd-11ec-b9a3-1c34da757fa2,hp009.utah.cloudlab.us,164,200,fixed,1646703365.5607867,58808.524672442,58886.086926838
159523eb-9efe-11ec-8b4e-1c34da757fa2,hp009.utah.cloudlab.us,165,200,random,1646703365.5607867,59136.446870695,59214.06003894
d91225a0-9efe-11ec-b68a-1c34da757fa2,hp009.utah.cloudlab.us,166,200,fixed,1646703365.5607867,59464.42009958,59541.957861223
9c77b57b-9eff-11ec-a0b7-1c34da757fa2,hp009.utah.cloudlab.us,167,200,random,1646703365.5607867,59792.241623227,59869.723436066
5fe04808-9f00-11ec-9ce5-1c34da757fa2,hp009.utah.cloudlab.us,168,200,fixed,1646703365.5607867,60120.082989769,60197.701614467
235caf7f-9f01-11ec-8e3c-1c34da757fa2,hp009.utah.cloudlab.us,169,200,random,1646703365.5607867,60448.055472219,60525.522083187
e6ca1d08-9f01-11ec-86c5-1c34da757fa2,hp009.utah.cloudlab.us,170,200,fixed,1646703365.5607867,60775.903723519,60853.153775718
aa0be9ec-9f02-11ec-b1a5-1c34da757fa2,hp009.utah.cloudlab.us,171,200,random,1646703365.5607867,61103.51301412,61180.82938636
6d52bc53-9f03-11ec-a84f-1c34da757fa2,hp009.utah.cloudlab.us,172,200,fixed,1646703365.5607867,61431.128052712,61508.680617237
30c59005-9f04-11ec-98a5-1c34da757fa2,hp009.utah.cloudlab.us,173,200,random,1646703365.5607867,61759.042867229,61836.487738585
f4288676-9f04-11ec-ba0b-1c34da757fa2,hp009.utah.cloudlab.us,174,200,fixed,1646703365.5607867,62086.846707999,62164.484151833
b7a893ef-9f05-11ec-a16b-1c34da757fa2,hp009.utah.cloudlab.us,175,200,random,1646703365.5607867,62414.841696328,62492.372324152
7b1924f6-9f06-11ec-bac5-1c34da757fa2,hp009.utah.cloudlab.us,176,200,fixed,1646703365.5607867,62742.715601781,62820.052586677
3e659cba-9f07-11ec-9461-1c34da757fa2,hp009.utah.cloudlab.us,177,200,random,1646703365.5607867,63070.385630387,63147.852456411
01ca2d75-9f08-11ec-9f5f-1c34da757fa2,hp009.utah.cloudlab.us,178,200,fixed,1646703365.5607867,63398.206028791,63475.741433114
c53899b5-9f08-11ec-bb73-1c34da757fa2,hp009.utah.cloudlab.us,179,200,random,1646703365.5607867,63726.087354605,63803.504863929
88971dad-9f09-11ec-a3e6-1c34da757fa2,hp009.utah.cloudlab.us,180,200,fixed,1646703365.5607867,64053.861691334,64131.284417371
4bf6d2f1-9f0a-11ec-b3bf-1c34da757fa2,hp009.utah.cloudlab.us,181,200,random,1646703365.5607867,64381.625783385,64458.889778318
0f3b91d4-9f0b-11ec-b4e0-1c34da757fa2,hp009.utah.cloudlab.us,182,200,fixed,1646703365.5607867,64709.250696216,64786.584597834
d28d82ed-9f0b-11ec-b2e0-1c34da757fa2,hp009.utah.cloudlab.us,183,200,random,1646703365.5607867,65036.922105514,65114.69939511
96267666-9f0c-11ec-b6bd-1c34da757fa2,hp009.utah.cloudlab.us,184,200,fixed,1646703365.5607867,65365.08247434,65442.761615161
59a443e6-9f0d-11ec-9cbf-1c34da757fa2,hp009.utah.cloudlab.us,185,200,random,1646703365.5607867,65693.081413775,65770.618514446
1d14edd1-9f0e-11ec-b2eb-1c34da757fa2,hp009.utah.cloudlab.us,186,200,fixed,1646703365.5607867,66020.95596801,66098.340026096
e06bcc5b-9f0e-11ec-94d1-1c34da757fa2,hp009.utah.cloudlab.us,187,200,random,1646703365.5607867,66348.699842582,66426.028764057
a3bd21f2-9f0f-11ec-b972-1c34da757fa2,hp009.utah.cloudlab.us,188,200,fixed,1646703365.5607867,66676.369667199,66753.986585561
6736f83e-9f10-11ec-8313-1c34da757fa2,hp009.utah.cloudlab.us,189,200,random,1646703365.5607867,67004.336773862,67081.944494327
2ab1931f-9f11-11ec-a09e-1c34da757fa2,hp009.utah.cloudlab.us,190,200,fixed,1646703365.5607867,67332.302661588,67409.926855579
ee30ccd7-9f11-11ec-b3e0-1c34da757fa2,hp009.utah.cloudlab.us,191,200,random,1646703365.5607867,67660.29235187,67737.794941157
b19c5b08-9f12-11ec-8f47-1c34da757fa2,hp009.utah.cloudlab.us,192,200,fixed,1646703365.5607867,67988.13327338,68065.594288105
74ff1846-9f13-11ec-a72f-1c34da757fa2,hp009.utah.cloudlab.us,193,200,random,1646703365.5607867,68315.957435755,68393.369046069
385b61df-9f14-11ec-980c-1c34da757fa2,hp009.utah.cloudlab.us,194,200,fixed,1646703365.5607867,68643.716053127,68721.19799539
fbc33498-9f14-11ec-bb3e-1c34da757fa2,hp009.utah.cloudlab.us,195,200,random,1646703365.5607867,68971.531912304,69048.976422114
bf239e27-9f15-11ec-a2b1-1c34da757fa2,hp009.utah.cloudlab.us,196,200,fixed,1646703365.5607867,69299.335107418,69376.812792504
828a4a28-9f16-11ec-bdc2-1c34da757fa2,hp009.utah.cloudlab.us,197,200,random,1646703365.5607867,69627.170307876,69704.703222108
45fb3ccb-9f17-11ec-9aa2-1c34da757fa2,hp009.utah.cloudlab.us,198,200,fixed,1646703365.5607867,69955.065256465,70032.735235087
0981e55a-9f18-11ec-83c4-1c34da757fa2,hp009.utah.cloudlab.us,199,200,random,1646703365.5607867,70283.103768583,70360.811330491
