# started on Tue Mar  8 12:43:33 2022

3607787697,,cache-misses,118474630555,26.66,18.628,of all cache refs
19367629361,,cache-references,118530371069,26.67,,
4092066,,branch-misses,118560492808,26.68,,
0,,mem-loads,118566709086,26.68,,
40494820351,,mem-stores,118581818700,26.68,,
647981669,,LLC-load-misses,118527716633,26.67,,
0,,LLC-store-misses,118493946104,26.66,,
12643877922,,L1-dcache-load-misses,118490883807,26.66,,
37062612,,L1-icache-load-misses,118481537258,26.66,,
7426298,,dTLB-load-misses,118478883575,26.66,,
87342163,,dTLB-store-misses,118489446697,26.66,,
293179,,page-faults,444397289263,100.00,,
0,,alignment-faults,444397289263,100.00,,
777,,context-switches,444397289263,100.00,,
13,,cpu-migrations,444397289263,100.00,,
4,,major-faults,444397289263,100.00,,
293175,,minor-faults,444397289263,100.00,,
4142151,,branch-load-misses,118493547438,26.66,,
1525877,,iTLB-load-misses,118493118860,26.66,,
0,,node-store-misses,118491587591,26.66,,
0,,node-load-misses,118484786751,26.66,,
