run_uuid,hostname,run_num,total_runs,order_type,random_seed,time_start,time_stop
a5f116ad-8b0b-11ec-b0a7-043f72acca06,hp013.utah.cloudlab.us,0,200,fixed,1644564268.6583993,130639.500077297,130720.66623696
6b88be6c-8b0c-11ec-9b5e-043f72acca06,hp013.utah.cloudlab.us,1,200,random,1644564268.6583993,130971.016700132,131052.389193066
31418f43-8b0d-11ec-883e-043f72acca06,hp013.utah.cloudlab.us,2,200,fixed,1644564268.6583993,131302.726018574,131384.048450604
f6f14a40-8b0d-11ec-a523-043f72acca06,hp013.utah.cloudlab.us,3,200,random,1644564268.6583993,131634.406832866,131715.683880879
bc966822-8b0e-11ec-bc69-043f72acca06,hp013.utah.cloudlab.us,4,200,fixed,1644564268.6583993,131966.002287391,132047.299637914
824583b9-8b0f-11ec-a492-043f72acca06,hp013.utah.cloudlab.us,5,200,random,1644564268.6583993,132297.65875254,132379.194125515
48190da9-8b10-11ec-ab8d-043f72acca06,hp013.utah.cloudlab.us,6,200,fixed,1644564268.6583993,132629.537757168,132710.862761413
0dcfffda-8b11-11ec-b055-043f72acca06,hp013.utah.cloudlab.us,7,200,random,1644564268.6583993,132961.267442405,133042.558382848
d37ddb88-8b11-11ec-8652-043f72acca06,hp013.utah.cloudlab.us,8,200,fixed,1644564268.6583993,133292.918093346,133374.136555739
9921008e-8b12-11ec-a75d-043f72acca06,hp013.utah.cloudlab.us,9,200,random,1644564268.6583993,133624.492632559,133705.895152394
5edf4fd8-8b13-11ec-a3ca-043f72acca06,hp013.utah.cloudlab.us,10,200,fixed,1644564268.6583993,133956.256157024,134037.669587257
249fc259-8b14-11ec-93eb-043f72acca06,hp013.utah.cloudlab.us,11,200,random,1644564268.6583993,134288.028681286,134369.486662618
ea676382-8b14-11ec-add0-043f72acca06,hp013.utah.cloudlab.us,12,200,fixed,1644564268.6583993,134619.847955092,134701.105846736
b015ecc3-8b15-11ec-ad69-043f72acca06,hp013.utah.cloudlab.us,13,200,random,1644564268.6583993,134951.502337979,135032.688011229
75b38b88-8b16-11ec-b596-043f72acca06,hp013.utah.cloudlab.us,14,200,fixed,1644564268.6583993,135283.046471012,135364.158390362
3b467771-8b17-11ec-b137-043f72acca06,hp013.utah.cloudlab.us,15,200,random,1644564268.6583993,135614.513461292,135696.247005636
0136ec23-8b18-11ec-847e-043f72acca06,hp013.utah.cloudlab.us,16,200,fixed,1644564268.6583993,135946.609568784,136027.903435539
c6e53bcc-8b18-11ec-9631-043f72acca06,hp013.utah.cloudlab.us,17,200,random,1644564268.6583993,136278.261688767,136359.612601042
8c9ba261-8b19-11ec-8e7c-043f72acca06,hp013.utah.cloudlab.us,18,200,fixed,1644564268.6583993,136609.969612628,136691.253754152
5248e39a-8b1a-11ec-bd13-043f72acca06,hp013.utah.cloudlab.us,19,200,random,1644564268.6583993,136941.615534308,137022.956155045
17fedb7b-8b1b-11ec-8d35-043f72acca06,hp013.utah.cloudlab.us,20,200,fixed,1644564268.6583993,137273.298845524,137354.755384904
ddc2a9e1-8b1b-11ec-8ee9-043f72acca06,hp013.utah.cloudlab.us,21,200,random,1644564268.6583993,137605.113518386,137686.550628396
a386c480-8b1c-11ec-a49d-043f72acca06,hp013.utah.cloudlab.us,22,200,fixed,1644564268.6583993,137936.909100849,138018.188397535
6932b041-8b1d-11ec-bd23-043f72acca06,hp013.utah.cloudlab.us,23,200,random,1644564268.6583993,138268.548277703,138349.964832652
2ef38daa-8b1e-11ec-8ea5-043f72acca06,hp013.utah.cloudlab.us,24,200,fixed,1644564268.6583993,138600.322651963,138681.586684249
f495b561-8b1e-11ec-9c46-043f72acca06,hp013.utah.cloudlab.us,25,200,random,1644564268.6583993,138931.897755006,139013.128751605
ba39c5f0-8b1f-11ec-ab48-043f72acca06,hp013.utah.cloudlab.us,26,200,fixed,1644564268.6583993,139263.48425907,139344.721621275
7fdf60be-8b20-11ec-9483-043f72acca06,hp013.utah.cloudlab.us,27,200,random,1644564268.6583993,139595.072890028,139676.623317017
45b3f7b4-8b21-11ec-9ea4-043f72acca06,hp013.utah.cloudlab.us,28,200,fixed,1644564268.6583993,139926.977070046,140008.2427406
0b63d983-8b22-11ec-836c-043f72acca06,hp013.utah.cloudlab.us,29,200,random,1644564268.6583993,140258.672537773,140340.215845103
d13c2ea2-8b22-11ec-9640-043f72acca06,hp013.utah.cloudlab.us,30,200,fixed,1644564268.6583993,140590.559227428,140671.84205075
96e6525e-8b23-11ec-9437-043f72acca06,hp013.utah.cloudlab.us,31,200,random,1644564268.6583993,140922.194851618,141003.503182091
5c8f0961-8b24-11ec-b716-043f72acca06,hp013.utah.cloudlab.us,32,200,fixed,1644564268.6583993,141253.799048226,141334.907151466
2224664d-8b25-11ec-83bb-043f72acca06,hp013.utah.cloudlab.us,33,200,random,1644564268.6583993,141585.309535268,141666.629482378
e7d4d158-8b25-11ec-8ff6-043f72acca06,hp013.utah.cloudlab.us,34,200,fixed,1644564268.6583993,141916.977600823,141998.352464364
ad8f7b43-8b26-11ec-8b43-043f72acca06,hp013.utah.cloudlab.us,35,200,random,1644564268.6583993,142248.711389763,142329.818532883
73218ec4-8b27-11ec-9443-043f72acca06,hp013.utah.cloudlab.us,36,200,fixed,1644564268.6583993,142580.178778448,142661.513245798
38d5a8f8-8b28-11ec-98a7-043f72acca06,hp013.utah.cloudlab.us,37,200,random,1644564268.6583993,142911.872354858,142993.108033569
fe7a685d-8b28-11ec-bc14-043f72acca06,hp013.utah.cloudlab.us,38,200,fixed,1644564268.6583993,143243.462095008,143324.768481833
c4261a8e-8b29-11ec-b5c2-043f72acca06,hp013.utah.cloudlab.us,39,200,random,1644564268.6583993,143575.080487349,143656.224907824
89bb0e47-8b2a-11ec-a425-043f72acca06,hp013.utah.cloudlab.us,40,200,fixed,1644564268.6583993,143906.568094783,143987.771769109
4f591318-8b2b-11ec-a069-043f72acca06,hp013.utah.cloudlab.us,41,200,random,1644564268.6583993,144238.133494295,144319.494460267
1512977d-8b2c-11ec-9364-043f72acca06,hp013.utah.cloudlab.us,42,200,fixed,1644564268.6583993,144569.860115179,144650.911098261
da9bf6b8-8b2c-11ec-86d0-043f72acca06,hp013.utah.cloudlab.us,43,200,random,1644564268.6583993,144901.250843908,144982.485167907
a03e75f9-8b2d-11ec-b2ab-043f72acca06,hp013.utah.cloudlab.us,44,200,fixed,1644564268.6583993,145232.846940652,145314.153913739
65eefcd1-8b2e-11ec-a482-043f72acca06,hp013.utah.cloudlab.us,45,200,random,1644564268.6583993,145564.514794317,145645.74999551
2b9461f3-8b2f-11ec-89da-043f72acca06,hp013.utah.cloudlab.us,46,200,fixed,1644564268.6583993,145896.104456265,145977.450123201
f1496f25-8b2f-11ec-acce-043f72acca06,hp013.utah.cloudlab.us,47,200,random,1644564268.6583993,146227.808279078,146309.141347011
b6fdd58b-8b30-11ec-a800-043f72acca06,hp013.utah.cloudlab.us,48,200,fixed,1644564268.6583993,146559.500262611,146640.874797715
7cb84cc4-8b31-11ec-b128-043f72acca06,hp013.utah.cloudlab.us,49,200,random,1644564268.6583993,146891.23423761,146972.800595499
42856134-8b32-11ec-ac80-043f72acca06,hp013.utah.cloudlab.us,50,200,fixed,1644564268.6583993,147223.088748854,147304.52857749
08518c18-8b33-11ec-8e0e-043f72acca06,hp013.utah.cloudlab.us,51,200,random,1644564268.6583993,147554.922918852,147636.011911624
cdde5dcf-8b33-11ec-a4ba-043f72acca06,hp013.utah.cloudlab.us,52,200,fixed,1644564268.6583993,147886.373877175,147967.499967977
9372f8b6-8b34-11ec-95d1-043f72acca06,hp013.utah.cloudlab.us,53,200,random,1644564268.6583993,148217.858354844,148298.994690329
590967b1-8b35-11ec-a7f3-043f72acca06,hp013.utah.cloudlab.us,54,200,fixed,1644564268.6583993,148549.355775574,148630.746871536
1ec69405-8b36-11ec-95dc-043f72acca06,hp013.utah.cloudlab.us,55,200,random,1644564268.6583993,148881.106107698,148962.484203621
e4827a9f-8b36-11ec-9c2a-043f72acca06,hp013.utah.cloudlab.us,56,200,fixed,1644564268.6583993,149212.848503337,149294.223040433
aa3d1c12-8b37-11ec-aae9-043f72acca06,hp013.utah.cloudlab.us,57,200,random,1644564268.6583993,149544.582360368,149625.856743414
6fe859e7-8b38-11ec-bf35-043f72acca06,hp013.utah.cloudlab.us,58,200,fixed,1644564268.6583993,149876.197640081,149957.540802875
359b6790-8b39-11ec-9e7b-043f72acca06,hp013.utah.cloudlab.us,59,200,random,1644564268.6583993,150207.90068877,150288.995382933
fb3179af-8b39-11ec-93cc-043f72acca06,hp013.utah.cloudlab.us,60,200,fixed,1644564268.6583993,150539.396595394,150620.606112105
c0d33679-8b3a-11ec-862f-043f72acca06,hp013.utah.cloudlab.us,61,200,random,1644564268.6583993,150870.9661768,150952.250014578
867fcf9e-8b3b-11ec-841e-043f72acca06,hp013.utah.cloudlab.us,62,200,fixed,1644564268.6583993,151202.588854462,151283.710509122
4c10b303-8b3c-11ec-bce6-043f72acca06,hp013.utah.cloudlab.us,63,200,random,1644564268.6583993,151534.068296385,151615.618145182
11e61ccb-8b3d-11ec-8169-043f72acca06,hp013.utah.cloudlab.us,64,200,fixed,1644564268.6583993,151865.979464168,151947.261471422
d7994a14-8b3d-11ec-bab7-043f72acca06,hp013.utah.cloudlab.us,65,200,random,1644564268.6583993,152197.664064358,152279.198276639
9d721cb5-8b3e-11ec-ab38-043f72acca06,hp013.utah.cloudlab.us,66,200,fixed,1644564268.6583993,152529.596499776,152610.810237397
631a3570-8b3f-11ec-8e67-043f72acca06,hp013.utah.cloudlab.us,67,200,random,1644564268.6583993,152861.210404267,152942.507119199
28c913d9-8b40-11ec-b0be-043f72acca06,hp013.utah.cloudlab.us,68,200,fixed,1644564268.6583993,153192.867260907,153273.861354391
ee4a7aef-8b40-11ec-821e-043f72acca06,hp013.utah.cloudlab.us,69,200,random,1644564268.6583993,153524.225930341,153605.214917587
b3c30b2d-8b41-11ec-b3a3-043f72acca06,hp013.utah.cloudlab.us,70,200,fixed,1644564268.6583993,153855.526594439,153936.66955269
795ada19-8b42-11ec-9cb7-043f72acca06,hp013.utah.cloudlab.us,71,200,random,1644564268.6583993,154187.033149384,154268.159935182
3eefa6fa-8b43-11ec-b5db-043f72acca06,hp013.utah.cloudlab.us,72,200,fixed,1644564268.6583993,154518.519748449,154599.831674861
04a06b22-8b44-11ec-8a59-043f72acca06,hp013.utah.cloudlab.us,73,200,random,1644564268.6583993,154850.168827931,154931.967158906
ca98e9dd-8b44-11ec-99a4-043f72acca06,hp013.utah.cloudlab.us,74,200,fixed,1644564268.6583993,155182.308481316,155263.685795103
9050a51e-8b45-11ec-b0a8-043f72acca06,hp013.utah.cloudlab.us,75,200,random,1644564268.6583993,155514.023410809,155595.100043749
55daaaa7-8b46-11ec-b3f8-043f72acca06,hp013.utah.cloudlab.us,76,200,fixed,1644564268.6583993,155845.439156787,155926.890139174
1ba499d4-8b47-11ec-802c-043f72acca06,hp013.utah.cloudlab.us,77,200,random,1644564268.6583993,156177.274982216,156258.652292979
e154cb4f-8b47-11ec-9888-043f72acca06,hp013.utah.cloudlab.us,78,200,fixed,1644564268.6583993,156508.94069065,156590.399519813
a71934a2-8b48-11ec-bf54-043f72acca06,hp013.utah.cloudlab.us,79,200,random,1644564268.6583993,156840.758691464,156922.307948942
6cef0d25-8b49-11ec-8f38-043f72acca06,hp013.utah.cloudlab.us,80,200,fixed,1644564268.6583993,157172.671110931,157254.055187959
32abb1d0-8b4a-11ec-a755-043f72acca06,hp013.utah.cloudlab.us,81,200,random,1644564268.6583993,157504.396418288,157585.548794562
f840ffe0-8b4a-11ec-98de-043f72acca06,hp013.utah.cloudlab.us,82,200,fixed,1644564268.6583993,157835.90728701,157917.130836727
bde54ddc-8b4b-11ec-9785-043f72acca06,hp013.utah.cloudlab.us,83,200,random,1644564268.6583993,158167.476810059,158248.718221166
8388c7e7-8b4c-11ec-af45-043f72acca06,hp013.utah.cloudlab.us,84,200,fixed,1644564268.6583993,158499.079570231,158580.577849684
4955fded-8b4d-11ec-8c3c-043f72acca06,hp013.utah.cloudlab.us,85,200,random,1644564268.6583993,158830.934491515,158912.256720333
0f085336-8b4e-11ec-bd22-043f72acca06,hp013.utah.cloudlab.us,86,200,fixed,1644564268.6583993,159162.607981097,159243.871425246
d4b11319-8b4e-11ec-a4dd-043f72acca06,hp013.utah.cloudlab.us,87,200,random,1644564268.6583993,159494.214305588,159575.746191581
9a781a2d-8b4f-11ec-a0cf-043f72acca06,hp013.utah.cloudlab.us,88,200,fixed,1644564268.6583993,159826.047073155,159907.421791898
6032e2ce-8b50-11ec-879c-043f72acca06,hp013.utah.cloudlab.us,89,200,random,1644564268.6583993,160157.782239693,160239.12460312
25e83104-8b51-11ec-b93f-043f72acca06,hp013.utah.cloudlab.us,90,200,fixed,1644564268.6583993,160489.480440366,160570.550311128
eb743714-8b51-11ec-b923-043f72acca06,hp013.utah.cloudlab.us,91,200,random,1644564268.6583993,160820.905879514,160902.365115699
b141be31-8b52-11ec-b0dd-043f72acca06,hp013.utah.cloudlab.us,92,200,fixed,1644564268.6583993,161152.769646772,161233.977420912
76e3e44b-8b53-11ec-ba04-043f72acca06,hp013.utah.cloudlab.us,93,200,random,1644564268.6583993,161484.342614537,161565.789714694
3ca9ac22-8b54-11ec-bb26-043f72acca06,hp013.utah.cloudlab.us,94,200,fixed,1644564268.6583993,161816.149922115,161900.350084074
04131a36-8b55-11ec-ae1e-043f72acca06,hp013.utah.cloudlab.us,95,200,random,1644564268.6583993,162150.707726073,162231.743518117
c99a1330-8b55-11ec-9446-043f72acca06,hp013.utah.cloudlab.us,96,200,fixed,1644564268.6583993,162482.08354887,162563.342913093
8f47322f-8b56-11ec-8203-043f72acca06,hp013.utah.cloudlab.us,97,200,random,1644564268.6583993,162813.750124357,162894.993125058
54ed4349-8b57-11ec-bb76-043f72acca06,hp013.utah.cloudlab.us,98,200,fixed,1644564268.6583993,163145.349239124,163226.579390208
1a91f701-8b58-11ec-b534-043f72acca06,hp013.utah.cloudlab.us,99,200,random,1644564268.6583993,163476.938955754,163558.273222171
e040b6de-8b58-11ec-b3c4-043f72acca06,hp013.utah.cloudlab.us,100,200,fixed,1644564268.6583993,163808.58843689,163889.862403958
a5f1c119-8b59-11ec-bb6b-043f72acca06,hp013.utah.cloudlab.us,101,200,random,1644564268.6583993,164140.265567428,164221.607678729
6ba7517a-8b5a-11ec-966a-043f72acca06,hp013.utah.cloudlab.us,102,200,fixed,1644564268.6583993,164471.967816744,164553.272443601
31572bf7-8b5b-11ec-a8ea-043f72acca06,hp013.utah.cloudlab.us,103,200,random,1644564268.6583993,164803.631845771,164884.980563205
f708cf0c-8b5b-11ec-920b-043f72acca06,hp013.utah.cloudlab.us,104,200,fixed,1644564268.6583993,165135.306860418,165216.634997942
bcbcdb3b-8b5c-11ec-a02c-043f72acca06,hp013.utah.cloudlab.us,105,200,random,1644564268.6583993,165466.998240411,165548.50276585
828bac06-8b5d-11ec-bddf-043f72acca06,hp013.utah.cloudlab.us,106,200,fixed,1644564268.6583993,165798.84568122,165880.047165825
482fd90a-8b5e-11ec-8a9a-043f72acca06,hp013.utah.cloudlab.us,107,200,random,1644564268.6583993,166130.453407498,166211.712778766
0dd1abb4-8b5f-11ec-b97b-043f72acca06,hp013.utah.cloudlab.us,108,200,fixed,1644564268.6583993,166462.02297806,166543.334530383
d37e5baf-8b5f-11ec-966a-043f72acca06,hp013.utah.cloudlab.us,109,200,random,1644564268.6583993,166793.666843522,166875.028209253
99373869-8b60-11ec-96b0-043f72acca06,hp013.utah.cloudlab.us,110,200,fixed,1644564268.6583993,167125.388262688,167206.728746197
5eecdbc3-8b61-11ec-8a39-043f72acca06,hp013.utah.cloudlab.us,111,200,random,1644564268.6583993,167457.091324781,167538.332527096
249329e1-8b62-11ec-bf9e-043f72acca06,hp013.utah.cloudlab.us,112,200,fixed,1644564268.6583993,167788.691680588,167869.915804713
ea3875af-8b62-11ec-8a42-043f72acca06,hp013.utah.cloudlab.us,113,200,random,1644564268.6583993,168120.280753968,168201.608748072
afe2b88d-8b63-11ec-a68c-043f72acca06,hp013.utah.cloudlab.us,114,200,fixed,1644564268.6583993,168451.913177788,168532.859278197
754f475f-8b64-11ec-9ac4-043f72acca06,hp013.utah.cloudlab.us,115,200,random,1644564268.6583993,168783.117728113,168864.440161551
3afef6f5-8b65-11ec-8293-043f72acca06,hp013.utah.cloudlab.us,116,200,fixed,1644564268.6583993,169114.798589235,169196.133139573
00b3e4d7-8b66-11ec-b19d-043f72acca06,hp013.utah.cloudlab.us,117,200,random,1644564268.6583993,169446.473294339,169527.777690055
c6679fbf-8b66-11ec-acd9-043f72acca06,hp013.utah.cloudlab.us,118,200,fixed,1644564268.6583993,169778.18286057,169859.701241391
8c381a4d-8b67-11ec-be8b-043f72acca06,hp013.utah.cloudlab.us,119,200,random,1644564268.6583993,170110.061941258,170191.363687846
51defc9c-8b68-11ec-96f7-043f72acca06,hp013.utah.cloudlab.us,120,200,fixed,1644564268.6583993,170441.666062677,170522.897710983
17840d5c-8b69-11ec-92e9-043f72acca06,hp013.utah.cloudlab.us,121,200,random,1644564268.6583993,170773.258799869,170854.557484574
dd331905-8b69-11ec-9ff9-043f72acca06,hp013.utah.cloudlab.us,122,200,fixed,1644564268.6583993,171104.912370876,171186.153170362
a2d8997f-8b6a-11ec-8931-043f72acca06,hp013.utah.cloudlab.us,123,200,random,1644564268.6583993,171436.512078097,171517.792932686
6884a191-8b6b-11ec-8df6-043f72acca06,hp013.utah.cloudlab.us,124,200,fixed,1644564268.6583993,171768.152283712,171849.74246262
2e60053e-8b6c-11ec-9690-043f72acca06,hp013.utah.cloudlab.us,125,200,random,1644564268.6583993,172100.082804842,172181.526392374
f42347f9-8b6c-11ec-a3bd-043f72acca06,hp013.utah.cloudlab.us,126,200,fixed,1644564268.6583993,172431.891116401,172513.074742732
b9c12e0b-8b6d-11ec-9d9c-043f72acca06,hp013.utah.cloudlab.us,127,200,random,1644564268.6583993,172763.438235542,172844.708409792
7f72e791-8b6e-11ec-ab69-043f72acca06,hp013.utah.cloudlab.us,128,200,fixed,1644564268.6583993,173095.111281789,173176.611290805
4540bb0f-8b6f-11ec-9c1f-043f72acca06,hp013.utah.cloudlab.us,129,200,random,1644564268.6583993,173426.974152755,173508.250121883
0aec7b26-8b70-11ec-ab8d-043f72acca06,hp013.utah.cloudlab.us,130,200,fixed,1644564268.6583993,173758.610248139,173839.839084306
d0912450-8b70-11ec-90df-043f72acca06,hp013.utah.cloudlab.us,131,200,random,1644564268.6583993,174090.20018897,174171.696088798
965e4309-8b71-11ec-a87d-043f72acca06,hp013.utah.cloudlab.us,132,200,fixed,1644564268.6583993,174422.035914181,180614.739097739
96b8f2c4-8b80-11ec-8be2-043f72acca06,hp013.utah.cloudlab.us,133,200,random,1644564268.6583993,180865.101313077,180946.591501621
5c8b91c1-8b81-11ec-92c1-043f72acca06,hp013.utah.cloudlab.us,134,200,fixed,1644564268.6583993,181196.992005507,181278.360964223
224c3f8d-8b82-11ec-8c54-043f72acca06,hp013.utah.cloudlab.us,135,200,random,1644564268.6583993,181528.766299382,181609.901882319
e7e239e4-8b82-11ec-835c-043f72acca06,hp013.utah.cloudlab.us,136,200,fixed,1644564268.6583993,181860.259690867,193205.999077701
e7b2f4c1-8b9d-11ec-b465-043f72acca06,hp013.utah.cloudlab.us,137,200,random,1644564268.6583993,193456.362566425,193537.817920104
ad7a270b-8b9e-11ec-a242-043f72acca06,hp013.utah.cloudlab.us,138,200,fixed,1644564268.6583993,193788.180448118,193869.495801648
732c79c7-8b9f-11ec-9e4b-043f72acca06,hp013.utah.cloudlab.us,139,200,random,1644564268.6583993,194119.85880547,194201.152434248
38daf6fb-8ba0-11ec-83d4-043f72acca06,hp013.utah.cloudlab.us,140,200,fixed,1644564268.6583993,194451.513868647,194532.851944598
fe84e07b-8ba0-11ec-acc9-043f72acca06,hp013.utah.cloudlab.us,141,200,random,1644564268.6583993,194783.138530665,194864.365221028
c4297e42-8ba1-11ec-bbe8-043f72acca06,hp013.utah.cloudlab.us,142,200,fixed,1644564268.6583993,195114.728059864,195195.992084126
89d35134-8ba2-11ec-9c0f-043f72acca06,hp013.utah.cloudlab.us,143,200,random,1644564268.6583993,195446.35273485,195527.577694903
4f779e16-8ba3-11ec-b239-043f72acca06,hp013.utah.cloudlab.us,144,200,fixed,1644564268.6583993,195777.921896776,195859.271702914
152b2aec-8ba4-11ec-ad53-043f72acca06,hp013.utah.cloudlab.us,145,200,random,1644564268.6583993,196109.607985494,196191.038087536
daf1227a-8ba4-11ec-8313-043f72acca06,hp013.utah.cloudlab.us,146,200,fixed,1644564268.6583993,196441.436539597,196522.827019151
a0ae3cbc-8ba5-11ec-9116-043f72acca06,hp013.utah.cloudlab.us,147,200,random,1644564268.6583993,196773.167043098,196854.529005515
6663e220-8ba6-11ec-897b-043f72acca06,hp013.utah.cloudlab.us,148,200,fixed,1644564268.6583993,197104.889705269,197186.165782285
2c0fbf93-8ba7-11ec-a9e2-043f72acca06,hp013.utah.cloudlab.us,149,200,random,1644564268.6583993,197436.520762309,197517.7613615
f1b5413d-8ba7-11ec-ae28-043f72acca06,hp013.utah.cloudlab.us,150,200,fixed,1644564268.6583993,197768.121514917,197849.412099481
b75d8eb7-8ba8-11ec-a739-043f72acca06,hp013.utah.cloudlab.us,151,200,random,1644564268.6583993,198099.737253965,198180.887691309
7cf5e9b1-8ba9-11ec-8451-043f72acca06,hp013.utah.cloudlab.us,152,200,fixed,1644564268.6583993,198431.246833424,198512.367665513
428abfa4-8baa-11ec-869e-043f72acca06,hp013.utah.cloudlab.us,153,200,random,1644564268.6583993,198762.733449259,198844.234916858
08590dfc-8bab-11ec-8d6e-043f72acca06,hp013.utah.cloudlab.us,154,200,fixed,1644564268.6583993,199094.576598071,199176.12990927
ce2c57d2-8bab-11ec-aee2-043f72acca06,hp013.utah.cloudlab.us,155,200,random,1644564268.6583993,199426.491069182,199507.928468625
93e473b0-8bac-11ec-a310-043f72acca06,hp013.utah.cloudlab.us,156,200,fixed,1644564268.6583993,199758.208493571,199839.499758876
5992ad98-8bad-11ec-ad86-043f72acca06,hp013.utah.cloudlab.us,157,200,random,1644564268.6583993,200089.855295908,200171.112858651
1f3aa594-8bae-11ec-8453-043f72acca06,hp013.utah.cloudlab.us,158,200,fixed,1644564268.6583993,200421.473668039,200502.623723241
e4d94826-8bae-11ec-a291-043f72acca06,hp013.utah.cloudlab.us,159,200,random,1644564268.6583993,200753.018353836,200834.286681628
aa829a25-8baf-11ec-8fac-043f72acca06,hp013.utah.cloudlab.us,160,200,fixed,1644564268.6583993,201084.645118919,201165.831763507
70211423-8bb0-11ec-bafa-043f72acca06,hp013.utah.cloudlab.us,161,200,random,1644564268.6583993,201416.196439197,201497.414539269
35c39d9f-8bb1-11ec-903f-043f72acca06,hp013.utah.cloudlab.us,162,200,fixed,1644564268.6583993,201747.771032264,201829.032636288
fb6d4c24-8bb1-11ec-8109-043f72acca06,hp013.utah.cloudlab.us,163,200,random,1644564268.6583993,202079.377985745,202160.803574424
c12d8522-8bb2-11ec-b46f-043f72acca06,hp013.utah.cloudlab.us,164,200,fixed,1644564268.6583993,202411.165702369,202492.569764115
86f40f44-8bb3-11ec-b537-043f72acca06,hp013.utah.cloudlab.us,165,200,random,1644564268.6583993,202742.977484691,202824.312228954
4ca7fa50-8bb4-11ec-8394-043f72acca06,hp013.utah.cloudlab.us,166,200,fixed,1644564268.6583993,203074.669534703,203155.90379644
12540e95-8bb5-11ec-b774-043f72acca06,hp013.utah.cloudlab.us,167,200,random,1644564268.6583993,203406.306228472,203487.601914054
d8024e02-8bb5-11ec-beff-043f72acca06,hp013.utah.cloudlab.us,168,200,fixed,1644564268.6583993,203737.962270772,203819.312667306
9db8df8c-8bb6-11ec-a9b5-043f72acca06,hp013.utah.cloudlab.us,169,200,random,1644564268.6583993,204069.663095387,204150.906980998
635ef2ea-8bb7-11ec-a632-043f72acca06,hp013.utah.cloudlab.us,170,200,fixed,1644564268.6583993,204401.2670535,204482.549224179
290c0bb9-8bb8-11ec-a057-043f72acca06,hp013.utah.cloudlab.us,171,200,random,1644564268.6583993,204732.893253904,204814.287711792
eecd3439-8bb8-11ec-8c30-043f72acca06,hp013.utah.cloudlab.us,172,200,fixed,1644564268.6583993,205064.689267347,205145.961128138
b47e7567-8bb9-11ec-b0ee-043f72acca06,hp013.utah.cloudlab.us,173,200,random,1644564268.6583993,205396.345276933,205478.72166013
7acf29f2-8bba-11ec-b743-043f72acca06,hp013.utah.cloudlab.us,174,200,fixed,1644564268.6583993,205729.080943057,205810.280846417
406fd7f4-8bbb-11ec-82fa-043f72acca06,hp013.utah.cloudlab.us,175,200,random,1644564268.6583993,206060.645597182,206142.012517066
0629d606-8bbc-11ec-bf95-043f72acca06,hp013.utah.cloudlab.us,176,200,fixed,1644564268.6583993,206392.37417012,206473.628468804
cbd20316-8bbc-11ec-a302-043f72acca06,hp013.utah.cloudlab.us,177,200,random,1644564268.6583993,206723.988797347,206805.396280598
9198a723-8bbd-11ec-87c5-043f72acca06,hp013.utah.cloudlab.us,178,200,fixed,1644564268.6583993,207055.802135697,207137.105040153
57489bbc-8bbe-11ec-a2e0-043f72acca06,hp013.utah.cloudlab.us,179,200,random,1644564268.6583993,207387.46622978,207469.030926709
1d21237b-8bbf-11ec-89a4-043f72acca06,hp013.utah.cloudlab.us,180,200,fixed,1644564268.6583993,207719.396143472,207800.84358674
e2e5849f-8bbf-11ec-b7ad-043f72acca06,hp013.utah.cloudlab.us,181,200,random,1644564268.6583993,208051.194010028,208132.572874552
a8a14e4b-8bc0-11ec-9d6f-043f72acca06,hp013.utah.cloudlab.us,182,200,fixed,1644564268.6583993,208382.919133325,208464.367556766
6e6488af-8bc1-11ec-b3b8-043f72acca06,hp013.utah.cloudlab.us,183,200,random,1644564268.6583993,208714.725195872,208796.224265506
3431727d-8bc2-11ec-b85e-043f72acca06,hp013.utah.cloudlab.us,184,200,fixed,1644564268.6583993,209046.559695667,209127.71429011
f9bf8f3f-8bc2-11ec-9d71-043f72acca06,hp013.utah.cloudlab.us,185,200,random,1644564268.6583993,209378.018714058,209459.320031151
bf6c6df6-8bc3-11ec-b6de-043f72acca06,hp013.utah.cloudlab.us,186,200,fixed,1644564268.6583993,209709.648465155,209790.981763679
851e0ce4-8bc4-11ec-84d6-043f72acca06,hp013.utah.cloudlab.us,187,200,random,1644564268.6583993,210041.34228554,210122.574297356
4ac310c9-8bc5-11ec-bbdb-043f72acca06,hp013.utah.cloudlab.us,188,200,fixed,1644564268.6583993,210372.934393621,210454.215873154
106ec90e-8bc6-11ec-84b4-043f72acca06,hp013.utah.cloudlab.us,189,200,random,1644564268.6583993,210704.570233998,210785.790003658
d611963c-8bc6-11ec-ab83-043f72acca06,hp013.utah.cloudlab.us,190,200,fixed,1644564268.6583993,211036.142712703,211117.298484121
9ba9eaf4-8bc7-11ec-b6ea-043f72acca06,hp013.utah.cloudlab.us,191,200,random,1644564268.6583993,211367.658425904,211449.136894149
6174da93-8bc8-11ec-baf7-043f72acca06,hp013.utah.cloudlab.us,192,200,fixed,1644564268.6583993,211699.48300132,211780.87189184
273547a8-8bc9-11ec-a089-043f72acca06,hp013.utah.cloudlab.us,193,200,random,1644564268.6583993,212031.272581499,212112.732542268
ed03b78b-8bc9-11ec-904d-043f72acca06,hp013.utah.cloudlab.us,194,200,fixed,1644564268.6583993,212363.136707137,212444.348899697
b2ac200d-8bca-11ec-98ad-043f72acca06,hp013.utah.cloudlab.us,195,200,random,1644564268.6583993,212694.750943438,212776.147269179
786a675b-8bcb-11ec-9fda-043f72acca06,hp013.utah.cloudlab.us,196,200,fixed,1644564268.6583993,213026.509888733,213107.91210499
3e2931e3-8bcc-11ec-8c2d-043f72acca06,hp013.utah.cloudlab.us,197,200,random,1644564268.6583993,213358.270223655,213439.58554673
03dae13c-8bcd-11ec-868e-043f72acca06,hp013.utah.cloudlab.us,198,200,fixed,1644564268.6583993,213689.946692751,213771.399299045
c9a17b53-8bcd-11ec-a250-043f72acca06,hp013.utah.cloudlab.us,199,200,random,1644564268.6583993,214021.759828821,214103.044887671
