# started on Thu Mar 10 18:46:29 2022

3607409654,,cache-misses,118356859439,26.66,18.627,of all cache refs
19366788183,,cache-references,118354781365,26.66,,
4349093,,branch-misses,118367927411,26.66,,
0,,mem-loads,118402430343,26.67,,
40586888197,,mem-stores,118429130829,26.67,,
648122221,,LLC-load-misses,118443172954,26.67,,
0,,LLC-store-misses,118443505557,26.67,,
12639009980,,L1-dcache-load-misses,118433832269,26.67,,
36875487,,L1-icache-load-misses,118429916484,26.67,,
7737518,,dTLB-load-misses,118425067154,26.67,,
86810342,,dTLB-store-misses,118419919914,26.67,,
293178,,page-faults,444010742512,100.00,,
0,,alignment-faults,444010742512,100.00,,
889,,context-switches,444010742512,100.00,,
11,,cpu-migrations,444010742512,100.00,,
5,,major-faults,444010742512,100.00,,
293173,,minor-faults,444010742512,100.00,,
3918599,,branch-load-misses,118414730550,26.67,,
1130069,,iTLB-load-misses,118408217986,26.67,,
0,,node-store-misses,118396121074,26.66,,
0,,node-load-misses,118372608215,26.66,,
