run_uuid,hostname,run_num,total_runs,order_type,random_seed,time_start,time_stop
5d2b3b28-8c34-11ec-bc13-043f72acca06,hp013.utah.cloudlab.us,0,200,fixed,1644691707.094464,258077.935867972,258159.027348576
22b8035b-8c35-11ec-b2c0-043f72acca06,hp013.utah.cloudlab.us,1,200,random,1644691707.094464,258409.387803958,258490.658727799
e86165b7-8c35-11ec-964f-043f72acca06,hp013.utah.cloudlab.us,2,200,fixed,1644691707.094464,258740.9877494,258822.115279255
adf2f902-8c36-11ec-a10c-043f72acca06,hp013.utah.cloudlab.us,3,200,random,1644691707.094464,259072.466320195,259153.542837553
737ef404-8c37-11ec-9af7-043f72acca06,hp013.utah.cloudlab.us,4,200,fixed,1644691707.094464,259403.882888182,259485.306825426
393dcea2-8c38-11ec-abaf-043f72acca06,hp013.utah.cloudlab.us,5,200,random,1644691707.094464,259735.663237226,259817.074308486
ff039cc7-8c38-11ec-9a5b-043f72acca06,hp013.utah.cloudlab.us,6,200,fixed,1644691707.094464,260067.471393846,260148.930273239
c4cb12c5-8c39-11ec-98f5-043f72acca06,hp013.utah.cloudlab.us,7,200,random,1644691707.094464,260399.29055479,260480.720993012
8a8d31e8-8c3a-11ec-8853-043f72acca06,hp013.utah.cloudlab.us,8,200,fixed,1644691707.094464,260731.072432998,260812.286684467
502f143f-8c3b-11ec-aee7-043f72acca06,hp013.utah.cloudlab.us,9,200,random,1644691707.094464,261062.646484651,261144.138047621
15fac30d-8c3c-11ec-a7a6-043f72acca06,hp013.utah.cloudlab.us,10,200,fixed,1644691707.094464,261394.493003697,261475.977034879
dbc626b6-8c3c-11ec-b94b-043f72acca06,hp013.utah.cloudlab.us,11,200,random,1644691707.094464,261726.33507385,261807.670172902
a17aad0f-8c3d-11ec-8e17-043f72acca06,hp013.utah.cloudlab.us,12,200,fixed,1644691707.094464,262058.028850221,262139.238374559
671bb7d5-8c3e-11ec-afd3-043f72acca06,hp013.utah.cloudlab.us,13,200,random,1644691707.094464,262389.577168502,262470.771586443
2cbf119b-8c3f-11ec-9fae-043f72acca06,hp013.utah.cloudlab.us,14,200,fixed,1644691707.094464,262721.178029251,262802.505141682
f2727dfc-8c3f-11ec-9352-043f72acca06,hp013.utah.cloudlab.us,15,200,random,1644691707.094464,263052.864148411,263134.029627007
b80d0813-8c40-11ec-be94-043f72acca06,hp013.utah.cloudlab.us,16,200,fixed,1644691707.094464,263384.388870438,263465.819935749
7dd03338-8c41-11ec-ab0a-043f72acca06,hp013.utah.cloudlab.us,17,200,random,1644691707.094464,263716.177702444,263797.773770686
43ac86f9-8c42-11ec-8098-043f72acca06,hp013.utah.cloudlab.us,18,200,fixed,1644691707.094464,264048.134414078,264129.418819085
09590135-8c43-11ec-840a-043f72acca06,hp013.utah.cloudlab.us,19,200,random,1644691707.094464,264379.776188477,264461.137999501
cf113066-8c43-11ec-a8c0-043f72acca06,hp013.utah.cloudlab.us,20,200,fixed,1644691707.094464,264711.493171395,264792.804899876
94be81b8-8c44-11ec-b34f-043f72acca06,hp013.utah.cloudlab.us,21,200,random,1644691707.094464,265043.141866206,265124.561868292
5a7f2a9b-8c45-11ec-b57c-043f72acca06,hp013.utah.cloudlab.us,22,200,fixed,1644691707.094464,265374.896511918,265456.181353933
20291752-8c46-11ec-9cf3-043f72acca06,hp013.utah.cloudlab.us,23,200,random,1644691707.094464,265706.54101898,265788.289333164
e61d0561-8c46-11ec-a22f-043f72acca06,hp013.utah.cloudlab.us,24,200,fixed,1644691707.094464,266038.649925761,266120.021855204
abd7732c-8c47-11ec-9283-043f72acca06,hp013.utah.cloudlab.us,25,200,random,1644691707.094464,266370.382247656,266451.628650234
717df3ec-8c48-11ec-a65a-043f72acca06,hp013.utah.cloudlab.us,26,200,fixed,1644691707.094464,266701.984440137,266783.316470336
37320167-8c49-11ec-bd36-043f72acca06,hp013.utah.cloudlab.us,27,200,random,1644691707.094464,267033.676194776,267115.032995578
fce986d4-8c49-11ec-a67e-043f72acca06,hp013.utah.cloudlab.us,28,200,fixed,1644691707.094464,267365.390046873,267447.227973683
c2ea77be-8c4a-11ec-8827-043f72acca06,hp013.utah.cloudlab.us,29,200,random,1644691707.094464,267697.591840385,267778.961119736
88abc435-8c4b-11ec-906a-043f72acca06,hp013.utah.cloudlab.us,30,200,fixed,1644691707.094464,268029.362572496,268110.542924707
4e42b6a7-8c4c-11ec-98e4-043f72acca06,hp013.utah.cloudlab.us,31,200,random,1644691707.094464,268360.864470239,268442.127000236
13eb67e5-8c4d-11ec-8cd6-043f72acca06,hp013.utah.cloudlab.us,32,200,fixed,1644691707.094464,268692.479977287,268773.882753161
d9aa25ca-8c4d-11ec-8fd6-043f72acca06,hp013.utah.cloudlab.us,33,200,random,1644691707.094464,269024.241252452,269105.418460935
9f46de78-8c4e-11ec-8556-043f72acca06,hp013.utah.cloudlab.us,34,200,fixed,1644691707.094464,269355.771651579,269437.018669836
64f3afc3-8c4f-11ec-8714-043f72acca06,hp013.utah.cloudlab.us,35,200,random,1644691707.094464,269687.420524708,269768.68117404
2aa31e88-8c50-11ec-a7cb-043f72acca06,hp013.utah.cloudlab.us,36,200,fixed,1644691707.094464,270019.083251565,270100.417286378
f0574fed-8c50-11ec-9cf7-043f72acca06,hp013.utah.cloudlab.us,37,200,random,1644691707.094464,270350.775058765,270432.056855838
b6033b21-8c51-11ec-9e00-043f72acca06,hp013.utah.cloudlab.us,38,200,fixed,1644691707.094464,270682.394816584,270763.750650857
7bb8268b-8c52-11ec-8c4d-043f72acca06,hp013.utah.cloudlab.us,39,200,random,1644691707.094464,271014.111181109,271095.44584221
416bd4b9-8c53-11ec-a60a-043f72acca06,hp013.utah.cloudlab.us,40,200,fixed,1644691707.094464,271345.798492793,271427.158247607
07298072-8c54-11ec-93a1-043f72acca06,hp013.utah.cloudlab.us,41,200,random,1644691707.094464,271677.532501313,271758.88130347
cce36d34-8c54-11ec-8b7e-043f72acca06,hp013.utah.cloudlab.us,42,200,fixed,1644691707.094464,272009.283504285,272090.491291578
9284a9ec-8c55-11ec-8b50-043f72acca06,hp013.utah.cloudlab.us,43,200,random,1644691707.094464,272340.851080399,272421.975029945
58186c53-8c56-11ec-b238-043f72acca06,hp013.utah.cloudlab.us,44,200,fixed,1644691707.094464,272672.326148193,272753.76881015
1ddcf001-8c57-11ec-a859-043f72acca06,hp013.utah.cloudlab.us,45,200,random,1644691707.094464,273004.130587813,273085.559356128
e3a00d30-8c57-11ec-b62d-043f72acca06,hp013.utah.cloudlab.us,46,200,fixed,1644691707.094464,273335.919737598,273417.451176521
a972c8c1-8c58-11ec-8586-043f72acca06,hp013.utah.cloudlab.us,47,200,random,1644691707.094464,273667.810825144,273749.27949108
6f3b28f4-8c59-11ec-aaf2-043f72acca06,hp013.utah.cloudlab.us,48,200,fixed,1644691707.094464,273999.636995769,274081.107532058
350b227c-8c5a-11ec-90fb-043f72acca06,hp013.utah.cloudlab.us,49,200,random,1644691707.094464,274331.504501587,274412.858824892
faba653f-8c5a-11ec-bd74-043f72acca06,hp013.utah.cloudlab.us,50,200,fixed,1644691707.094464,274663.169029333,274744.548261224
c075c47d-8c5b-11ec-b332-043f72acca06,hp013.utah.cloudlab.us,51,200,random,1644691707.094464,274994.910022846,275076.174445729
861f3513-8c5c-11ec-bcd1-043f72acca06,hp013.utah.cloudlab.us,52,200,fixed,1644691707.094464,275326.530693086,275407.802385884
4bc741ff-8c5d-11ec-bf54-043f72acca06,hp013.utah.cloudlab.us,53,200,random,1644691707.094464,275658.14129233,275739.604503547
118f0441-8c5e-11ec-8ef5-043f72acca06,hp013.utah.cloudlab.us,54,200,fixed,1644691707.094464,275989.964520453,276071.112628809
d7277b07-8c5e-11ec-862c-043f72acca06,hp013.utah.cloudlab.us,55,200,random,1644691707.094464,276321.473826483,276402.638598833
9cc22715-8c5f-11ec-83e4-043f72acca06,hp013.utah.cloudlab.us,56,200,fixed,1644691707.094464,276652.996940108,276734.139441842
62594491-8c60-11ec-aa93-043f72acca06,hp013.utah.cloudlab.us,57,200,random,1644691707.094464,276984.499336337,277065.813925969
280aaee4-8c61-11ec-be6d-043f72acca06,hp013.utah.cloudlab.us,58,200,fixed,1644691707.094464,277316.173232049,277397.604340374
edcda73b-8c61-11ec-93fb-043f72acca06,hp013.utah.cloudlab.us,59,200,random,1644691707.094464,277647.942633859,277729.116121987
b366765b-8c62-11ec-9298-043f72acca06,hp013.utah.cloudlab.us,60,200,fixed,1644691707.094464,277979.456022972,278060.83569339
7912fa6d-8c63-11ec-92cd-043f72acca06,hp013.utah.cloudlab.us,61,200,random,1644691707.094464,278311.098208575,278392.321294794
3eb39f2e-8c64-11ec-a1ce-043f72acca06,hp013.utah.cloudlab.us,62,200,fixed,1644691707.094464,278642.662932248,278723.817532726
04499ecf-8c65-11ec-a3e7-043f72acca06,hp013.utah.cloudlab.us,63,200,random,1644691707.094464,278974.173585774,279055.710187764
ca1c5904-8c65-11ec-803f-043f72acca06,hp013.utah.cloudlab.us,64,200,fixed,1644691707.094464,279306.067893789,279387.368188458
8fcbfe33-8c66-11ec-a8b1-043f72acca06,hp013.utah.cloudlab.us,65,200,random,1644691707.094464,279637.729131066,279719.149868218
558946be-8c67-11ec-9902-043f72acca06,hp013.utah.cloudlab.us,66,200,fixed,1644691707.094464,279969.477537372,280050.928747542
1b4edb84-8c68-11ec-a1e1-043f72acca06,hp013.utah.cloudlab.us,67,200,random,1644691707.094464,280301.287865623,280382.472168986
e0ec2097-8c68-11ec-a90f-043f72acca06,hp013.utah.cloudlab.us,68,200,fixed,1644691707.094464,280632.82844446,280714.083240009
a69afe9a-8c69-11ec-8a38-043f72acca06,hp013.utah.cloudlab.us,69,200,random,1644691707.094464,280964.485513737,281045.937324146
6c67e5b0-8c6a-11ec-b3cb-043f72acca06,hp013.utah.cloudlab.us,70,200,fixed,1644691707.094464,281296.315447106,281377.557399791
320a8ca3-8c6b-11ec-bf5e-043f72acca06,hp013.utah.cloudlab.us,71,200,random,1644691707.094464,281627.91780345,281709.46801905
f7df581b-8c6b-11ec-a2d8-043f72acca06,hp013.utah.cloudlab.us,72,200,fixed,1644691707.094464,281959.824472576,282041.062380413
bd85ca7c-8c6c-11ec-b486-043f72acca06,hp013.utah.cloudlab.us,73,200,random,1644691707.094464,282291.42455202,282372.590623755
831fd527-8c6d-11ec-8311-043f72acca06,hp013.utah.cloudlab.us,74,200,fixed,1644691707.094464,282622.945912222,282704.275458397
48d3cc74-8c6e-11ec-b53c-043f72acca06,hp013.utah.cloudlab.us,75,200,random,1644691707.094464,282954.617973063,283035.947930059
0e84a323-8c6f-11ec-b855-043f72acca06,hp013.utah.cloudlab.us,76,200,fixed,1644691707.094464,283286.307786919,283367.774193506
d449f24d-8c6f-11ec-8397-043f72acca06,hp013.utah.cloudlab.us,77,200,random,1644691707.094464,283618.091109204,283699.453797946
99ff787f-8c70-11ec-9058-043f72acca06,hp013.utah.cloudlab.us,78,200,fixed,1644691707.094464,283949.806132159,284031.25680933
5fc45364-8c71-11ec-bf70-043f72acca06,hp013.utah.cloudlab.us,79,200,random,1644691707.094464,284281.595815542,284362.678251191
2548434f-8c72-11ec-a7f4-043f72acca06,hp013.utah.cloudlab.us,80,200,fixed,1644691707.094464,284612.982579289,284694.395215292
eb0e2279-8c72-11ec-88fb-043f72acca06,hp013.utah.cloudlab.us,81,200,random,1644691707.094464,284944.796197863,285026.393321498
b0e9bdef-8c73-11ec-a83c-043f72acca06,hp013.utah.cloudlab.us,82,200,fixed,1644691707.094464,285276.747069362,285358.028183526
76966f74-8c74-11ec-b602-043f72acca06,hp013.utah.cloudlab.us,83,200,random,1644691707.094464,285608.389891664,285689.63092611
3c3d0787-8c75-11ec-a2b1-043f72acca06,hp013.utah.cloudlab.us,84,200,fixed,1644691707.094464,285939.985155305,286021.321898433
01f0e77b-8c76-11ec-b59e-043f72acca06,hp013.utah.cloudlab.us,85,200,random,1644691707.094464,286271.682705839,286352.794973787
c77c8daf-8c76-11ec-b936-043f72acca06,hp013.utah.cloudlab.us,86,200,fixed,1644691707.094464,286603.110802909,286684.359290859
8d238deb-8c77-11ec-a0b9-043f72acca06,hp013.utah.cloudlab.us,87,200,random,1644691707.094464,286934.695885492,287015.962337197
52ca10d5-8c78-11ec-b4f8-043f72acca06,hp013.utah.cloudlab.us,88,200,fixed,1644691707.094464,287266.316015066,287347.713364764
1880ec9f-8c79-11ec-bd09-043f72acca06,hp013.utah.cloudlab.us,89,200,random,1644691707.094464,287598.009913577,287679.383307589
de38e836-8c79-11ec-98e9-043f72acca06,hp013.utah.cloudlab.us,90,200,fixed,1644691707.094464,287929.745736469,288011.203713245
a406c9b5-8c7a-11ec-99ae-043f72acca06,hp013.utah.cloudlab.us,91,200,random,1644691707.094464,288261.604541734,288342.790353981
69aa9baf-8c7b-11ec-85d3-043f72acca06,hp013.utah.cloudlab.us,92,200,fixed,1644691707.094464,288593.170779537,288674.407364393
2f48f520-8c7c-11ec-bca4-043f72acca06,hp013.utah.cloudlab.us,93,200,random,1644691707.094464,288924.718394851,289006.119555566
f5047257-8c7c-11ec-be89-043f72acca06,hp013.utah.cloudlab.us,94,200,fixed,1644691707.094464,289256.476780683,289337.788364187
babc6507-8c7d-11ec-9229-043f72acca06,hp013.utah.cloudlab.us,95,200,random,1644691707.094464,289588.196669537,289669.251514831
8046b0d2-8c7e-11ec-9ce5-043f72acca06,hp013.utah.cloudlab.us,96,200,fixed,1644691707.094464,289919.611180613,290000.915428161
45fd9c86-8c7f-11ec-bc13-043f72acca06,hp013.utah.cloudlab.us,97,200,random,1644691707.094464,290251.321081081,290332.368853861
0b861c0a-8c80-11ec-871e-043f72acca06,hp013.utah.cloudlab.us,98,200,fixed,1644691707.094464,290582.709986242,290664.094389306
d13fca5a-8c80-11ec-b36f-043f72acca06,hp013.utah.cloudlab.us,99,200,random,1644691707.094464,290914.454447845,290995.872175608
9700cdf0-8c81-11ec-9317-043f72acca06,hp013.utah.cloudlab.us,100,200,fixed,1644691707.094464,291246.230588652,291327.69974971
5cc61033-8c82-11ec-8bc9-043f72acca06,hp013.utah.cloudlab.us,101,200,random,1644691707.094464,291578.036132014,291659.160745952
225aa4c0-8c83-11ec-86c4-043f72acca06,hp013.utah.cloudlab.us,102,200,fixed,1644691707.094464,291909.520144638,291990.779118354
e8037f72-8c83-11ec-8087-043f72acca06,hp013.utah.cloudlab.us,103,200,random,1644691707.094464,292241.117176633,292322.507428542
adbe744d-8c84-11ec-9e2b-043f72acca06,hp013.utah.cloudlab.us,104,200,fixed,1644691707.094464,292572.874257314,292654.221543401
737545b1-8c85-11ec-859f-043f72acca06,hp013.utah.cloudlab.us,105,200,random,1644691707.094464,292904.61352238,292986.007740551
39374fad-8c86-11ec-8b37-043f72acca06,hp013.utah.cloudlab.us,106,200,fixed,1644691707.094464,293236.347582214,293317.745637306
fef24d79-8c86-11ec-a6e5-043f72acca06,hp013.utah.cloudlab.us,107,200,random,1644691707.094464,293568.104565376,293649.56992925
c4c1c7ec-8c87-11ec-b2c8-043f72acca06,hp013.utah.cloudlab.us,108,200,fixed,1644691707.094464,293899.967560539,293981.47934029
8a905372-8c88-11ec-9905-043f72acca06,hp013.utah.cloudlab.us,109,200,random,1644691707.094464,294231.840169608,294313.276738685
505421ac-8c89-11ec-bafe-043f72acca06,hp013.utah.cloudlab.us,110,200,fixed,1644691707.094464,294563.633418586,294645.137021893
162245bd-8c8a-11ec-a1bd-043f72acca06,hp013.utah.cloudlab.us,111,200,random,1644691707.094464,294895.496113684,294976.581741042
dbb08e35-8c8a-11ec-94db-043f72acca06,hp013.utah.cloudlab.us,112,200,fixed,1644691707.094464,295226.939057989,295308.252210433
a161c865-8c8b-11ec-bf65-043f72acca06,hp013.utah.cloudlab.us,113,200,random,1644691707.094464,295558.612171816,295639.814649812
6708d852-8c8c-11ec-8029-043f72acca06,hp013.utah.cloudlab.us,114,200,fixed,1644691707.094464,295890.218610192,295971.640500191
2ccae8ca-8c8d-11ec-938c-043f72acca06,hp013.utah.cloudlab.us,115,200,random,1644691707.094464,296222.001904931,296303.420607377
f28cba43-8c8d-11ec-afa8-043f72acca06,hp013.utah.cloudlab.us,116,200,fixed,1644691707.094464,296553.763086025,296635.145244385
b8456ef1-8c8e-11ec-ba15-043f72acca06,hp013.utah.cloudlab.us,117,200,random,1644691707.094464,296885.485993736,296966.875649106
7dff15a2-8c8f-11ec-9fe6-043f72acca06,hp013.utah.cloudlab.us,118,200,fixed,1644691707.094464,297217.232055543,297298.532597404
43ae7bd5-8c90-11ec-960b-043f72acca06,hp013.utah.cloudlab.us,119,200,random,1644691707.094464,297548.892879666,297630.090234649
094dee01-8c91-11ec-b075-043f72acca06,hp013.utah.cloudlab.us,120,200,fixed,1644691707.094464,297880.447267661,297961.787353263
cf032224-8c91-11ec-a994-043f72acca06,hp013.utah.cloudlab.us,121,200,random,1644691707.094464,298212.147144323,298293.379357563
94a80b54-8c92-11ec-a88a-043f72acca06,hp013.utah.cloudlab.us,122,200,fixed,1644691707.094464,298543.738235605,298625.064807636
5a61bdca-8c93-11ec-bd25-043f72acca06,hp013.utah.cloudlab.us,123,200,random,1644691707.094464,298875.4484846,298956.501486276
1fe87db8-8c94-11ec-8fd8-043f72acca06,hp013.utah.cloudlab.us,124,200,fixed,1644691707.094464,299206.862214368,299288.159491907
e597c459-8c94-11ec-afed-043f72acca06,hp013.utah.cloudlab.us,125,200,random,1644691707.094464,299538.521653986,299619.981008632
ab5ee220-8c95-11ec-af03-043f72acca06,hp013.utah.cloudlab.us,126,200,fixed,1644691707.094464,299870.336072204,299951.550623199
71008797-8c96-11ec-ab07-043f72acca06,hp013.utah.cloudlab.us,127,200,random,1644691707.094464,300201.890259088,300283.198636089
36ae73f0-8c97-11ec-b28c-043f72acca06,hp013.utah.cloudlab.us,128,200,fixed,1644691707.094464,300533.558215747,300614.96726817
fc6e8a8b-8c97-11ec-b42c-043f72acca06,hp013.utah.cloudlab.us,129,200,random,1644691707.094464,300865.308715209,300946.576668312
c2158941-8c98-11ec-bb06-043f72acca06,hp013.utah.cloudlab.us,130,200,fixed,1644691707.094464,301196.934942087,301278.244309327
87c60c49-8c99-11ec-a8e6-043f72acca06,hp013.utah.cloudlab.us,131,200,random,1644691707.094464,301528.595540569,301610.082179924
4d917057-8c9a-11ec-86be-043f72acca06,hp013.utah.cloudlab.us,132,200,fixed,1644691707.094464,301860.445963277,301941.923156634
135afcc8-8c9b-11ec-bf10-043f72acca06,hp013.utah.cloudlab.us,133,200,random,1644691707.094464,302192.277705618,302274.627016068
d9a64d3c-8c9b-11ec-8421-043f72acca06,hp013.utah.cloudlab.us,134,200,fixed,1644691707.094464,302524.961487352,302606.383598634
9f678522-8c9c-11ec-aaad-043f72acca06,hp013.utah.cloudlab.us,135,200,random,1644691707.094464,302856.738253502,302938.009328634
65123b49-8c9d-11ec-8eea-043f72acca06,hp013.utah.cloudlab.us,136,200,fixed,1644691707.094464,303188.351080545,303269.665525503
2ac7910b-8c9e-11ec-8c1a-043f72acca06,hp013.utah.cloudlab.us,137,200,random,1644691707.094464,303520.06861638,303601.318057071
f06d68b7-8c9e-11ec-936f-043f72acca06,hp013.utah.cloudlab.us,138,200,fixed,1644691707.094464,303851.666190058,303933.421027882
b662f74a-8c9f-11ec-85ac-043f72acca06,hp013.utah.cloudlab.us,139,200,random,1644691707.094464,304183.786286417,304265.018369113
7c07f46d-8ca0-11ec-916b-043f72acca06,hp013.utah.cloudlab.us,140,200,fixed,1644691707.094464,304515.378757994,304596.653163843
41b396fb-8ca1-11ec-b647-043f72acca06,hp013.utah.cloudlab.us,141,200,random,1644691707.094464,304847.013773282,304928.306650867
076266db-8ca2-11ec-a922-043f72acca06,hp013.utah.cloudlab.us,142,200,fixed,1644691707.094464,305178.670439243,305260.082131216
cd290e11-8ca2-11ec-811a-043f72acca06,hp013.utah.cloudlab.us,143,200,random,1644691707.094464,305510.48528668,305591.916261423
92ec0ceb-8ca3-11ec-baab-043f72acca06,hp013.utah.cloudlab.us,144,200,fixed,1644691707.094464,305842.274286492,305923.478377263
588cef63-8ca4-11ec-b49d-043f72acca06,hp013.utah.cloudlab.us,145,200,random,1644691707.094464,306173.819989439,306255.120246186
1e37ecef-8ca5-11ec-80f8-043f72acca06,hp013.utah.cloudlab.us,146,200,fixed,1644691707.094464,306505.470624013,306587.813898795
e48d1aa9-8ca5-11ec-865f-043f72acca06,hp013.utah.cloudlab.us,147,200,random,1644691707.094464,306838.218390928,306919.696817797
aa527ef2-8ca6-11ec-ac7f-043f72acca06,hp013.utah.cloudlab.us,148,200,fixed,1644691707.094464,307170.022947386,307251.289794303
6ffd0fa6-8ca7-11ec-a477-043f72acca06,hp013.utah.cloudlab.us,149,200,random,1644691707.094464,307501.650811073,307582.845134908
359bf92c-8ca8-11ec-9865-043f72acca06,hp013.utah.cloudlab.us,150,200,fixed,1644691707.094464,307833.204498108,307914.630962653
fb5e7a1e-8ca8-11ec-84b2-043f72acca06,hp013.utah.cloudlab.us,151,200,random,1644691707.094464,308164.990428674,308246.380755352
c11b4e15-8ca9-11ec-92bf-043f72acca06,hp013.utah.cloudlab.us,152,200,fixed,1644691707.094464,308496.718882025,308578.064609659
86ce8499-8caa-11ec-829a-043f72acca06,hp013.utah.cloudlab.us,153,200,random,1644691707.094464,308828.424413428,308909.834041586
4c8ebe93-8cab-11ec-bfe9-043f72acca06,hp013.utah.cloudlab.us,154,200,fixed,1644691707.094464,309160.194521791,309241.248201923
12181936-8cac-11ec-ae8c-043f72acca06,hp013.utah.cloudlab.us,155,200,random,1644691707.094464,309491.58721949,309572.7885877
d7acf0fc-8cac-11ec-ae22-043f72acca06,hp013.utah.cloudlab.us,156,200,fixed,1644691707.094464,309823.093816214,309904.52310779
9d6cbf27-8cad-11ec-ab57-043f72acca06,hp013.utah.cloudlab.us,157,200,random,1644691707.094464,310154.85971224,310236.09505646
63187e36-8cae-11ec-902a-043f72acca06,hp013.utah.cloudlab.us,158,200,fixed,1644691707.094464,310486.498251641,310567.727396518
28bce758-8caf-11ec-a9cb-043f72acca06,hp013.utah.cloudlab.us,159,200,random,1644691707.094464,310818.085636126,310899.239109408
ee5573f4-8caf-11ec-b11b-043f72acca06,hp013.utah.cloudlab.us,160,200,fixed,1644691707.094464,311149.580860232,311230.834588156
b3fac04d-8cb0-11ec-9d0d-043f72acca06,hp013.utah.cloudlab.us,161,200,random,1644691707.094464,311481.192779956,311562.759134813
79d3051e-8cb1-11ec-9f46-043f72acca06,hp013.utah.cloudlab.us,162,200,fixed,1644691707.094464,311813.102082598,311894.499976108
3f93e9a2-8cb2-11ec-afd9-043f72acca06,hp013.utah.cloudlab.us,163,200,random,1644691707.094464,312144.889677129,312226.191470953
05495221-8cb3-11ec-b6eb-043f72acca06,hp013.utah.cloudlab.us,164,200,fixed,1644691707.094464,312476.577083527,312557.866429968
caf43d69-8cb3-11ec-9ae8-043f72acca06,hp013.utah.cloudlab.us,165,200,random,1644691707.094464,312808.206718173,312889.551181395
90a71574-8cb4-11ec-a53c-043f72acca06,hp013.utah.cloudlab.us,166,200,fixed,1644691707.094464,313139.908537678,313220.97895835
563b0491-8cb5-11ec-8225-043f72acca06,hp013.utah.cloudlab.us,167,200,random,1644691707.094464,313471.390606813,313552.667307701
1be69ece-8cb6-11ec-b060-043f72acca06,hp013.utah.cloudlab.us,168,200,fixed,1644691707.094464,313803.007864391,313884.117440186
e176bf2b-8cb6-11ec-8ff2-043f72acca06,hp013.utah.cloudlab.us,169,200,random,1644691707.094464,314134.482550451,314215.769540266
a71c66c9-8cb7-11ec-bc80-043f72acca06,hp013.utah.cloudlab.us,170,200,fixed,1644691707.094464,314466.078877231,314547.571027975
6ce8b836-8cb8-11ec-a874-043f72acca06,hp013.utah.cloudlab.us,171,200,random,1644691707.094464,314797.929433734,314879.608904924
32d1f83a-8cb9-11ec-af47-043f72acca06,hp013.utah.cloudlab.us,172,200,fixed,1644691707.094464,315129.970152969,315211.246353626
f87d481e-8cb9-11ec-93ae-043f72acca06,hp013.utah.cloudlab.us,173,200,random,1644691707.094464,315461.60327086,315542.905352692
be2ceebc-8cba-11ec-9a51-043f72acca06,hp013.utah.cloudlab.us,174,200,fixed,1644691707.094464,315793.245106,315874.49966854
83d2869c-8cbb-11ec-98ee-043f72acca06,hp013.utah.cloudlab.us,175,200,random,1644691707.094464,316124.861888384,316206.168182752
4981d2de-8cbc-11ec-b1b0-043f72acca06,hp013.utah.cloudlab.us,176,200,fixed,1644691707.094464,316456.521781936,316537.915330684
0f3fe771-8cbd-11ec-b9a8-043f72acca06,hp013.utah.cloudlab.us,177,200,random,1644691707.094464,316788.279072811,316869.599296257
d4f290c4-8cbd-11ec-893a-043f72acca06,hp013.utah.cloudlab.us,178,200,fixed,1644691707.094464,317119.941481629,317201.304180537
9aa8a48a-8cbe-11ec-94e8-043f72acca06,hp013.utah.cloudlab.us,179,200,random,1644691707.094464,317451.666736704,317532.897425042
604dc3a5-8cbf-11ec-8ac1-043f72acca06,hp013.utah.cloudlab.us,180,200,fixed,1644691707.094464,317783.258114361,317864.639695597
26087d8f-8cc0-11ec-83c6-043f72acca06,hp013.utah.cloudlab.us,181,200,random,1644691707.094464,318114.993866248,318196.216402606
ebab44d8-8cc0-11ec-8109-043f72acca06,hp013.utah.cloudlab.us,182,200,fixed,1644691707.094464,318446.553930294,318528.209951436
b18e9344-8cc1-11ec-80f4-043f72acca06,hp013.utah.cloudlab.us,183,200,random,1644691707.094464,318778.554860835,318859.861429336
773bdfcb-8cc2-11ec-9586-043f72acca06,hp013.utah.cloudlab.us,184,200,fixed,1644691707.094464,319110.21972407,319191.498345955
3ce83f47-8cc3-11ec-a289-043f72acca06,hp013.utah.cloudlab.us,185,200,random,1644691707.094464,319441.860614714,319523.437853375
02c1fd87-8cc4-11ec-a233-043f72acca06,hp013.utah.cloudlab.us,186,200,fixed,1644691707.094464,319773.797489786,319855.038075797
c86e8690-8cc4-11ec-a93b-043f72acca06,hp013.utah.cloudlab.us,187,200,random,1644691707.094464,320105.440486727,320186.7884263
8e24baf6-8cc5-11ec-b041-043f72acca06,hp013.utah.cloudlab.us,188,200,fixed,1644691707.094464,320437.144413931,320518.364301542
53c7f294-8cc6-11ec-a603-043f72acca06,hp013.utah.cloudlab.us,189,200,random,1644691707.094464,320768.725897722,320849.999197269
1974107f-8cc7-11ec-b9b1-043f72acca06,hp013.utah.cloudlab.us,190,200,fixed,1644691707.094464,321100.364276148,321181.720456264
df2c780d-8cc7-11ec-a1ae-043f72acca06,hp013.utah.cloudlab.us,191,200,random,1644691707.094464,321432.064628357,321513.357876556
a4d780d7-8cc8-11ec-b53d-043f72acca06,hp013.utah.cloudlab.us,192,200,fixed,1644691707.094464,321763.717057919,321845.083291973
6a911561-8cc9-11ec-a550-043f72acca06,hp013.utah.cloudlab.us,193,200,random,1644691707.094464,322095.425133491,322176.588426982
302fbaaf-8cca-11ec-8855-043f72acca06,hp013.utah.cloudlab.us,194,200,fixed,1644691707.094464,322426.995407788,322508.459148021
f5f81aef-8cca-11ec-8117-043f72acca06,hp013.utah.cloudlab.us,195,200,random,1644691707.094464,322758.820235817,322840.194591189
bbb2d972-8ccb-11ec-a016-043f72acca06,hp013.utah.cloudlab.us,196,200,fixed,1644691707.094464,323090.554403553,323171.627064844
81463584-8ccc-11ec-bea8-043f72acca06,hp013.utah.cloudlab.us,197,200,random,1644691707.094464,323422.031208895,323503.657398389
47271eda-8ccd-11ec-83a3-043f72acca06,hp013.utah.cloudlab.us,198,200,fixed,1644691707.094464,323754.017102811,323835.377695842
0cdf9243-8cce-11ec-a9cd-043f72acca06,hp013.utah.cloudlab.us,199,200,random,1644691707.094464,324085.736551427,324166.786109802
