test_command,coeff_of_variation_fixed,coeff_of_variation_random,KW_dist_type,Normal_fixed,Normal_random,SW_test_stat_fixed,SW_p-value_fixed,SW_test_stat_random,SW_p-value_random,KW_test_stat,KW_p-value,percent_diff,KW_effect_size,fixed_pth_quantile,fixed_ci_low,fixed_ci_high,random_pth_quantile,random_ci_low,random_ci_high,ci_case,inner_diff
/bin/bash ~/os-benchmarks/scripts/run_cpu.sh -n 0 -d 1 -b is -t MT -s 100 -u 200,0.002,0.003,same,False,True,0.9654630422592163,0.010048823431134224,0.9829187989234924,0.22282972931861877,0.16551441159532487,0.684129454531478,0.014501736302730434,0.0008317307115342958,29.434,29.415,29.469,29.4385,29.407,29.48,2,
/bin/bash ~/os-benchmarks/scripts/run_memory.sh -n 0 -d 1 -b stream -t MT -s 100 -u 200 -- add_omp,0.003,0.003,different,False,True,0.8743619918823242,1.0556057361554849e-07,0.9814038872718811,0.1707582026720047,6.199170149253746,0.012781022374595075,-0.1134797200637719,0.031151608790219828,35717.935,35681.71,35775.37,35767.425,35729.61,35810.61,2,
/bin/bash ~/os-benchmarks/scripts/run_memory.sh -n 0 -d 1 -b stream -t MT -s 100 -u 200 -- copy_omp,0.004,0.003,different,False,True,0.8222814202308655,1.2720950959277388e-09,0.9836707711219788,0.25372999906539917,7.690901290708195,0.005549990464833125,-0.13425683573066008,0.03864774517943816,31772.97,31733.24,31799.97,31814.95,31782.28,31853.03,3,
/bin/bash ~/os-benchmarks/scripts/run_memory.sh -n 0 -d 1 -b stream -t MT -s 100 -u 200 -- scale_omp,0.003,0.003,different,False,True,0.8168639540672302,8.444688837094816e-10,0.9824883937835693,0.20671401917934418,8.284680597014926,0.003998093663615099,-0.13046574532527308,0.04163156078901973,31681.160000000003,31648.27,31724.03,31733.05,31693.33,31764.26,3,
/bin/bash ~/os-benchmarks/scripts/run_memory.sh -n 0 -d 1 -b stream -t MT -s 100 -u 200 -- triad_omp,0.004,0.003,different,False,True,0.8605575561523438,2.9711484827998902e-08,0.9851382970809937,0.3249542713165283,4.911340997030633,0.026680919258263647,-0.11375865015193162,0.02468010551271675,35882.325,35852.05,35916.67,35911.729999999996,35874.44,35949.87,2,
