run_uuid,hostname,run_num,total_runs,order_type,random_seed,time_start,time_stop
77f078e5-a0e6-11ec-b884-1c34da757fa2,hp009.utah.cloudlab.us,0,200,fixed,1646967225.6812856,268895.849387475,268973.650951795
3b890688-a0e7-11ec-bcb1-1c34da757fa2,hp009.utah.cloudlab.us,1,200,random,1646967225.6812856,269224.021412602,269301.920830925
ff3abdc0-a0e7-11ec-bf0f-1c34da757fa2,hp009.utah.cloudlab.us,2,200,fixed,1646967225.6812856,269552.34034624,269630.173488506
c2da23ce-a0e8-11ec-9201-1c34da757fa2,hp009.utah.cloudlab.us,3,200,random,1646967225.6812856,269880.52330687,269958.437907452
8684b012-a0e9-11ec-bc20-1c34da757fa2,hp009.utah.cloudlab.us,4,200,fixed,1646967225.6812856,270208.815391912,270286.728930604
4a30f783-a0ea-11ec-bc10-1c34da757fa2,hp009.utah.cloudlab.us,5,200,random,1646967225.6812856,270537.101707429,270615.046319056
0de1fb56-a0eb-11ec-9a3f-1c34da757fa2,hp009.utah.cloudlab.us,6,200,fixed,1646967225.6812856,270865.415419673,270943.523496489
d1ac0a1a-a0eb-11ec-b463-1c34da757fa2,hp009.utah.cloudlab.us,7,200,random,1646967225.6812856,271193.895541215,271271.783662762
95558631-a0ec-11ec-82ba-1c34da757fa2,hp009.utah.cloudlab.us,8,200,fixed,1646967225.6812856,271522.161813433,271600.035571103
58fc3d9b-a0ed-11ec-9dfe-1c34da757fa2,hp009.utah.cloudlab.us,9,200,random,1646967225.6812856,271850.410537284,271928.271834775
1ca1e80e-a0ee-11ec-9942-1c34da757fa2,hp009.utah.cloudlab.us,10,200,fixed,1646967225.6812856,272178.644801472,272256.459982269
e03dbfb9-a0ee-11ec-908c-1c34da757fa2,hp009.utah.cloudlab.us,11,200,random,1646967225.6812856,272506.828734113,272584.56045848
a3cef117-a0ef-11ec-8ba8-1c34da757fa2,hp009.utah.cloudlab.us,12,200,fixed,1646967225.6812856,272834.935036733,272912.837832126
6769cd1c-a0f0-11ec-89d5-1c34da757fa2,hp009.utah.cloudlab.us,13,200,random,1646967225.6812856,273163.101701354,273240.907920083
2b049869-a0f1-11ec-9400-1c34da757fa2,hp009.utah.cloudlab.us,14,200,fixed,1646967225.6812856,273491.259502234,273569.110116719
eea4bca0-a0f1-11ec-8e4f-1c34da757fa2,hp009.utah.cloudlab.us,15,200,random,1646967225.6812856,273819.46126836,273897.04416167
b21cf4ee-a0f2-11ec-ac57-1c34da757fa2,hp009.utah.cloudlab.us,16,200,fixed,1646967225.6812856,274147.405331493,274225.189781359
75b82004-a0f3-11ec-aeb4-1c34da757fa2,hp009.utah.cloudlab.us,17,200,random,1646967225.6812856,274475.599301099,274553.345401963
394c0705-a0f4-11ec-b1ea-1c34da757fa2,hp009.utah.cloudlab.us,18,200,fixed,1646967225.6812856,274803.72339398,274881.694943097
fd016a20-a0f4-11ec-babc-1c34da757fa2,hp009.utah.cloudlab.us,19,200,random,1646967225.6812856,275132.066471522,275209.998149922
c0b88483-a0f5-11ec-acbb-1c34da757fa2,hp009.utah.cloudlab.us,20,200,fixed,1646967225.6812856,275460.424066677,275538.33084636
8463f8c5-a0f6-11ec-b945-1c34da757fa2,hp009.utah.cloudlab.us,21,200,random,1646967225.6812856,275788.702418069,275866.703452332
4817b06f-a0f7-11ec-8a9f-1c34da757fa2,hp009.utah.cloudlab.us,22,200,fixed,1646967225.6812856,276117.035136542,276194.927661287
0bc0a929-a0f8-11ec-afc1-1c34da757fa2,hp009.utah.cloudlab.us,23,200,random,1646967225.6812856,276445.297508024,276523.252027108
cf6d4aeb-a0f8-11ec-84a8-1c34da757fa2,hp009.utah.cloudlab.us,24,200,fixed,1646967225.6812856,276773.567253367,276851.564878129
93236179-a0f9-11ec-adab-1c34da757fa2,hp009.utah.cloudlab.us,25,200,random,1646967225.6812856,277101.917380569,277179.705292564
56b9ada8-a0fa-11ec-a7ba-1c34da757fa2,hp009.utah.cloudlab.us,26,200,fixed,1646967225.6812856,277430.074788346,277507.888165363
1a571491-a0fb-11ec-b387-1c34da757fa2,hp009.utah.cloudlab.us,27,200,random,1646967225.6812856,277758.263468797,277836.089394857
ddf5f2ed-a0fb-11ec-b2df-1c34da757fa2,hp009.utah.cloudlab.us,28,200,fixed,1646967225.6812856,278086.439612543,278164.212254029
a189a43a-a0fc-11ec-aa0b-1c34da757fa2,hp009.utah.cloudlab.us,29,200,random,1646967225.6812856,278414.594000325,278492.436155334
652c763b-a0fd-11ec-83ed-1c34da757fa2,hp009.utah.cloudlab.us,30,200,fixed,1646967225.6812856,278742.80559151,278820.757912818
28def918-a0fe-11ec-810f-1c34da757fa2,hp009.utah.cloudlab.us,31,200,random,1646967225.6812856,279071.132037688,279148.960680489
ec7f67ad-a0fe-11ec-86f4-1c34da757fa2,hp009.utah.cloudlab.us,32,200,fixed,1646967225.6812856,279399.337656866,279477.15169207
b01bf441-a0ff-11ec-aefd-1c34da757fa2,hp009.utah.cloudlab.us,33,200,random,1646967225.6812856,279727.521089022,279805.298429197
73b3446c-a100-11ec-9781-1c34da757fa2,hp009.utah.cloudlab.us,34,200,fixed,1646967225.6812856,280055.668321277,280133.733049037
3776deca-a101-11ec-a31e-1c34da757fa2,hp009.utah.cloudlab.us,35,200,random,1646967225.6812856,280384.107132615,280462.03016833
fb26ccfd-a101-11ec-9630-1c34da757fa2,hp009.utah.cloudlab.us,36,200,fixed,1646967225.6812856,280712.41373805,280790.35856665
bed8a5ff-a102-11ec-bffa-1c34da757fa2,hp009.utah.cloudlab.us,37,200,random,1646967225.6812856,281040.715641827,281118.502061992
827429a2-a103-11ec-a8e5-1c34da757fa2,hp009.utah.cloudlab.us,38,200,fixed,1646967225.6812856,281368.904623223,281446.694341704
460c47f4-a104-11ec-9fef-1c34da757fa2,hp009.utah.cloudlab.us,39,200,random,1646967225.6812856,281697.063361096,281774.810453571
09a0bfce-a105-11ec-9ab0-1c34da757fa2,hp009.utah.cloudlab.us,40,200,fixed,1646967225.6812856,282025.192061993,282103.471927845
cd84feda-a105-11ec-aa73-1c34da757fa2,hp009.utah.cloudlab.us,41,200,random,1646967225.6812856,282353.841098444,282432.22505732
917969fe-a106-11ec-af0b-1c34da757fa2,hp009.utah.cloudlab.us,42,200,fixed,1646967225.6812856,282682.601173265,282760.609813914
552e9885-a107-11ec-b518-1c34da757fa2,hp009.utah.cloudlab.us,43,200,random,1646967225.6812856,283010.942645861,283088.775396718
18cea048-a108-11ec-ba39-1c34da757fa2,hp009.utah.cloudlab.us,44,200,fixed,1646967225.6812856,283339.149130048,283417.082995978
dc7e9a1c-a108-11ec-b969-1c34da757fa2,hp009.utah.cloudlab.us,45,200,random,1646967225.6812856,283667.457643442,283745.394636188
a0306f2f-a109-11ec-96cf-1c34da757fa2,hp009.utah.cloudlab.us,46,200,fixed,1646967225.6812856,283995.758878771,284073.791905618
63ec14b7-a10a-11ec-8516-1c34da757fa2,hp009.utah.cloudlab.us,47,200,random,1646967225.6812856,284324.163735899,284402.044456805
278ebf8d-a10b-11ec-94de-1c34da757fa2,hp009.utah.cloudlab.us,48,200,fixed,1646967225.6812856,284652.379640755,284730.227161885
eb303766-a10b-11ec-9afc-1c34da757fa2,hp009.utah.cloudlab.us,49,200,random,1646967225.6812856,284980.599563479,285058.376541617
aec7eb29-a10c-11ec-a21a-1c34da757fa2,hp009.utah.cloudlab.us,50,200,fixed,1646967225.6812856,285308.749973599,285386.640199582
72709d1f-a10d-11ec-be8d-1c34da757fa2,hp009.utah.cloudlab.us,51,200,random,1646967225.6812856,285637.012379485,285714.904868721
3615dbda-a10e-11ec-b763-1c34da757fa2,hp009.utah.cloudlab.us,52,200,fixed,1646967225.6812856,285965.248501547,286043.050574464
f9b05f81-a10e-11ec-b089-1c34da757fa2,hp009.utah.cloudlab.us,53,200,random,1646967225.6812856,286293.418871548,286371.280836308
bd5c6eaa-a10f-11ec-ba92-1c34da757fa2,hp009.utah.cloudlab.us,54,200,fixed,1646967225.6812856,286621.70147185,286699.463725101
80f1a473-a110-11ec-aaec-1c34da757fa2,hp009.utah.cloudlab.us,55,200,random,1646967225.6812856,286949.834552596,287027.707495834
4489d30f-a111-11ec-8e63-1c34da757fa2,hp009.utah.cloudlab.us,56,200,fixed,1646967225.6812856,287277.971413634,287355.959750136
083efef6-a112-11ec-ad6e-1c34da757fa2,hp009.utah.cloudlab.us,57,200,random,1646967225.6812856,287606.323410532,287684.003522719
cbba07cc-a112-11ec-8c4b-1c34da757fa2,hp009.utah.cloudlab.us,58,200,fixed,1646967225.6812856,287934.292548172,288012.053676974
8f4f0777-a113-11ec-9bd4-1c34da757fa2,hp009.utah.cloudlab.us,59,200,random,1646967225.6812856,288262.426474979,288340.258849588
52ef859d-a114-11ec-bfa3-1c34da757fa2,hp009.utah.cloudlab.us,60,200,fixed,1646967225.6812856,288590.63313518,288668.467770437
16902464-a115-11ec-a18e-1c34da757fa2,hp009.utah.cloudlab.us,61,200,random,1646967225.6812856,288918.840264248,288996.602991691
da263ce0-a115-11ec-9056-1c34da757fa2,hp009.utah.cloudlab.us,62,200,fixed,1646967225.6812856,289246.981584355,289324.65063148
9db479d1-a116-11ec-9fb2-1c34da757fa2,hp009.utah.cloudlab.us,63,200,random,1646967225.6812856,289575.067898192,289652.674107894
61323ae6-a117-11ec-9d9c-1c34da757fa2,hp009.utah.cloudlab.us,64,200,fixed,1646967225.6812856,289903.047632649,289980.889979343
24d36954-a118-11ec-bb82-1c34da757fa2,hp009.utah.cloudlab.us,65,200,random,1646967225.6812856,290231.240660938,290309.065053917
e86fd11d-a118-11ec-a9f9-1c34da757fa2,hp009.utah.cloudlab.us,66,200,fixed,1646967225.6812856,290559.421337582,290637.324188862
ac10822a-a119-11ec-9858-1c34da757fa2,hp009.utah.cloudlab.us,67,200,random,1646967225.6812856,290887.630942936,290965.47651672
6fafc267-a11a-11ec-bd0e-1c34da757fa2,hp009.utah.cloudlab.us,68,200,fixed,1646967225.6812856,291215.843284486,291293.650426542
334b2b7d-a11b-11ec-907f-1c34da757fa2,hp009.utah.cloudlab.us,69,200,random,1646967225.6812856,291544.002767781,291621.901159723
f6f9e3d4-a11b-11ec-a776-1c34da757fa2,hp009.utah.cloudlab.us,70,200,fixed,1646967225.6812856,291872.324550499,291950.202427281
baa15c9c-a11c-11ec-a4a4-1c34da757fa2,hp009.utah.cloudlab.us,71,200,random,1646967225.6812856,292200.579007203,292278.366252802
7e3c28cd-a11d-11ec-81fa-1c34da757fa2,hp009.utah.cloudlab.us,72,200,fixed,1646967225.6812856,292528.748185251,292606.637562686
41e53fa8-a11e-11ec-bc18-1c34da757fa2,hp009.utah.cloudlab.us,73,200,random,1646967225.6812856,292857.012399987,292934.780065295
057c3de6-a11f-11ec-b889-1c34da757fa2,hp009.utah.cloudlab.us,74,200,fixed,1646967225.6812856,293185.156344815,293263.059199422
c926d944-a11f-11ec-8298-1c34da757fa2,hp009.utah.cloudlab.us,75,200,random,1646967225.6812856,293513.431724393,293591.328315491
8cd116d8-a120-11ec-9df6-1c34da757fa2,hp009.utah.cloudlab.us,76,200,fixed,1646967225.6812856,293841.701479337,293919.579639834
50780c01-a121-11ec-a0e0-1c34da757fa2,hp009.utah.cloudlab.us,77,200,random,1646967225.6812856,294169.952215266,294247.815354271
141dc9db-a122-11ec-9561-1c34da757fa2,hp009.utah.cloudlab.us,78,200,fixed,1646967225.6812856,294498.174562116,294575.982831791
d7b73ae3-a122-11ec-93ab-1c34da757fa2,hp009.utah.cloudlab.us,79,200,random,1646967225.6812856,294826.354526058,294904.192501083
9b5971b1-a123-11ec-8710-1c34da757fa2,hp009.utah.cloudlab.us,80,200,fixed,1646967225.6812856,295154.554316844,295232.472929459
5efd2292-a124-11ec-bb90-1c34da757fa2,hp009.utah.cloudlab.us,81,200,random,1646967225.6812856,295482.797211934,295560.597693811
229878ed-a125-11ec-9531-1c34da757fa2,hp009.utah.cloudlab.us,82,200,fixed,1646967225.6812856,295810.976393942,295888.931999974
e64b00b8-a125-11ec-b957-1c34da757fa2,hp009.utah.cloudlab.us,83,200,random,1646967225.6812856,296139.302425303,296216.989147346
a9d5aa2c-a126-11ec-8349-1c34da757fa2,hp009.utah.cloudlab.us,84,200,fixed,1646967225.6812856,296467.367280689,296545.384856808
6d922976-a127-11ec-9dee-1c34da757fa2,hp009.utah.cloudlab.us,85,200,random,1646967225.6812856,296795.756759797,296873.738555391
31482f0f-a128-11ec-b727-1c34da757fa2,hp009.utah.cloudlab.us,86,200,fixed,1646967225.6812856,297124.10594831,297202.071183444
f4fc9d0d-a128-11ec-aa3a-1c34da757fa2,hp009.utah.cloudlab.us,87,200,random,1646967225.6812856,297452.444045528,297530.278064255
b89e3c48-a129-11ec-b731-1c34da757fa2,hp009.utah.cloudlab.us,88,200,fixed,1646967225.6812856,297780.639651794,297858.505263761
7c40a6d5-a12a-11ec-9410-1c34da757fa2,hp009.utah.cloudlab.us,89,200,random,1646967225.6812856,298108.878032937,298186.8241149
3feeff36-a12b-11ec-8f59-1c34da757fa2,hp009.utah.cloudlab.us,90,200,fixed,1646967225.6812856,298437.176313546,298514.974691431
03895a76-a12c-11ec-b5fd-1c34da757fa2,hp009.utah.cloudlab.us,91,200,random,1646967225.6812856,298765.344630353,298842.944202979
c70337a7-a12c-11ec-b4a9-1c34da757fa2,hp009.utah.cloudlab.us,92,200,fixed,1646967225.6812856,299093.281004818,299170.889619585
8a7e853c-a12d-11ec-a256-1c34da757fa2,hp009.utah.cloudlab.us,93,200,random,1646967225.6812856,299421.243214245,299498.977755083
4e0c6e10-a12e-11ec-a897-1c34da757fa2,hp009.utah.cloudlab.us,94,200,fixed,1646967225.6812856,299749.348637566,299827.146806798
11a64b2f-a12f-11ec-b136-1c34da757fa2,hp009.utah.cloudlab.us,95,200,random,1646967225.6812856,300077.513190564,300155.220426892
d5342fd9-a12f-11ec-bd41-1c34da757fa2,hp009.utah.cloudlab.us,96,200,fixed,1646967225.6812856,300405.578016441,300483.375941848
98cc080d-a130-11ec-bcac-1c34da757fa2,hp009.utah.cloudlab.us,97,200,random,1646967225.6812856,300733.749314567,300811.572467437
5c718657-a131-11ec-82a0-1c34da757fa2,hp009.utah.cloudlab.us,98,200,fixed,1646967225.6812856,301061.988864177,301139.726370285
1fff4f35-a132-11ec-9234-1c34da757fa2,hp009.utah.cloudlab.us,99,200,random,1646967225.6812856,301390.050898553,301467.928195929
e3a41e37-a132-11ec-98e4-1c34da757fa2,hp009.utah.cloudlab.us,100,200,fixed,1646967225.6812856,301718.31043857,301796.270322737
a7570b4b-a133-11ec-82b9-1c34da757fa2,hp009.utah.cloudlab.us,101,200,random,1646967225.6812856,302046.638443655,302124.449558736
6af437d7-a134-11ec-9b8e-1c34da757fa2,hp009.utah.cloudlab.us,102,200,fixed,1646967225.6812856,302374.823757221,302453.021159177
2ed219bc-a135-11ec-902a-1c34da757fa2,hp009.utah.cloudlab.us,103,200,random,1646967225.6812856,302703.416662834,302781.233690762
f26e0c16-a135-11ec-98a8-1c34da757fa2,hp009.utah.cloudlab.us,104,200,fixed,1646967225.6812856,303031.612526197,303109.719719864
b637d0ad-a136-11ec-acc3-1c34da757fa2,hp009.utah.cloudlab.us,105,200,random,1646967225.6812856,303360.070288675,303437.659795299
79b68d9d-a137-11ec-83e9-1c34da757fa2,hp009.utah.cloudlab.us,106,200,fixed,1646967225.6812856,303688.076183464,303765.778288389
3d4258b0-a138-11ec-914f-1c34da757fa2,hp009.utah.cloudlab.us,107,200,random,1646967225.6812856,304016.148679011,304093.9958069
00e563a9-a139-11ec-b55d-1c34da757fa2,hp009.utah.cloudlab.us,108,200,fixed,1646967225.6812856,304344.372947657,304422.482135223
c4ae9cdf-a139-11ec-b6e9-1c34da757fa2,hp009.utah.cloudlab.us,109,200,random,1646967225.6812856,304672.829071315,304750.802245918
8862e703-a13a-11ec-81a7-1c34da757fa2,hp009.utah.cloudlab.us,110,200,fixed,1646967225.6812856,305001.165216834,305079.059786887
4c07fc8b-a13b-11ec-b9eb-1c34da757fa2,hp009.utah.cloudlab.us,111,200,random,1646967225.6812856,305329.421212367,305407.243314874
0fa7674c-a13c-11ec-8a56-1c34da757fa2,hp009.utah.cloudlab.us,112,200,fixed,1646967225.6812856,305657.62115176,305735.627468296
d36229c3-a13c-11ec-b04b-1c34da757fa2,hp009.utah.cloudlab.us,113,200,random,1646967225.6812856,305986.002651287,306064.030638238
97200586-a13d-11ec-87a1-1c34da757fa2,hp009.utah.cloudlab.us,114,200,fixed,1646967225.6812856,306314.384253492,306392.22790919
5ac5c671-a13e-11ec-b353-1c34da757fa2,hp009.utah.cloudlab.us,115,200,random,1646967225.6812856,306642.644586894,306720.44003104
1e5fc1a5-a13f-11ec-9354-1c34da757fa2,hp009.utah.cloudlab.us,116,200,fixed,1646967225.6812856,306970.808821958,307048.813801931
e2197d72-a13f-11ec-9b4d-1c34da757fa2,hp009.utah.cloudlab.us,117,200,random,1646967225.6812856,307299.181327145,307377.03511266
a5bc4557-a140-11ec-87bf-1c34da757fa2,hp009.utah.cloudlab.us,118,200,fixed,1646967225.6812856,307627.404371801,307705.407867524
69769c94-a141-11ec-bfa0-1c34da757fa2,hp009.utah.cloudlab.us,119,200,random,1646967225.6812856,307955.781754442,308033.769517964
2d35dfe0-a142-11ec-8758-1c34da757fa2,hp009.utah.cloudlab.us,120,200,fixed,1646967225.6812856,308284.172236216,308362.082324787
f0deb16f-a142-11ec-998f-1c34da757fa2,hp009.utah.cloudlab.us,121,200,random,1646967225.6812856,308612.452968655,308690.176116744
b46fe39e-a143-11ec-b064-1c34da757fa2,hp009.utah.cloudlab.us,122,200,fixed,1646967225.6812856,308940.559109436,309018.326841862
78059a0c-a144-11ec-9aae-1c34da757fa2,hp009.utah.cloudlab.us,123,200,random,1646967225.6812856,309268.696540324,309346.552947835
3baa9782-a145-11ec-9792-1c34da757fa2,hp009.utah.cloudlab.us,124,200,fixed,1646967225.6812856,309596.933054452,309674.861245759
ff5fe59d-a145-11ec-bbbc-1c34da757fa2,hp009.utah.cloudlab.us,125,200,random,1646967225.6812856,309925.257593922,310003.125551105
c3036884-a146-11ec-a848-1c34da757fa2,hp009.utah.cloudlab.us,126,200,fixed,1646967225.6812856,310253.50386163,310331.10180128
86869023-a147-11ec-82a1-1c34da757fa2,hp009.utah.cloudlab.us,127,200,random,1646967225.6812856,310581.520228662,310659.349055326
4a266641-a148-11ec-8aff-1c34da757fa2,hp009.utah.cloudlab.us,128,200,fixed,1646967225.6812856,310909.723076388,310987.648766115
0dd41c70-a149-11ec-9e71-1c34da757fa2,hp009.utah.cloudlab.us,129,200,random,1646967225.6812856,311238.016943923,311315.914563168
d17e396c-a149-11ec-8ca7-1c34da757fa2,hp009.utah.cloudlab.us,130,200,fixed,1646967225.6812856,311566.287830193,311644.359545328
9541f19f-a14a-11ec-8701-1c34da757fa2,hp009.utah.cloudlab.us,131,200,random,1646967225.6812856,311894.706403443,311972.681216672
58f63392-a14b-11ec-baed-1c34da757fa2,hp009.utah.cloudlab.us,132,200,fixed,1646967225.6812856,312223.064114519,312300.895702997
1c935e9a-a14c-11ec-8cea-1c34da757fa2,hp009.utah.cloudlab.us,133,200,random,1646967225.6812856,312551.24913365,312629.162038263
e0409fbf-a14c-11ec-bb4c-1c34da757fa2,hp009.utah.cloudlab.us,134,200,fixed,1646967225.6812856,312879.539736857,312957.560083782
a3fce3ec-a14d-11ec-b642-1c34da757fa2,hp009.utah.cloudlab.us,135,200,random,1646967225.6812856,313207.929158056,313285.686003329
6791ece4-a14e-11ec-887f-1c34da757fa2,hp009.utah.cloudlab.us,136,200,fixed,1646967225.6812856,313536.061461472,313613.822604275
2b264249-a14f-11ec-9533-1c34da757fa2,hp009.utah.cloudlab.us,137,200,random,1646967225.6812856,313864.189456473,313942.058558304
eed26ded-a14f-11ec-a0f3-1c34da757fa2,hp009.utah.cloudlab.us,138,200,fixed,1646967225.6812856,314192.47357449,314270.19391339
b2674e6a-a150-11ec-b86b-1c34da757fa2,hp009.utah.cloudlab.us,139,200,random,1646967225.6812856,314520.58565776,314598.430629908
7607c857-a151-11ec-a4b6-1c34da757fa2,hp009.utah.cloudlab.us,140,200,fixed,1646967225.6812856,314848.792993452,314926.842807614
39c6dfdb-a152-11ec-b2fc-1c34da757fa2,hp009.utah.cloudlab.us,141,200,random,1646967225.6812856,315177.201868452,315254.954653078
fd594b26-a152-11ec-a0a4-1c34da757fa2,hp009.utah.cloudlab.us,142,200,fixed,1646967225.6812856,315505.315920282,315583.069577748
c0ea2b70-a153-11ec-81e2-1c34da757fa2,hp009.utah.cloudlab.us,143,200,random,1646967225.6812856,315833.421798122,315911.11637462
8472f1a5-a154-11ec-82aa-1c34da757fa2,hp009.utah.cloudlab.us,144,200,fixed,1646967225.6812856,316161.492853752,316239.530287981
4838c3e2-a155-11ec-9339-1c34da757fa2,hp009.utah.cloudlab.us,145,200,random,1646967225.6812856,316489.945417067,316567.87398229
0be7527f-a156-11ec-913c-1c34da757fa2,hp009.utah.cloudlab.us,146,200,fixed,1646967225.6812856,316818.245014837,316896.059013596
cf842dd4-a156-11ec-8e56-1c34da757fa2,hp009.utah.cloudlab.us,147,200,random,1646967225.6812856,317146.422062746,317224.25799709
9324c543-a157-11ec-8208-1c34da757fa2,hp009.utah.cloudlab.us,148,200,fixed,1646967225.6812856,317474.6360364,317552.554574203
56d85b0b-a158-11ec-ac8a-1c34da757fa2,hp009.utah.cloudlab.us,149,200,random,1646967225.6812856,317802.969115782,317880.917747652
1a840418-a159-11ec-b3b0-1c34da757fa2,hp009.utah.cloudlab.us,150,200,fixed,1646967225.6812856,318131.250638657,318209.367092655
de4f75f7-a159-11ec-8485-1c34da757fa2,hp009.utah.cloudlab.us,151,200,random,1646967225.6812856,318459.740934731,318537.583665662
a1f35f02-a15a-11ec-9f04-1c34da757fa2,hp009.utah.cloudlab.us,152,200,fixed,1646967225.6812856,318787.950968511,318865.877778449
659f5d84-a15b-11ec-9ace-1c34da757fa2,hp009.utah.cloudlab.us,153,200,random,1646967225.6812856,319116.245388352,319194.032669291
2938b88f-a15c-11ec-b8ab-1c34da757fa2,hp009.utah.cloudlab.us,154,200,fixed,1646967225.6812856,319444.41298523,319522.356639116
ece99425-a15c-11ec-8665-1c34da757fa2,hp009.utah.cloudlab.us,155,200,random,1646967225.6812856,319772.728746206,319850.484526371
b07c7873-a15d-11ec-9af5-1c34da757fa2,hp009.utah.cloudlab.us,156,200,fixed,1646967225.6812856,320100.847455035,320178.566851956
740b4fa5-a15e-11ec-8ed7-1c34da757fa2,hp009.utah.cloudlab.us,157,200,random,1646967225.6812856,320428.937984282,320506.8015224
37b1b4e0-a15f-11ec-85ed-1c34da757fa2,hp009.utah.cloudlab.us,158,200,fixed,1646967225.6812856,320757.184777992,320835.118813266
fb620eec-a15f-11ec-b214-1c34da757fa2,hp009.utah.cloudlab.us,159,200,random,1646967225.6812856,321085.49573994,321163.353897783
bf0688f6-a160-11ec-bbce-1c34da757fa2,hp009.utah.cloudlab.us,160,200,fixed,1646967225.6812856,321413.72898824,321491.568048871
82a71c9e-a161-11ec-836e-1c34da757fa2,hp009.utah.cloudlab.us,161,200,random,1646967225.6812856,321741.931456346,321819.688754602
463a3d83-a162-11ec-97aa-1c34da757fa2,hp009.utah.cloudlab.us,162,200,fixed,1646967225.6812856,322070.058202206,322148.106569773
0a022e2e-a163-11ec-abc7-1c34da757fa2,hp009.utah.cloudlab.us,163,200,random,1646967225.6812856,322398.50498291,322476.329248649
cd9fbe95-a163-11ec-9d0b-1c34da757fa2,hp009.utah.cloudlab.us,164,200,fixed,1646967225.6812856,322726.691711391,322804.62045461
914b4759-a164-11ec-8ba0-1c34da757fa2,hp009.utah.cloudlab.us,165,200,random,1646967225.6812856,323054.971273404,323132.759457051
54e0e197-a165-11ec-94bd-1c34da757fa2,hp009.utah.cloudlab.us,166,200,fixed,1646967225.6812856,323383.128920437,323460.907543755
187fb56c-a166-11ec-85bb-1c34da757fa2,hp009.utah.cloudlab.us,167,200,random,1646967225.6812856,323711.325212509,323789.128182548
dc243268-a166-11ec-828e-1c34da757fa2,hp009.utah.cloudlab.us,168,200,fixed,1646967225.6812856,324039.559064123,324117.43228454
9fca955c-a167-11ec-bd4a-1c34da757fa2,hp009.utah.cloudlab.us,169,200,random,1646967225.6812856,324367.80490185,324445.535071031
635c7be8-a168-11ec-b15c-1c34da757fa2,hp009.utah.cloudlab.us,170,200,fixed,1646967225.6812856,324695.914885077,324773.902513119
2713dd27-a169-11ec-9693-1c34da757fa2,hp009.utah.cloudlab.us,171,200,random,1646967225.6812856,325024.272948879,325102.117314437
eab44145-a169-11ec-a2b3-1c34da757fa2,hp009.utah.cloudlab.us,172,200,fixed,1646967225.6812856,325352.480119203,325430.55760442
ae797978-a16a-11ec-9909-1c34da757fa2,hp009.utah.cloudlab.us,173,200,random,1646967225.6812856,325680.909822873,325758.843162338
72271c30-a16b-11ec-8a6a-1c34da757fa2,hp009.utah.cloudlab.us,174,200,fixed,1646967225.6812856,326009.216282128,326087.144768393
35db8caf-a16c-11ec-8338-1c34da757fa2,hp009.utah.cloudlab.us,175,200,random,1646967225.6812856,326337.560876115,326415.280409904
f96b879f-a16c-11ec-a571-1c34da757fa2,hp009.utah.cloudlab.us,176,200,fixed,1646967225.6812856,326665.658941676,326743.372999086
bcf916a0-a16d-11ec-89c4-1c34da757fa2,hp009.utah.cloudlab.us,177,200,random,1646967225.6812856,326993.743668172,327071.593461888
809c98a8-a16e-11ec-90e4-1c34da757fa2,hp009.utah.cloudlab.us,178,200,fixed,1646967225.6812856,327321.970082474,327399.940944784
4451e4c2-a16f-11ec-b2d9-1c34da757fa2,hp009.utah.cloudlab.us,179,200,random,1646967225.6812856,327650.314534452,327728.131638914
07efc340-a170-11ec-8ee5-1c34da757fa2,hp009.utah.cloudlab.us,180,200,fixed,1646967225.6812856,327978.497421986,328056.171366126
cb767c95-a170-11ec-89a3-1c34da757fa2,hp009.utah.cloudlab.us,181,200,random,1646967225.6812856,328306.53649547,328384.298315695
8f0046f3-a171-11ec-a880-1c34da757fa2,hp009.utah.cloudlab.us,182,200,fixed,1646967225.6812856,328634.60282626,328712.635490259
52c5b4d5-a172-11ec-81bb-1c34da757fa2,hp009.utah.cloudlab.us,183,200,random,1646967225.6812856,328963.052800582,329040.98771696
1676f892-a173-11ec-8a36-1c34da757fa2,hp009.utah.cloudlab.us,184,200,fixed,1646967225.6812856,329291.349833014,329369.326110502
da2a3cc2-a173-11ec-a928-1c34da757fa2,hp009.utah.cloudlab.us,185,200,random,1646967225.6812856,329619.700651932,329697.557687173
9dd60892-a174-11ec-9b66-1c34da757fa2,hp009.utah.cloudlab.us,186,200,fixed,1646967225.6812856,329947.980242341,330025.894671782
618217d9-a175-11ec-9245-1c34da757fa2,hp009.utah.cloudlab.us,187,200,random,1646967225.6812856,330276.265696578,330353.989128338
2511576d-a176-11ec-b709-1c34da757fa2,hp009.utah.cloudlab.us,188,200,fixed,1646967225.6812856,330604.357972966,330682.306127411
e8c29723-a176-11ec-9535-1c34da757fa2,hp009.utah.cloudlab.us,189,200,random,1646967225.6812856,330932.657597323,331010.569140204
ac7210dc-a177-11ec-a624-1c34da757fa2,hp009.utah.cloudlab.us,190,200,fixed,1646967225.6812856,331260.980334745,331338.872751147
701a9f08-a178-11ec-bfe7-1c34da757fa2,hp009.utah.cloudlab.us,191,200,random,1646967225.6812856,331589.241913498,331667.095021795
33c58b0d-a179-11ec-90bb-1c34da757fa2,hp009.utah.cloudlab.us,192,200,fixed,1646967225.6812856,331917.517020613,331997.389771129
f89d009c-a179-11ec-825a-1c34da757fa2,hp009.utah.cloudlab.us,193,200,random,1646967225.6812856,332247.765217271,332325.657167352
bc478c85-a17a-11ec-96ec-1c34da757fa2,hp009.utah.cloudlab.us,194,200,fixed,1646967225.6812856,332576.019650375,332654.127163118
800edcbe-a17b-11ec-863e-1c34da757fa2,hp009.utah.cloudlab.us,195,200,random,1646967225.6812856,332904.500376151,332982.271077191
43a6cfd0-a17c-11ec-9f3e-1c34da757fa2,hp009.utah.cloudlab.us,196,200,fixed,1646967225.6812856,333232.650832804,333310.457251944
07438ba6-a17d-11ec-b375-1c34da757fa2,hp009.utah.cloudlab.us,197,200,random,1646967225.6812856,333560.833317775,333638.557455652
cad467a5-a17d-11ec-a700-1c34da757fa2,hp009.utah.cloudlab.us,198,200,fixed,1646967225.6812856,333888.938392993,333966.997942679
8e9659f9-a17e-11ec-9985-1c34da757fa2,hp009.utah.cloudlab.us,199,200,random,1646967225.6812856,334217.345897732,334295.152548818
