# started on Fri Mar 11 14:02:27 2022

3606155357,,cache-misses,118793378610,26.65,18.614,of all cache refs
19373829781,,cache-references,118883822677,26.68,,
4205920,,branch-misses,118954471048,26.69,,
0,,mem-loads,119019837628,26.71,,
40520913944,,mem-stores,119024289412,26.71,,
645445565,,LLC-load-misses,118953360467,26.69,,
0,,LLC-store-misses,118888361727,26.68,,
12637907386,,L1-dcache-load-misses,118824837736,26.66,,
35966934,,L1-icache-load-misses,118778857341,26.65,,
7902752,,dTLB-load-misses,118765708029,26.65,,
86727599,,dTLB-store-misses,118764643658,26.65,,
293177,,page-faults,445657232438,100.00,,
0,,alignment-faults,445657232438,100.00,,
880,,context-switches,445657232438,100.00,,
13,,cpu-migrations,445657232438,100.00,,
5,,major-faults,445657232438,100.00,,
293172,,minor-faults,445657232438,100.00,,
4169640,,branch-load-misses,118764162545,26.65,,
1057475,,iTLB-load-misses,118764874443,26.65,,
0,,node-store-misses,118756285944,26.65,,
0,,node-load-misses,118752181495,26.65,,
