run_uuid,hostname,run_num,total_runs,order_type,random_seed,time_start,time_stop
f600a026-8deb-11ec-ad0e-043f72acca06,hp013.utah.cloudlab.us,0,200,fixed,1644880512.5709581,446883.414819692,446964.925371558
bbcde7ef-8dec-11ec-9209-043f72acca06,hp013.utah.cloudlab.us,1,200,random,1644880512.5709581,447215.286523334,447296.608769234
8180bcf7-8ded-11ec-97bb-043f72acca06,hp013.utah.cloudlab.us,2,200,fixed,1644880512.5709581,447546.968470925,447628.472001241
474eb9ab-8dee-11ec-9a79-043f72acca06,hp013.utah.cloudlab.us,3,200,random,1644880512.5709581,447878.809907317,447960.090451045
0cf80af2-8def-11ec-acda-043f72acca06,hp013.utah.cloudlab.us,4,200,fixed,1644880512.5709581,448210.434816245,448291.724552319
d29c41ad-8def-11ec-827d-043f72acca06,hp013.utah.cloudlab.us,5,200,random,1644880512.5709581,448542.040121967,448623.33571289
984a6986-8df0-11ec-9d6c-043f72acca06,hp013.utah.cloudlab.us,6,200,fixed,1644880512.5709581,448873.684876694,448954.814294865
5dde4392-8df1-11ec-a0e8-043f72acca06,hp013.utah.cloudlab.us,7,200,random,1644880512.5709581,449205.172134651,449286.486702734
238f98c9-8df2-11ec-a6db-043f72acca06,hp013.utah.cloudlab.us,8,200,fixed,1644880512.5709581,449536.837317879,449617.994599692
e926d46d-8df2-11ec-ac53-043f72acca06,hp013.utah.cloudlab.us,9,200,random,1644880512.5709581,449868.346368366,449949.71884608
aee0e6e0-8df3-11ec-a4af-043f72acca06,hp013.utah.cloudlab.us,10,200,fixed,1644880512.5709581,450200.058118366,450281.318338609
748d9a03-8df4-11ec-ab97-043f72acca06,hp013.utah.cloudlab.us,11,200,random,1644880512.5709581,450531.721662106,450613.055537344
3a42312f-8df5-11ec-9b52-043f72acca06,hp013.utah.cloudlab.us,12,200,fixed,1644880512.5709581,450863.414355314,450944.715960118
fff59169-8df5-11ec-8076-043f72acca06,hp013.utah.cloudlab.us,13,200,random,1644880512.5709581,451195.102060142,451276.363042275
c59eb616-8df6-11ec-8736-043f72acca06,hp013.utah.cloudlab.us,14,200,fixed,1644880512.5709581,451526.721910746,451608.165826181
8b6acc2f-8df7-11ec-8c4c-043f72acca06,hp013.utah.cloudlab.us,15,200,random,1644880512.5709581,451858.570505758,451939.833319776
5113ec04-8df8-11ec-ab5c-043f72acca06,hp013.utah.cloudlab.us,16,200,fixed,1644880512.5709581,452190.189933368,452271.509845355
16c68a64-8df9-11ec-ad12-043f72acca06,hp013.utah.cloudlab.us,17,200,random,1644880512.5709581,452521.84965134,452603.154296382
dc729f8c-8df9-11ec-a78f-043f72acca06,hp013.utah.cloudlab.us,18,200,fixed,1644880512.5709581,452853.509952129,452934.824036143
a223d23c-8dfa-11ec-9353-043f72acca06,hp013.utah.cloudlab.us,19,200,random,1644880512.5709581,453185.157298938,453266.538137716
67dbbd1e-8dfb-11ec-9a0b-043f72acca06,hp013.utah.cloudlab.us,20,200,fixed,1644880512.5709581,453516.89796129,453598.383502533
2da6c2d8-8dfc-11ec-bc90-043f72acca06,hp013.utah.cloudlab.us,21,200,random,1644880512.5709581,453848.740379388,453930.211705792
f3705c6e-8dfc-11ec-9e8b-043f72acca06,hp013.utah.cloudlab.us,22,200,fixed,1644880512.5709581,454180.55321947,454261.952140108
b931e009-8dfd-11ec-94ef-043f72acca06,hp013.utah.cloudlab.us,23,200,random,1644880512.5709581,454512.333665636,454593.846783334
7efe7bf6-8dfe-11ec-be53-043f72acca06,hp013.utah.cloudlab.us,24,200,fixed,1644880512.5709581,454844.205027447,454925.46059324
44a7783b-8dff-11ec-af12-043f72acca06,hp013.utah.cloudlab.us,25,200,random,1644880512.5709581,455175.824219512,455257.02883506
0a4edb45-8e00-11ec-98e6-043f72acca06,hp013.utah.cloudlab.us,26,200,fixed,1644880512.5709581,455507.431321333,455588.71862608
cffc2cd2-8e00-11ec-90b1-043f72acca06,hp013.utah.cloudlab.us,27,200,random,1644880512.5709581,455839.078649558,455920.330549517
95a3feb8-8e01-11ec-b257-043f72acca06,hp013.utah.cloudlab.us,28,200,fixed,1644880512.5709581,456170.690539778,456251.979646316
5b517313-8e02-11ec-a7c5-043f72acca06,hp013.utah.cloudlab.us,29,200,random,1644880512.5709581,456502.329593074,456583.538371872
20f1240b-8e03-11ec-8840-043f72acca06,hp013.utah.cloudlab.us,30,200,fixed,1644880512.5709581,456833.896374598,456915.163831467
e69c024b-8e03-11ec-b3fc-043f72acca06,hp013.utah.cloudlab.us,31,200,random,1644880512.5709581,457165.525476025,457246.803188156
ac473875-8e04-11ec-bbd4-043f72acca06,hp013.utah.cloudlab.us,32,200,fixed,1644880512.5709581,457497.159889389,457578.271700342
71d9bd29-8e05-11ec-b725-043f72acca06,hp013.utah.cloudlab.us,33,200,random,1644880512.5709581,457828.629289741,457909.891005882
3781e29c-8e06-11ec-a7ca-043f72acca06,hp013.utah.cloudlab.us,34,200,fixed,1644880512.5709581,458160.238866778,458241.741569659
fd4f47eb-8e06-11ec-be5c-043f72acca06,hp013.utah.cloudlab.us,35,200,random,1644880512.5709581,458492.094310451,458573.342141833
c2f5af6f-8e07-11ec-a005-043f72acca06,hp013.utah.cloudlab.us,36,200,fixed,1644880512.5709581,458823.704341376,458904.916255405
889871c6-8e08-11ec-b6ea-043f72acca06,hp013.utah.cloudlab.us,37,200,random,1644880512.5709581,459155.259506538,459236.537680118
4e4090eb-8e09-11ec-b558-043f72acca06,hp013.utah.cloudlab.us,38,200,fixed,1644880512.5709581,459486.875196446,459568.273758608
13fc1a81-8e0a-11ec-9451-043f72acca06,hp013.utah.cloudlab.us,39,200,random,1644880512.5709581,459818.633472051,459899.999785979
d9b55ff2-8e0a-11ec-bcd2-043f72acca06,hp013.utah.cloudlab.us,40,200,fixed,1644880512.5709581,460150.360193002,460231.886671764
9f877c72-8e0b-11ec-9beb-043f72acca06,hp013.utah.cloudlab.us,41,200,random,1644880512.5709581,460482.246591195,460563.689678619
654ad2ef-8e0c-11ec-beb2-043f72acca06,hp013.utah.cloudlab.us,42,200,fixed,1644880512.5709581,460814.038975254,460895.478390814
2b0f456d-8e0d-11ec-b97c-043f72acca06,hp013.utah.cloudlab.us,43,200,random,1644880512.5709581,461145.837502849,461227.211820538
f0ca3664-8e0d-11ec-bae0-043f72acca06,hp013.utah.cloudlab.us,44,200,fixed,1644880512.5709581,461477.573955643,461558.927459174
b6885f17-8e0e-11ec-b47d-043f72acca06,hp013.utah.cloudlab.us,45,200,random,1644880512.5709581,461809.330633807,461890.681597766
7c45c535-8e0f-11ec-9366-043f72acca06,hp013.utah.cloudlab.us,46,200,fixed,1644880512.5709581,462141.082579848,462222.473638384
4209d8a9-8e10-11ec-87fd-043f72acca06,hp013.utah.cloudlab.us,47,200,random,1644880512.5709581,462472.862069508,462554.347190467
07d26d1a-8e11-11ec-a4c3-043f72acca06,hp013.utah.cloudlab.us,48,200,fixed,1644880512.5709581,462804.705525435,462886.004163743
cd81c8c5-8e11-11ec-a5e5-043f72acca06,hp013.utah.cloudlab.us,49,200,random,1644880512.5709581,463136.365104986,463217.90589667
93559950-8e12-11ec-8df7-043f72acca06,hp013.utah.cloudlab.us,50,200,fixed,1644880512.5709581,463468.265189228,463549.609233526
59043cd6-8e13-11ec-bc24-043f72acca06,hp013.utah.cloudlab.us,51,200,random,1644880512.5709581,463799.913759708,463881.214346765
1eb220cf-8e14-11ec-8e11-043f72acca06,hp013.utah.cloudlab.us,52,200,fixed,1644880512.5709581,464131.570709511,464212.94446414
e46bbd55-8e14-11ec-9470-043f72acca06,hp013.utah.cloudlab.us,53,200,random,1644880512.5709581,464463.298607996,464544.736304542
aa333374-8e15-11ec-87a4-043f72acca06,hp013.utah.cloudlab.us,54,200,fixed,1644880512.5709581,464795.118229612,464876.522708754
6ff29043-8e16-11ec-8630-043f72acca06,hp013.utah.cloudlab.us,55,200,random,1644880512.5709581,465126.877234534,465208.338772935
35b8f455-8e17-11ec-bbae-043f72acca06,hp013.utah.cloudlab.us,56,200,fixed,1644880512.5709581,465458.688210045,465540.125883654
fb7c4adf-8e17-11ec-b976-043f72acca06,hp013.utah.cloudlab.us,57,200,random,1644880512.5709581,465790.465329218,465871.770352515
c1217778-8e18-11ec-ab69-043f72acca06,hp013.utah.cloudlab.us,58,200,fixed,1644880512.5709581,466122.078783231,466203.30072666
86c546a0-8e19-11ec-893e-043f72acca06,hp013.utah.cloudlab.us,59,200,random,1644880512.5709581,466453.643246227,466534.887534912
4c68f549-8e1a-11ec-b2c1-043f72acca06,hp013.utah.cloudlab.us,60,200,fixed,1644880512.5709581,466785.246674036,466866.695511506
122eeb75-8e1b-11ec-883d-043f72acca06,hp013.utah.cloudlab.us,61,200,random,1644880512.5709581,467117.054883518,467198.144708687
d7bcb994-8e1b-11ec-9d12-043f72acca06,hp013.utah.cloudlab.us,62,200,fixed,1644880512.5709581,467448.497177435,467529.902664139
9d7c32de-8e1c-11ec-a044-043f72acca06,hp013.utah.cloudlab.us,63,200,random,1644880512.5709581,467780.261386273,467861.788319615
634ce7d3-8e1d-11ec-abc6-043f72acca06,hp013.utah.cloudlab.us,64,200,fixed,1644880512.5709581,468112.141049623,468193.445985252
290397b4-8e1e-11ec-9537-043f72acca06,hp013.utah.cloudlab.us,65,200,random,1644880512.5709581,468443.84890886,468525.22417476
eebdae80-8e1e-11ec-94e6-043f72acca06,hp013.utah.cloudlab.us,66,200,fixed,1644880512.5709581,468775.561772042,468856.92407584
b4742e4c-8e1f-11ec-b7f3-043f72acca06,hp013.utah.cloudlab.us,67,200,random,1644880512.5709581,469107.285878994,469188.895194266
7a461e0a-8e20-11ec-b037-043f72acca06,hp013.utah.cloudlab.us,68,200,fixed,1644880512.5709581,469439.174130666,469520.57630866
4004bc95-8e21-11ec-9838-043f72acca06,hp013.utah.cloudlab.us,69,200,random,1644880512.5709581,469770.934515364,469852.047808327
0597d186-8e22-11ec-85bb-043f72acca06,hp013.utah.cloudlab.us,70,200,fixed,1644880512.5709581,470102.410523007,470183.622359521
cb39db8c-8e22-11ec-b9b5-043f72acca06,hp013.utah.cloudlab.us,71,200,random,1644880512.5709581,470433.982652391,470515.33844585
90f122dd-8e23-11ec-bb18-043f72acca06,hp013.utah.cloudlab.us,72,200,fixed,1644880512.5709581,470765.696694225,470846.928668976
569c7709-8e24-11ec-b809-043f72acca06,hp013.utah.cloudlab.us,73,200,random,1644880512.5709581,471097.329757552,471178.583742083
1c454685-8e25-11ec-9f08-043f72acca06,hp013.utah.cloudlab.us,74,200,fixed,1644880512.5709581,471428.946441072,471510.135561653
e1e3203b-8e25-11ec-a988-043f72acca06,hp013.utah.cloudlab.us,75,200,random,1644880512.5709581,471760.49215262,471841.753273046
a78cab4f-8e26-11ec-99d9-043f72acca06,hp013.utah.cloudlab.us,76,200,fixed,1644880512.5709581,472092.094749975,472173.537434407
6d4f8752-8e27-11ec-9519-043f72acca06,hp013.utah.cloudlab.us,77,200,random,1644880512.5709581,472423.90207958,472505.318593701
330f7835-8e28-11ec-9f8a-043f72acca06,hp013.utah.cloudlab.us,78,200,fixed,1644880512.5709581,472755.671990089,472837.035613549
f8c8b5f0-8e28-11ec-995f-043f72acca06,hp013.utah.cloudlab.us,79,200,random,1644880512.5709581,473087.390306302,473168.680589959
be6dbcb7-8e29-11ec-8781-043f72acca06,hp013.utah.cloudlab.us,80,200,fixed,1644880512.5709581,473418.990080379,473500.280175732
841b5267-8e2a-11ec-8146-043f72acca06,hp013.utah.cloudlab.us,81,200,random,1644880512.5709581,473750.622538257,473831.868070025
49bfeeff-8e2b-11ec-8796-043f72acca06,hp013.utah.cloudlab.us,82,200,fixed,1644880512.5709581,474082.228177988,474163.693488089
0f844984-8e2c-11ec-87e3-043f72acca06,hp013.utah.cloudlab.us,83,200,random,1644880512.5709581,474414.026979966,474495.344453363
d535be86-8e2c-11ec-8388-043f72acca06,hp013.utah.cloudlab.us,84,200,fixed,1644880512.5709581,474745.700850463,474827.162326311
9afd8c94-8e2d-11ec-8bdf-043f72acca06,hp013.utah.cloudlab.us,85,200,random,1644880512.5709581,475077.503733852,475158.723050084
609da3ce-8e2e-11ec-97e9-043f72acca06,hp013.utah.cloudlab.us,86,200,fixed,1644880512.5709581,475409.082488228,475490.263937872
263ad311-8e2f-11ec-9457-043f72acca06,hp013.utah.cloudlab.us,87,200,random,1644880512.5709581,475740.624753797,475821.967410302
ebf0e530-8e2f-11ec-9414-043f72acca06,hp013.utah.cloudlab.us,88,200,fixed,1644880512.5709581,476072.32657385,476153.620846676
b1a53536-8e30-11ec-9c43-043f72acca06,hp013.utah.cloudlab.us,89,200,random,1644880512.5709581,476404.020389983,476485.074759761
772fcd5b-8e31-11ec-9d79-043f72acca06,hp013.utah.cloudlab.us,90,200,fixed,1644880512.5709581,476735.440121177,476816.773039118
3ceb5df3-8e32-11ec-be68-043f72acca06,hp013.utah.cloudlab.us,91,200,random,1644880512.5709581,477067.178555811,477148.634855046
02b1a81d-8e33-11ec-b1a0-043f72acca06,hp013.utah.cloudlab.us,92,200,fixed,1644880512.5709581,477398.990646728,477480.183945324
c8577818-8e33-11ec-a6a4-043f72acca06,hp013.utah.cloudlab.us,93,200,random,1644880512.5709581,477730.587801131,477811.938740058
8e149106-8e34-11ec-97c4-043f72acca06,hp013.utah.cloudlab.us,94,200,fixed,1644880512.5709581,478062.339017837,478143.590257539
53bcfc17-8e35-11ec-8ce8-043f72acca06,hp013.utah.cloudlab.us,95,200,random,1644880512.5709581,478393.936940804,478475.528319103
1996031e-8e36-11ec-a96b-043f72acca06,hp013.utah.cloudlab.us,96,200,fixed,1644880512.5709581,478725.887162292,478807.383637684
df63e2a6-8e36-11ec-84d6-043f72acca06,hp013.utah.cloudlab.us,97,200,random,1644880512.5709581,479057.748736694,479138.962176778
a50594c6-8e37-11ec-8c83-043f72acca06,hp013.utah.cloudlab.us,98,200,fixed,1644880512.5709581,479389.316726568,479470.59504973
6aa4d16e-8e38-11ec-8cdb-043f72acca06,hp013.utah.cloudlab.us,99,200,random,1644880512.5709581,479720.875325517,479802.042238631
304084f2-8e39-11ec-9be6-043f72acca06,hp013.utah.cloudlab.us,100,200,fixed,1644880512.5709581,480052.40500591,480133.758453391
f6004fff-8e39-11ec-828a-043f72acca06,hp013.utah.cloudlab.us,101,200,random,1644880512.5709581,480384.174019426,480465.635893965
bbc8ae0d-8e3a-11ec-a830-043f72acca06,hp013.utah.cloudlab.us,102,200,fixed,1644880512.5709581,480715.990121547,480797.376979646
81846399-8e3b-11ec-a2da-043f72acca06,hp013.utah.cloudlab.us,103,200,random,1644880512.5709581,481047.738184688,481129.220927811
6d8fef6c-8e3c-11ec-b822-043f72acca06,hp013.utah.cloudlab.us,104,200,fixed,1644880512.5709581,481468.874992109,481550.082598074
42294757-8e3d-11ec-a29e-043f72acca06,hp013.utah.cloudlab.us,105,200,random,1644880512.5709581,481800.437888514,481881.741970236
07d8ac1b-8e3e-11ec-9f45-043f72acca06,hp013.utah.cloudlab.us,106,200,fixed,1644880512.5709581,482132.100775893,482213.430692051
cd8cbe07-8e3e-11ec-afc9-043f72acca06,hp013.utah.cloudlab.us,107,200,random,1644880512.5709581,482463.789748269,482545.214694887
934f07ac-8e3f-11ec-b075-043f72acca06,hp013.utah.cloudlab.us,108,200,fixed,1644880512.5709581,482795.574391434,482877.032591961
591693fd-8e40-11ec-9a61-043f72acca06,hp013.utah.cloudlab.us,109,200,random,1644880512.5709581,483127.372431095,483208.571696674
1eb980cf-8e41-11ec-a000-043f72acca06,hp013.utah.cloudlab.us,110,200,fixed,1644880512.5709581,483458.971049102,483540.292314467
e46b5f4b-8e41-11ec-b682-043f72acca06,hp013.utah.cloudlab.us,111,200,random,1644880512.5709581,483790.630267378,483871.708865724
a9fc62b5-8e42-11ec-88b8-043f72acca06,hp013.utah.cloudlab.us,112,200,fixed,1644880512.5709581,484122.111020409,484203.412927289
6fac20a9-8e43-11ec-b895-043f72acca06,hp013.utah.cloudlab.us,113,200,random,1644880512.5709581,484453.768191268,484534.830325157
353591cc-8e44-11ec-a0e5-043f72acca06,hp013.utah.cloudlab.us,114,200,fixed,1644880512.5709581,484785.165674238,484866.685191065
fb035c8e-8e44-11ec-9335-043f72acca06,hp013.utah.cloudlab.us,115,200,random,1644880512.5709581,485117.038375313,485198.338647414
c0b234fd-8e45-11ec-bcf6-043f72acca06,hp013.utah.cloudlab.us,116,200,fixed,1644880512.5709581,485448.702039046,485530.113791839
8670a479-8e46-11ec-9333-043f72acca06,hp013.utah.cloudlab.us,117,200,random,1644880512.5709581,485780.460808895,485861.88883064
4c33085d-8e47-11ec-899f-043f72acca06,hp013.utah.cloudlab.us,118,200,fixed,1644880512.5709581,486112.240298138,486193.624613226
11ee11ee-8e48-11ec-8d93-043f72acca06,hp013.utah.cloudlab.us,119,200,random,1644880512.5709581,486443.983940199,486525.198241246
d78f4c44-8e48-11ec-8481-043f72acca06,hp013.utah.cloudlab.us,120,200,fixed,1644880512.5709581,486775.533883808,486856.707153043
9d284911-8e49-11ec-9c31-043f72acca06,hp013.utah.cloudlab.us,121,200,random,1644880512.5709581,487107.065702007,487188.318777073
62ce84ed-8e4a-11ec-a581-043f72acca06,hp013.utah.cloudlab.us,122,200,fixed,1644880512.5709581,487438.66624136,487520.017253283
2885cc1f-8e4b-11ec-8f53-043f72acca06,hp013.utah.cloudlab.us,123,200,random,1644880512.5709581,487770.37825706,487851.717044409
ee37adc7-8e4b-11ec-9290-043f72acca06,hp013.utah.cloudlab.us,124,200,fixed,1644880512.5709581,488102.055131891,488183.329266401
b3e33282-8e4c-11ec-859d-043f72acca06,hp013.utah.cloudlab.us,125,200,random,1644880512.5709581,488433.690178675,488514.979262248
79903f90-8e4d-11ec-b1d3-043f72acca06,hp013.utah.cloudlab.us,126,200,fixed,1644880512.5709581,488765.337099015,488846.500329432
3f2aedfc-8e4e-11ec-a725-043f72acca06,hp013.utah.cloudlab.us,127,200,random,1644880512.5709581,489096.840675905,489178.144926204
04d85aa1-8e4f-11ec-9e7f-043f72acca06,hp013.utah.cloudlab.us,128,200,fixed,1644880512.5709581,489428.510561774,489509.929622464
ca993d68-8e4f-11ec-a6e5-043f72acca06,hp013.utah.cloudlab.us,129,200,random,1644880512.5709581,489760.282414029,489841.662453349
90545047-8e50-11ec-8596-043f72acca06,hp013.utah.cloudlab.us,130,200,fixed,1644880512.5709581,490091.996583117,490173.322910679
560438ce-8e51-11ec-b08a-043f72acca06,hp013.utah.cloudlab.us,131,200,random,1644880512.5709581,490423.683202839,490505.17458162
1bd6b1bc-8e52-11ec-b940-043f72acca06,hp013.utah.cloudlab.us,132,200,fixed,1644880512.5709581,490755.574229734,490836.940782648
e1963311-8e52-11ec-9c28-043f72acca06,hp013.utah.cloudlab.us,133,200,random,1644880512.5709581,491087.341324113,491168.564645466
a739bd2e-8e53-11ec-9c60-043f72acca06,hp013.utah.cloudlab.us,134,200,fixed,1644880512.5709581,491418.924085294,491500.401970185
6d040bfb-8e54-11ec-8335-043f72acca06,hp013.utah.cloudlab.us,135,200,random,1644880512.5709581,491750.754155299,491831.83618354
328fe3a3-8e55-11ec-b5eb-043f72acca06,hp013.utah.cloudlab.us,136,200,fixed,1644880512.5709581,492082.189390605,492163.389162265
f830d150-8e55-11ec-8b69-043f72acca06,hp013.utah.cloudlab.us,137,200,random,1644880512.5709581,492413.753575152,492495.026448323
bddb7e56-8e56-11ec-92a3-043f72acca06,hp013.utah.cloudlab.us,138,200,fixed,1644880512.5709581,492745.384675408,492826.652814644
8384c10d-8e57-11ec-b036-043f72acca06,hp013.utah.cloudlab.us,139,200,random,1644880512.5709581,493076.986176651,493158.12391814
4917adef-8e58-11ec-9684-043f72acca06,hp013.utah.cloudlab.us,140,200,fixed,1644880512.5709581,493408.47898782,493489.695812609
0eba4620-8e59-11ec-bffd-043f72acca06,hp013.utah.cloudlab.us,141,200,random,1644880512.5709581,493740.054670506,493821.135420113
d447848f-8e59-11ec-918f-043f72acca06,hp013.utah.cloudlab.us,142,200,fixed,1644880512.5709581,494071.493426673,494152.873377766
9a02413a-8e5a-11ec-b37d-043f72acca06,hp013.utah.cloudlab.us,143,200,random,1644880512.5709581,494403.22725784,494484.280842417
5f8c67d1-8e5b-11ec-8d59-043f72acca06,hp013.utah.cloudlab.us,144,200,fixed,1644880512.5709581,494734.644894164,494815.938716533
254188c8-8e5c-11ec-a8d2-043f72acca06,hp013.utah.cloudlab.us,145,200,random,1644880512.5709581,495066.341971961,495147.649980455
eaf23831-8e5c-11ec-b98b-043f72acca06,hp013.utah.cloudlab.us,146,200,fixed,1644880512.5709581,495398.012147475,495479.469251768
b0b94fe4-8e5d-11ec-8688-043f72acca06,hp013.utah.cloudlab.us,147,200,random,1644880512.5709581,495729.826933142,495811.131767568
7668ba8e-8e5e-11ec-9d9c-043f72acca06,hp013.utah.cloudlab.us,148,200,fixed,1644880512.5709581,496061.487236193,496142.903105608
3c29dae5-8e5f-11ec-886a-043f72acca06,hp013.utah.cloudlab.us,149,200,random,1644880512.5709581,496393.245071889,496474.334481229
01b52a1e-8e60-11ec-a640-043f72acca06,hp013.utah.cloudlab.us,150,200,fixed,1644880512.5709581,496724.682927398,496806.180865707
c7765e11-8e60-11ec-b823-043f72acca06,hp013.utah.cloudlab.us,151,200,random,1644880512.5709581,497056.465028963,497137.706041546
8d1c2900-8e61-11ec-98f6-043f72acca06,hp013.utah.cloudlab.us,152,200,fixed,1644880512.5709581,497388.045931198,497469.273819731
52c558ff-8e62-11ec-9559-043f72acca06,hp013.utah.cloudlab.us,153,200,random,1644880512.5709581,497719.663281225,497800.901873903
18681ded-8e63-11ec-93e7-043f72acca06,hp013.utah.cloudlab.us,154,200,fixed,1644880512.5709581,498051.261828187,498132.446688143
de064bbf-8e63-11ec-9696-043f72acca06,hp013.utah.cloudlab.us,155,200,random,1644880512.5709581,498382.808550465,498464.344600532
a3df90b4-8e64-11ec-a10e-043f72acca06,hp013.utah.cloudlab.us,156,200,fixed,1644880512.5709581,498714.74549034,498796.184893159
69a455aa-8e65-11ec-b73d-043f72acca06,hp013.utah.cloudlab.us,157,200,random,1644880512.5709581,499046.546831073,499128.014472304
2f6c5f58-8e66-11ec-b705-043f72acca06,hp013.utah.cloudlab.us,158,200,fixed,1644880512.5709581,499378.342269123,499459.442780412
f4f92fb3-8e66-11ec-a5ac-043f72acca06,hp013.utah.cloudlab.us,159,200,random,1644880512.5709581,499709.796454187,499790.84838941
ba8153ad-8e67-11ec-8a9a-043f72acca06,hp013.utah.cloudlab.us,160,200,fixed,1644880512.5709581,500041.204746443,500122.472572289
8032ec65-8e68-11ec-96b8-043f72acca06,hp013.utah.cloudlab.us,161,200,random,1644880512.5709581,500372.880363061,500454.201105288
45e5dda3-8e69-11ec-93a5-043f72acca06,hp013.utah.cloudlab.us,162,200,fixed,1644880512.5709581,500704.563279875,500785.968791718
0ba5465f-8e6a-11ec-b558-043f72acca06,hp013.utah.cloudlab.us,163,200,random,1644880512.5709581,501036.32984655,501117.710839238
d160d089-8e6a-11ec-a917-043f72acca06,hp013.utah.cloudlab.us,164,200,fixed,1644880512.5709581,501368.049158384,501449.307932317
97066cd9-8e6b-11ec-a342-043f72acca06,hp013.utah.cloudlab.us,165,200,random,1644880512.5709581,501699.666749968,501781.0064221
5cbbaf28-8e6c-11ec-9043-043f72acca06,hp013.utah.cloudlab.us,166,200,fixed,1644880512.5709581,502031.363589913,502112.589406478
225f7e37-8e6d-11ec-83a9-043f72acca06,hp013.utah.cloudlab.us,167,200,random,1644880512.5709581,502362.942821874,502444.208708976
e808938a-8e6d-11ec-9c15-043f72acca06,hp013.utah.cloudlab.us,168,200,fixed,1644880512.5709581,502694.550138135,502776.109737692
addc47d9-8e6e-11ec-b6b3-043f72acca06,hp013.utah.cloudlab.us,169,200,random,1644880512.5709581,503026.446468239,503108.146052608
73c599d5-8e6f-11ec-9e1b-043f72acca06,hp013.utah.cloudlab.us,170,200,fixed,1644880512.5709581,503358.508576197,503440.007578308
39930793-8e70-11ec-879d-043f72acca06,hp013.utah.cloudlab.us,171,200,random,1644880512.5709581,503690.365277033,503771.800390375
ff56f74a-8e70-11ec-a449-043f72acca06,hp013.utah.cloudlab.us,172,200,fixed,1644880512.5709581,504022.160477271,504103.300970373
c4eda2ac-8e71-11ec-854d-043f72acca06,hp013.utah.cloudlab.us,173,200,random,1644880512.5709581,504353.658173024,504434.950719433
8a9bda3b-8e72-11ec-b62c-043f72acca06,hp013.utah.cloudlab.us,174,200,fixed,1644880512.5709581,504685.310108697,504766.431426179
502e166a-8e73-11ec-b890-043f72acca06,hp013.utah.cloudlab.us,175,200,random,1644880512.5709581,505016.78269837,505098.15766864
15e83609-8e74-11ec-87d8-043f72acca06,hp013.utah.cloudlab.us,176,200,fixed,1644880512.5709581,505348.511911363,505429.91938707
dba7cd93-8e74-11ec-a90b-043f72acca06,hp013.utah.cloudlab.us,177,200,random,1644880512.5709581,505680.26117966,505761.627695967
a15ede36-8e75-11ec-a5f7-043f72acca06,hp013.utah.cloudlab.us,178,200,fixed,1644880512.5709581,506011.989340249,506093.239881224
67061cef-8e76-11ec-9ded-043f72acca06,hp013.utah.cloudlab.us,179,200,random,1644880512.5709581,506343.598907815,506424.983286044
2cc1e3ec-8e77-11ec-9b76-043f72acca06,hp013.utah.cloudlab.us,180,200,fixed,1644880512.5709581,506675.31927797,506756.599552587
f25c43f8-8e77-11ec-bd6f-043f72acca06,hp013.utah.cloudlab.us,181,200,random,1644880512.5709581,507006.86211089,507088.139390346
b808c432-8e78-11ec-8e53-043f72acca06,hp013.utah.cloudlab.us,182,200,fixed,1644880512.5709581,507338.504265208,507419.647780914
7d9f3f55-8e79-11ec-9e5e-043f72acca06,hp013.utah.cloudlab.us,183,200,random,1644880512.5709581,507669.994337239,507751.182436606
433c12ac-8e7a-11ec-a395-043f72acca06,hp013.utah.cloudlab.us,184,200,fixed,1644880512.5709581,508001.539094458,508082.690987365
08d0044c-8e7b-11ec-bcc7-043f72acca06,hp013.utah.cloudlab.us,185,200,random,1644880512.5709581,508333.020756466,508414.167617958
ce684212-8e7b-11ec-a4a9-043f72acca06,hp013.utah.cloudlab.us,186,200,fixed,1644880512.5709581,508664.529469007,508745.819382877
9415d9bd-8e7c-11ec-83e7-043f72acca06,hp013.utah.cloudlab.us,187,200,random,1644880512.5709581,508996.16226328,509077.416443482
59bbd4da-8e7d-11ec-9ab8-043f72acca06,hp013.utah.cloudlab.us,188,200,fixed,1644880512.5709581,509327.776405922,509409.115536872
1f70c0dc-8e7e-11ec-ae0b-043f72acca06,hp013.utah.cloudlab.us,189,200,random,1644880512.5709581,509659.473255033,509740.889315077
e539de44-8e7e-11ec-b50c-043f72acca06,hp013.utah.cloudlab.us,190,200,fixed,1644880512.5709581,509991.303813851,510072.525531645
aadd1086-8e7f-11ec-88e4-043f72acca06,hp013.utah.cloudlab.us,191,200,random,1644880512.5709581,510322.883572333,510404.23558364
709b1d9e-8e80-11ec-99e5-043f72acca06,hp013.utah.cloudlab.us,192,200,fixed,1644880512.5709581,510654.641311274,510736.037931588
36581b5d-8e81-11ec-96f7-043f72acca06,hp013.utah.cloudlab.us,193,200,random,1644880512.5709581,510986.369199077,511067.79293927
fc17741a-8e81-11ec-8f63-043f72acca06,hp013.utah.cloudlab.us,194,200,fixed,1644880512.5709581,511318.156226048,511399.423971413
c1c198c5-8e82-11ec-911c-043f72acca06,hp013.utah.cloudlab.us,195,200,random,1644880512.5709581,511649.762681198,511731.268846854
878c61e7-8e83-11ec-ad54-043f72acca06,hp013.utah.cloudlab.us,196,200,fixed,1644880512.5709581,511981.603263292,512062.770489424
4d2ba14b-8e84-11ec-b207-043f72acca06,hp013.utah.cloudlab.us,197,200,random,1644880512.5709581,512313.175944588,512394.409712291
12d0cc23-8e85-11ec-9da1-043f72acca06,hp013.utah.cloudlab.us,198,200,fixed,1644880512.5709581,512644.770190439,512726.031719823
d88184c6-8e85-11ec-ab61-043f72acca06,hp013.utah.cloudlab.us,199,200,random,1644880512.5709581,512976.439533464,513057.551963517
