run_uuid,timestamp,cache-misses,cache-misses Percentage,cache-references,cache-references Percentage,branch-misses,branch-misses Percentage,mem-loads,mem-loads Percentage,mem-stores,mem-stores Percentage,LLC-load-misses,LLC-load-misses Percentage,LLC-store-misses,LLC-store-misses Percentage,L1-dcache-load-misses,L1-dcache-load-misses Percentage,L1-icache-load-misses,L1-icache-load-misses Percentage,dTLB-load-misses,dTLB-load-misses Percentage,dTLB-store-misses,dTLB-store-misses Percentage,page-faults,page-faults Percentage,alignment-faults,alignment-faults Percentage,context-switches,context-switches Percentage,cpu-migrations,cpu-migrations Percentage,major-faults,major-faults Percentage,minor-faults,minor-faults Percentage,branch-load-misses,branch-load-misses Percentage,iTLB-load-misses,iTLB-load-misses Percentage,node-store-misses,node-store-misses Percentage,node-load-misses,node-load-misses Percentage
200,100,3610950371,26.65,19388022055,26.66,4573408,26.66,0,26.68,40555998698,26.69,643205253,26.69,0,26.69,12630236403,26.68,37424478,26.68,7734359,26.67,86618141,26.66,293180,100.00,0,100.00,1700,100.00,81,100.00,1,100.00,293179,100.00,4546165,26.65,1135532,26.65,0,26.65,0,26.65
200,100,3611438471,26.64,19399583664,26.64,4547017,26.65,0,26.67,40571810067,26.68,645041988,26.70,0,26.70,12622300636,26.70,36167901,26.69,7827282,26.67,86428219,26.66,293181,100.00,0,100.00,955,100.00,16,100.00,4,100.00,293177,100.00,4263649,26.65,1113677,26.65,0,26.65,0,26.65
200,100,3606333430,26.66,19393183272,26.65,4362160,26.65,0,26.65,40523114652,26.66,648234505,26.68,0,26.68,12636058200,26.68,36560603,26.68,7717934,26.68,86716613,26.68,293175,100.00,0,100.00,771,100.00,13,100.00,1,100.00,293174,100.00,4310215,26.67,1109528,26.67,0,26.67,0,26.66
200,100,3610617029,26.65,19393738834,26.65,4605159,26.67,0,26.68,40555820685,26.70,646169223,26.71,0,26.70,12626286182,26.69,36533031,26.67,7818546,26.65,86615569,26.65,293181,100.00,0,100.00,802,100.00,6,100.00,4,100.00,293177,100.00,4176285,26.65,1091760,26.65,0,26.65,0,26.64
200,100,3605114170,26.66,19371520791,26.66,4405447,26.66,0,26.66,40526488123,26.67,647908014,26.67,0,26.67,12642115309,26.67,36164580,26.67,7982101,26.67,86775014,26.67,293178,100.00,0,100.00,730,100.00,10,100.00,1,100.00,293177,100.00,4357145,26.67,1082281,26.67,0,26.67,0,26.66
200,100,3608035773,26.65,19377674854,26.64,4392782,26.64,0,26.65,40529993880,26.66,650433937,26.68,0,26.68,12638500004,26.68,36533467,26.68,7829372,26.68,86819022,26.68,293177,100.00,0,100.00,1642,100.00,15,100.00,4,100.00,293173,100.00,4396815,26.68,1097838,26.67,0,26.67,0,26.66
200,100,3608605368,26.64,19386452315,26.65,4654084,26.66,0,26.68,40570505863,26.69,644172235,26.70,0,26.70,12627023310,26.70,36561863,26.68,7492934,26.67,86537592,26.65,293180,100.00,0,100.00,810,100.00,10,100.00,1,100.00,293179,100.00,4161612,26.64,1079641,26.64,0,26.64,0,26.64
200,100,3610480189,26.65,19389228614,26.64,4401953,26.63,0,26.64,40575087612,26.66,647059242,26.68,0,26.68,12635564890,26.68,36480248,26.68,8025130,26.68,86744082,26.68,293181,100.00,0,100.00,862,100.00,6,100.00,4,100.00,293177,100.00,4176577,26.68,1275456,26.68,0,26.67,0,26.66
200,100,3613166578,26.63,19396038876,26.63,4419481,26.65,0,26.66,40565706973,26.68,650164249,26.69,0,26.68,12631643276,26.69,34058626,26.68,7833382,26.68,86906766,26.69,293179,100.00,0,100.00,757,100.00,14,100.00,1,100.00,293178,100.00,4051550,26.68,1089739,26.67,0,26.65,0,26.64
200,100,3610034044,26.64,19391255343,26.64,4470335,26.65,0,26.67,40637815526,26.68,647154562,26.70,0,26.70,12624543728,26.70,36357492,26.69,8363757,26.68,86647260,26.67,293177,100.00,0,100.00,1038,100.00,33,100.00,4,100.00,293173,100.00,4166490,26.66,1081308,26.65,0,26.64,0,26.64
200,100,3613314279,26.63,19381707748,26.65,4458697,26.66,0,26.68,40566052693,26.69,647399851,26.69,0,26.69,12632070404,26.69,36427259,26.68,7371717,26.68,86778278,26.68,293176,100.00,0,100.00,798,100.00,10,100.00,1,100.00,293175,100.00,4093484,26.67,1120570,26.65,0,26.64,0,26.63
200,100,3602860095,26.66,19378889914,26.66,4257735,26.67,0,26.67,40544689586,26.67,648563122,26.67,0,26.67,12639706035,26.67,36668300,26.67,7819793,26.67,86589757,26.67,293179,100.00,0,100.00,856,100.00,6,100.00,4,100.00,293175,100.00,4419775,26.67,1109528,26.67,0,26.66,0,26.66
200,100,3609624678,26.64,19396435399,26.64,4568794,26.66,0,26.67,40540807353,26.69,646565986,26.69,0,26.69,12628936520,26.69,37220663,26.69,7656985,26.68,86485189,26.67,293180,100.00,0,100.00,969,100.00,21,100.00,1,100.00,293179,100.00,4374596,26.66,1098310,26.65,0,26.64,0,26.64
200,100,3601691112,26.66,19378080534,26.66,4299898,26.67,0,26.67,40497812578,26.68,649074718,26.68,0,26.67,12641389145,26.66,36974734,26.66,7918851,26.67,86750308,26.67,293177,100.00,0,100.00,900,100.00,9,100.00,4,100.00,293173,100.00,4379678,26.67,1251512,26.66,0,26.66,0,26.66
200,100,3612955575,26.63,19397688826,26.64,4475888,26.66,0,26.68,40573512352,26.69,645557623,26.69,0,26.69,12627060713,26.69,37850529,26.69,7858066,26.68,86766656,26.68,293179,100.00,0,100.00,757,100.00,14,100.00,1,100.00,293178,100.00,4089641,26.67,1121153,26.65,0,26.64,0,26.63
200,100,3605065050,26.64,19385544907,26.65,4608184,26.66,0,26.67,40572611762,26.68,645399290,26.70,0,26.70,12623125458,26.69,35355218,26.68,8292234,26.67,86732804,26.66,293177,100.00,0,100.00,1116,100.00,13,100.00,4,100.00,293173,100.00,4235360,26.65,1118060,26.65,0,26.65,0,26.65
200,100,3604264793,26.65,19384057112,26.66,4216713,26.67,0,26.69,40494483600,26.70,646738509,26.69,0,26.68,12637715187,26.66,35838012,26.66,8417430,26.66,86811238,26.66,293178,100.00,0,100.00,734,100.00,11,100.00,1,100.00,293177,100.00,4251382,26.66,1105213,26.66,0,26.66,0,26.66
200,100,3612031015,26.64,19387882734,26.64,4515076,26.65,0,26.66,40534948130,26.68,646892755,26.69,0,26.70,12628902047,26.70,36849577,26.70,7870322,26.69,86653122,26.68,293180,100.00,0,100.00,880,100.00,9,100.00,4,100.00,293176,100.00,4117720,26.66,1097258,26.65,0,26.64,0,26.64
200,100,3614883903,26.63,19376887967,26.65,4462348,26.67,0,26.68,40577494166,26.69,648548015,26.69,0,26.69,12632408429,26.68,36738886,26.68,7566603,26.68,86714064,26.68,293174,100.00,0,100.00,915,100.00,13,100.00,1,100.00,293173,100.00,4055506,26.67,1120340,26.65,0,26.64,0,26.63
200,100,3613446629,26.63,19383306570,26.64,4549476,26.66,0,26.67,40599102502,26.69,646697128,26.70,0,26.69,12627810528,26.69,37571384,26.69,7468596,26.69,86582432,26.67,293177,100.00,0,100.00,871,100.00,9,100.00,4,100.00,293173,100.00,4121048,26.66,1069591,26.65,0,26.64,0,26.63
200,100,3612273842,26.63,19399293899,26.63,4484651,26.64,0,26.66,40583736091,26.68,646378095,26.69,0,26.68,12628306001,26.68,36309342,26.68,7864684,26.68,86828584,26.68,293175,100.00,0,100.00,702,100.00,11,100.00,1,100.00,293174,100.00,4104505,26.68,1109941,26.67,0,26.66,0,26.65
200,100,3608981496,26.64,19405661919,26.63,4542413,26.64,0,26.66,40521863941,26.67,646228078,26.69,0,26.69,12627019717,26.69,36237121,26.69,7867758,26.69,86758624,26.69,293176,100.00,0,100.00,820,100.00,8,100.00,4,100.00,293172,100.00,4252311,26.67,1159391,26.66,0,26.65,0,26.63
200,100,3613469642,26.64,19383865619,26.64,4438890,26.65,0,26.67,40558867767,26.68,648165887,26.68,0,26.68,12637513511,26.68,36605086,26.68,7935061,26.68,86961031,26.67,293174,100.00,0,100.00,797,100.00,11,100.00,1,100.00,293173,100.00,4133654,26.67,1119427,26.67,0,26.66,0,26.65
200,100,3602395544,26.64,19384410026,26.64,4615408,26.65,0,26.66,40581649015,26.67,644487580,26.69,0,26.70,12636845145,26.69,36836717,26.69,8001971,26.69,86534454,26.68,293179,100.00,0,100.00,964,100.00,24,100.00,4,100.00,293175,100.00,4254408,26.66,1118297,26.65,0,26.64,0,26.64
200,100,3614534546,26.63,19394108659,26.63,4460504,26.65,0,26.66,40573176606,26.68,646601073,26.69,0,26.69,12628605260,26.69,37024143,26.69,7516989,26.69,86755002,26.68,293176,100.00,0,100.00,811,100.00,13,100.00,1,100.00,293175,100.00,4130790,26.68,1151722,26.66,0,26.65,0,26.63
200,100,3601958145,26.66,19380980287,26.66,4211385,26.66,0,26.67,40514910214,26.68,646496375,26.68,0,26.68,12643049968,26.67,36676390,26.67,7682198,26.66,86652372,26.66,293177,100.00,0,100.00,789,100.00,6,100.00,4,100.00,293173,100.00,4372675,26.66,1098340,26.66,0,26.66,0,26.66
200,100,3606788289,26.64,19385563774,26.64,4620352,26.66,0,26.68,40586395437,26.70,646704523,26.70,0,26.70,12635055005,26.69,36321659,26.69,7956124,26.67,86645718,26.66,293174,100.00,0,100.00,906,100.00,24,100.00,1,100.00,293173,100.00,4194089,26.65,1069505,26.64,0,26.64,0,26.64
200,100,3611158119,26.63,19396814775,26.63,4406193,26.64,0,26.66,40604975243,26.67,645605488,26.69,0,26.69,12630423277,26.69,36133655,26.69,7941230,26.69,86721180,26.69,293180,100.00,0,100.00,862,100.00,6,100.00,4,100.00,293176,100.00,4084591,26.68,1144623,26.66,0,26.65,0,26.64
200,100,3602935181,26.65,19377000596,26.65,4365310,26.67,0,26.69,40502219326,26.70,646927295,26.70,0,26.68,12636792961,26.67,37312103,26.66,7599361,26.66,86621361,26.66,293175,100.00,0,100.00,775,100.00,14,100.00,1,100.00,293174,100.00,4388778,26.66,1114458,26.66,0,26.66,0,26.65
200,100,3611091124,26.66,19387275341,26.66,4368669,26.67,0,26.67,40533207011,26.67,649045858,26.67,0,26.67,12634690647,26.67,35740695,26.67,7981433,26.67,86868630,26.67,293176,100.00,0,100.00,964,100.00,15,100.00,4,100.00,293172,100.00,4199521,26.67,1097787,26.67,0,26.66,0,26.66
200,100,3614544891,26.63,19388772758,26.64,4517355,26.66,0,26.67,40583999237,26.69,646786621,26.70,0,26.69,12625396648,26.70,37278505,26.69,7629698,26.69,86699723,26.67,293176,100.00,0,100.00,816,100.00,12,100.00,1,100.00,293175,100.00,4187027,26.66,1120334,26.65,0,26.63,0,26.63
200,100,3612563623,26.64,19390582138,26.64,4539241,26.65,0,26.67,40597061078,26.68,648344360,26.70,0,26.70,12623092323,26.70,36874085,26.70,8045928,26.68,86551106,26.67,293179,100.00,0,100.00,792,100.00,7,100.00,4,100.00,293175,100.00,4154342,26.65,1250487,26.64,0,26.64,0,26.64
200,100,3603898082,26.65,19368728247,26.66,4508206,26.68,0,26.69,40517830618,26.71,648660004,26.70,0,26.69,12637033598,26.68,34541231,26.66,8499143,26.65,86911757,26.65,293172,100.00,0,100.00,788,100.00,11,100.00,1,100.00,293171,100.00,4383696,26.65,1135379,26.65,0,26.65,0,26.65
200,100,3604195863,26.66,19382885011,26.65,4274443,26.65,0,26.66,40529701525,26.66,646975543,26.67,0,26.68,12641066436,26.67,37308968,26.67,7725331,26.67,87138062,26.67,293176,100.00,0,100.00,866,100.00,6,100.00,4,100.00,293172,100.00,4365403,26.67,1180049,26.67,0,26.67,0,26.67
200,100,3603942536,26.65,19387369733,26.65,4559630,26.67,0,26.68,40542949820,26.70,646357053,26.70,0,26.69,12629156875,26.68,36664622,26.66,7711492,26.65,86697134,26.65,293175,100.00,0,100.00,794,100.00,10,100.00,1,100.00,293174,100.00,4233610,26.65,1116727,26.65,0,26.65,0,26.65
200,100,3604856937,26.65,19383757509,26.65,4419835,26.66,0,26.67,40561676924,26.69,645820125,26.70,0,26.70,12623778422,26.69,36530239,26.68,8214751,26.66,86679279,26.65,293179,100.00,0,100.00,1019,100.00,13,100.00,4,100.00,293175,100.00,4280241,26.65,1113010,26.65,0,26.65,0,26.65
200,100,3614783168,26.64,19393408356,26.64,4592556,26.66,0,26.68,40575971810,26.69,646796219,26.70,0,26.70,12626026958,26.69,36458889,26.69,8015145,26.68,86782798,26.67,293174,100.00,0,100.00,977,100.00,25,100.00,1,100.00,293173,100.00,4185890,26.65,1121255,26.64,0,26.64,0,26.64
200,100,3602279152,26.66,19380476453,26.65,4317803,26.66,0,26.67,40520821362,26.68,645783122,26.68,0,26.68,12636302728,26.67,36500151,26.66,8400168,26.66,86758151,26.67,293178,100.00,0,100.00,996,100.00,12,100.00,4,100.00,293174,100.00,4354919,26.67,1103900,26.67,0,26.66,0,26.66
200,100,3608643461,26.64,19394111805,26.65,4602022,26.66,0,26.68,40566808874,26.69,645552956,26.70,0,26.70,12628117942,26.70,36857362,26.68,8050758,26.67,86734319,26.66,293175,100.00,0,100.00,803,100.00,19,100.00,1,100.00,293174,100.00,4204676,26.64,1128510,26.64,0,26.64,0,26.64
200,100,3609120044,26.64,19402230251,26.63,4422587,26.63,0,26.65,40594567937,26.67,647593397,26.68,0,26.69,12635317458,26.69,36757309,26.68,8085452,26.68,86630184,26.68,293177,100.00,0,100.00,899,100.00,6,100.00,4,100.00,293173,100.00,4088244,26.68,1117813,26.68,0,26.67,0,26.65
200,100,3601218301,26.65,19364317830,26.67,4369660,26.69,0,26.70,40494803261,26.71,645910665,26.69,0,26.67,12643402365,26.66,36983628,26.65,7609220,26.65,86761994,26.65,293174,100.00,0,100.00,881,100.00,14,100.00,1,100.00,293173,100.00,4343052,26.65,1114704,26.65,0,26.65,0,26.65
200,100,3604675419,26.65,19379723131,26.66,4535013,26.67,0,26.69,40552739157,26.70,646772273,26.70,0,26.69,12632651391,26.68,36575472,26.66,7297046,26.65,86472877,26.65,293175,100.00,0,100.00,866,100.00,8,100.00,4,100.00,293171,100.00,4219535,26.65,1060228,26.65,0,26.65,0,26.65
200,100,3603142881,26.65,19385912146,26.66,4489716,26.67,0,26.68,40515167608,26.70,647192354,26.70,0,26.69,12636837338,26.68,36302612,26.66,8042683,26.65,86801026,26.66,293173,100.00,0,100.00,736,100.00,13,100.00,1,100.00,293172,100.00,4277904,26.65,1099806,26.65,0,26.65,0,26.65
200,100,3610819595,26.64,19375127182,26.65,4732986,26.67,0,26.69,40578713600,26.70,646217156,26.69,0,26.69,12633127388,26.69,36473949,26.69,8072999,26.68,86772708,26.66,293177,100.00,0,100.00,786,100.00,9,100.00,4,100.00,293173,100.00,4258967,26.65,1780840,26.64,0,26.63,0,26.63
200,100,3612607165,26.64,19391114683,26.63,4430840,26.64,0,26.66,40538321783,26.68,649787071,26.69,0,26.68,12634041286,26.68,36112939,26.68,8134854,26.68,86934699,26.68,293175,100.00,0,100.00,795,100.00,17,100.00,1,100.00,293174,100.00,4313075,26.68,1140174,26.67,0,26.66,0,26.65
200,100,3611945677,26.64,19380103823,26.64,4509806,26.65,0,26.67,40571228486,26.68,647361653,26.68,0,26.68,12641732030,26.68,37855821,26.68,7488625,26.68,86700264,26.67,293182,100.00,0,100.00,1065,100.00,20,100.00,4,100.00,293178,100.00,4322092,26.67,1070012,26.67,0,26.66,0,26.65
200,100,3610009832,26.63,19388387808,26.64,4502829,26.66,0,26.67,40567032279,26.68,647242763,26.68,0,26.68,12637998910,26.68,36772671,26.68,7807010,26.67,86842800,26.68,293175,100.00,0,100.00,934,100.00,18,100.00,1,100.00,293174,100.00,4151344,26.67,1104894,26.67,0,26.66,0,26.64
200,100,3614480470,26.63,19401918051,26.64,4650839,26.66,0,26.67,40554208583,26.68,647573981,26.69,0,26.69,12629789893,26.68,36977913,26.68,7847558,26.68,86792207,26.68,293180,100.00,0,100.00,1151,100.00,7,100.00,4,100.00,293176,100.00,4220509,26.67,1110392,26.66,0,26.65,0,26.64
200,100,3609350877,26.64,19382120226,26.64,4519798,26.66,0,26.68,40540904875,26.69,648228464,26.70,0,26.70,12628102361,26.70,35580333,26.69,8044679,26.67,86845423,26.66,293173,100.00,0,100.00,804,100.00,14,100.00,1,100.00,293172,100.00,4158327,26.65,1119409,26.64,0,26.64,0,26.64
200,100,3603000885,26.66,19378017541,26.66,4326082,26.67,0,26.67,40493257641,26.67,647101484,26.67,0,26.67,12641260195,26.66,37681444,26.67,7847168,26.67,86707817,26.67,293178,100.00,0,100.00,1062,100.00,6,100.00,4,100.00,293174,100.00,4399127,26.67,1154153,26.67,0,26.66,0,26.66
200,100,3608138617,26.64,19384580264,26.64,4605919,26.66,0,26.68,40542743021,26.69,647201190,26.70,0,26.70,12628301602,26.70,35482457,26.68,8573988,26.67,86777967,26.65,293177,100.00,0,100.00,769,100.00,11,100.00,1,100.00,293176,100.00,4247894,26.64,1105379,26.65,0,26.64,0,26.64
200,100,3604835479,26.65,19386134783,26.65,4402862,26.66,0,26.67,40544845063,26.69,645470726,26.70,0,26.69,12628347527,26.68,36196444,26.67,8025596,26.66,86620425,26.66,293180,100.00,0,100.00,897,100.00,10,100.00,4,100.00,293176,100.00,4177087,26.66,1087512,26.65,0,26.65,0,26.65
200,100,3600937606,26.65,19371925951,26.67,4480118,26.68,0,26.70,40522039130,26.71,646637961,26.70,0,26.68,12639236218,26.67,37090585,26.66,7367392,26.65,86678212,26.65,293174,100.00,0,100.00,820,100.00,23,100.00,1,100.00,293173,100.00,4239418,26.65,1627892,26.65,0,26.65,0,26.65
200,100,3605739892,26.64,19386328750,26.64,4521855,26.65,0,26.67,40576906406,26.68,644956313,26.70,0,26.70,12625834473,26.70,36719572,26.69,8033122,26.68,86624563,26.67,293179,100.00,0,100.00,962,100.00,8,100.00,4,100.00,293175,100.00,4161303,26.65,1124730,26.64,0,26.64,0,26.64
200,100,3605525783,26.64,19373128262,26.66,4645482,26.68,0,26.69,40571882116,26.70,646033944,26.70,0,26.70,12631529563,26.69,36873448,26.68,7483082,26.67,86590652,26.65,293175,100.00,0,100.00,930,100.00,12,100.00,1,100.00,293174,100.00,4190161,26.64,1101486,26.64,0,26.64,0,26.63
200,100,3606371719,26.65,19392804249,26.65,4478717,26.65,0,26.66,40554079662,26.67,646818182,26.68,0,26.68,12642616014,26.67,36518343,26.67,7553116,26.67,86683492,26.67,293179,100.00,0,100.00,796,100.00,8,100.00,4,100.00,293175,100.00,4122810,26.67,1072035,26.67,0,26.67,0,26.66
200,100,3611606296,26.63,19398220870,26.64,4439091,26.66,0,26.67,40553852824,26.68,647086005,26.68,0,26.68,12634165619,26.68,35898638,26.68,8181126,26.68,86960292,26.68,293174,100.00,0,100.00,824,100.00,13,100.00,1,100.00,293173,100.00,4157276,26.67,1116762,26.66,0,26.65,0,26.63
200,100,3615530746,26.63,19393007967,26.63,4538942,26.65,0,26.67,40597183708,26.68,647197304,26.69,0,26.69,12631373042,26.69,36479378,26.69,8000769,26.69,86756155,26.68,293181,100.00,0,100.00,1052,100.00,11,100.00,4,100.00,293177,100.00,4124303,26.67,1084977,26.66,0,26.64,0,26.63
200,100,3613934365,26.63,19395214635,26.63,4484803,26.65,0,26.66,40554954118,26.68,648994033,26.69,0,26.69,12632191028,26.69,37177994,26.68,7510857,26.68,86824026,26.68,293176,100.00,0,100.00,758,100.00,5,100.00,1,100.00,293175,100.00,4152977,26.68,1111166,26.67,0,26.65,0,26.64
200,100,3614341984,26.63,19398140898,26.63,4463552,26.64,0,26.65,40581883009,26.67,646977937,26.69,0,26.69,12631078453,26.69,37031698,26.69,7825112,26.68,86706321,26.68,293176,100.00,0,100.00,907,100.00,22,100.00,4,100.00,293172,100.00,4094973,26.68,1088336,26.67,0,26.66,0,26.65
200,100,3612456743,26.64,19388427053,26.64,4614627,26.66,0,26.68,40582446649,26.69,645898020,26.70,0,26.70,12627214029,26.69,37146651,26.69,7721370,26.68,86697302,26.66,293180,100.00,0,100.00,1003,100.00,25,100.00,1,100.00,293179,100.00,4179293,26.65,1134763,26.64,0,26.64,0,26.64
200,100,3601798644,26.66,19391349196,26.65,4287887,26.65,0,26.67,40528570941,26.69,645440803,26.69,0,26.69,12635823386,26.68,36521577,26.66,7796096,26.66,86689469,26.66,293176,100.00,0,100.00,1018,100.00,22,100.00,4,100.00,293172,100.00,4349700,26.66,1093618,26.66,0,26.66,0,26.66
200,100,3602342408,26.67,19376061929,26.68,4283578,26.68,0,26.68,40490731097,26.68,647298296,26.67,0,26.66,12647305893,26.66,36631470,26.66,7861495,26.66,86862501,26.66,293177,100.00,0,100.00,853,100.00,13,100.00,1,100.00,293176,100.00,4229886,26.66,1122696,26.66,0,26.66,0,26.66
200,100,3604986585,26.65,19385625549,26.64,4454569,26.65,0,26.67,40524313705,26.67,645400926,26.68,0,26.68,12636752453,26.67,37129817,26.67,7869029,26.67,86589724,26.67,293177,100.00,0,100.00,1440,100.00,38,100.00,4,100.00,293173,100.00,4493242,26.67,1111306,26.67,0,26.66,0,26.65
200,100,3610139917,26.64,19389602256,26.65,4475831,26.65,0,26.66,40526945578,26.67,646218418,26.68,0,26.68,12641555313,26.68,37298611,26.68,7714115,26.68,86853584,26.68,293174,100.00,0,100.00,877,100.00,14,100.00,1,100.00,293173,100.00,4137042,26.67,1135558,26.67,0,26.66,0,26.65
200,100,3602311535,26.66,19382960712,26.66,4283265,26.67,0,26.67,40517438400,26.67,647790579,26.67,0,26.67,12641272334,26.67,36410069,26.67,8383653,26.67,86789458,26.67,293181,100.00,0,100.00,929,100.00,14,100.00,4,100.00,293177,100.00,4428628,26.66,1084401,26.66,0,26.66,0,26.66
200,100,3609254113,26.66,19385334542,26.66,4288899,26.66,0,26.67,40544110019,26.67,647869199,26.67,0,26.67,12642421602,26.67,35468898,26.67,8009027,26.67,87039872,26.67,293175,100.00,0,100.00,804,100.00,10,100.00,1,100.00,293174,100.00,4123133,26.67,1123010,26.67,0,26.67,0,26.66
200,100,3602145855,26.66,19387357706,26.66,4242834,26.66,0,26.66,40548256972,26.67,646302237,26.67,0,26.67,12637696732,26.67,35907989,26.67,8394093,26.67,86679602,26.67,293179,100.00,0,100.00,931,100.00,8,100.00,4,100.00,293175,100.00,4349601,26.67,1578732,26.67,0,26.67,0,26.66
200,100,3605202571,26.65,19363286222,26.67,4323522,26.69,0,26.70,40496695399,26.70,647967540,26.69,0,26.67,12643732331,26.66,36488156,26.65,8188310,26.65,86925389,26.65,293175,100.00,0,100.00,854,100.00,10,100.00,1,100.00,293174,100.00,4279552,26.65,1116941,26.65,0,26.65,0,26.65
200,100,3612563524,26.63,19392399882,26.64,4647069,26.66,0,26.67,40567637326,26.69,646530651,26.69,0,26.69,12628160937,26.69,36827120,26.69,7738957,26.69,86596999,26.68,293179,100.00,0,100.00,915,100.00,6,100.00,4,100.00,293175,100.00,4197554,26.67,1078668,26.65,0,26.64,0,26.63
200,100,3608882181,26.64,19387072897,26.66,4599335,26.68,0,26.69,40566199815,26.70,647526821,26.70,0,26.70,12630987683,26.69,36736723,26.68,7706127,26.66,86722778,26.65,293174,100.00,0,100.00,742,100.00,12,100.00,1,100.00,293173,100.00,4145435,26.64,1077893,26.64,0,26.64,0,26.64
200,100,3612333562,26.63,19394720234,26.62,4397850,26.64,0,26.65,40583382014,26.67,648907408,26.69,0,26.69,12639186762,26.69,35780360,26.69,8416450,26.69,86929349,26.68,293178,100.00,0,100.00,923,100.00,5,100.00,4,100.00,293174,100.00,4117186,26.68,1100161,26.67,0,26.66,0,26.64
200,100,3611927810,26.64,19392263985,26.63,4372184,26.64,0,26.66,40555790788,26.67,647871668,26.69,0,26.69,12638421086,26.68,36429078,26.68,7309970,26.68,86724502,26.68,293175,100.00,0,100.00,886,100.00,12,100.00,1,100.00,293174,100.00,4082687,26.68,1144795,26.67,0,26.67,0,26.65
200,100,3614203177,26.63,19384291432,26.63,4431580,26.64,0,26.66,40575288016,26.68,649028258,26.69,0,26.68,12633384604,26.68,35250076,26.68,8129717,26.68,86904998,26.68,293181,100.00,0,100.00,866,100.00,12,100.00,4,100.00,293177,100.00,4160573,26.68,1132650,26.67,0,26.66,0,26.65
200,100,3602186847,26.66,19374804078,26.67,4351027,26.69,0,26.70,40517688856,26.69,648287185,26.68,0,26.66,12647818023,26.66,36984778,26.66,8617752,26.66,86865705,26.66,293173,100.00,0,100.00,934,100.00,12,100.00,1,100.00,293172,100.00,4283879,26.66,1156051,26.65,0,26.65,0,26.65
200,100,3614758231,26.66,19380881026,26.67,4527402,26.67,0,26.67,40577644863,26.67,648394879,26.67,0,26.67,12637502130,26.67,36447800,26.67,7953602,26.67,86707946,26.66,293178,100.00,0,100.00,1273,100.00,20,100.00,4,100.00,293174,100.00,4359796,26.66,1098557,26.67,0,26.66,0,26.66
200,100,3611016912,26.66,19376846078,26.66,4469997,26.66,0,26.67,40536858332,26.67,648169041,26.67,0,26.67,12640742808,26.67,37350715,26.67,7657789,26.67,86698355,26.67,293178,100.00,0,100.00,849,100.00,10,100.00,1,100.00,293177,100.00,4316854,26.67,1065805,26.67,0,26.66,0,26.66
200,100,3610780912,26.64,19384975955,26.65,4715261,26.66,0,26.68,40589199415,26.70,645977164,26.70,0,26.70,12628435595,26.69,37057785,26.69,7394700,26.67,86578397,26.66,293184,100.00,0,100.00,1161,100.00,3,100.00,4,100.00,293180,100.00,4240278,26.65,1066286,26.64,0,26.64,0,26.64
200,100,3601898555,26.65,19379520562,26.65,4395009,26.67,0,26.68,40522640700,26.70,643933189,26.70,0,26.69,12639808836,26.68,37171536,26.67,7683666,26.66,86530353,26.65,293175,100.00,0,100.00,933,100.00,18,100.00,1,100.00,293174,100.00,4489372,26.65,1156799,26.65,0,26.65,0,26.65
200,100,3603692782,26.66,19384633827,26.66,4224000,26.66,0,26.67,40512505223,26.67,647984153,26.67,0,26.67,12639048123,26.66,36269895,26.67,7965557,26.67,86741107,26.67,293178,100.00,0,100.00,938,100.00,8,100.00,4,100.00,293174,100.00,4362411,26.67,1118542,26.67,0,26.67,0,26.66
200,100,3612755585,26.64,19384674808,26.65,4532418,26.65,0,26.67,40577737646,26.68,647064984,26.68,0,26.67,12643201731,26.68,37080023,26.68,7460044,26.67,86725831,26.67,293175,100.00,0,100.00,793,100.00,20,100.00,1,100.00,293174,100.00,4166468,26.67,1124754,26.67,0,26.67,0,26.65
200,100,3612998396,26.65,19392362872,26.63,4346188,26.63,0,26.65,40557274667,26.66,647378306,26.68,0,26.68,12633216855,26.68,36240069,26.68,8036698,26.68,86899441,26.68,293181,100.00,0,100.00,903,100.00,7,100.00,4,100.00,293177,100.00,4069045,26.68,1109741,26.68,0,26.68,0,26.66
200,100,3600747722,26.66,19385060654,26.66,4338597,26.67,0,26.69,40478385453,26.69,645385678,26.69,0,26.67,12643005365,26.66,36138271,26.66,8142922,26.66,86881630,26.66,293173,100.00,0,100.00,918,100.00,7,100.00,1,100.00,293172,100.00,4353631,26.66,1203136,26.66,0,26.66,0,26.66
200,100,3612936106,26.63,19390584704,26.63,4465079,26.64,0,26.66,40579801552,26.67,647401927,26.69,0,26.69,12630604754,26.69,36503739,26.69,8340227,26.69,86807101,26.68,293177,100.00,0,100.00,883,100.00,8,100.00,4,100.00,293173,100.00,4139213,26.68,1232119,26.67,0,26.65,0,26.64
200,100,3615820447,26.63,19400223687,26.63,4499410,26.65,0,26.67,40568936041,26.68,648084915,26.69,0,26.69,12624454527,26.69,36670615,26.69,8078709,26.69,86869146,26.68,293177,100.00,0,100.00,827,100.00,11,100.00,1,100.00,293176,100.00,4195878,26.67,1143248,26.66,0,26.64,0,26.63
200,100,3606443194,26.66,19375388522,26.66,4248382,26.67,0,26.68,40524567731,26.68,651307642,26.68,0,26.67,12632343557,26.66,33712363,26.67,7853562,26.67,86735481,26.66,293177,100.00,0,100.00,949,100.00,13,100.00,4,100.00,293173,100.00,4309352,26.67,1186143,26.66,0,26.66,0,26.66
200,100,3605429339,26.66,19369797509,26.68,4214346,26.69,0,26.70,40477700661,26.69,648787083,26.68,0,26.66,12648034821,26.66,37037908,26.66,7697205,26.66,86716328,26.66,293180,100.00,0,100.00,774,100.00,24,100.00,1,100.00,293179,100.00,4333694,26.66,1104924,26.65,0,26.65,0,26.65
200,100,3609994159,26.66,19383070857,26.64,4334559,26.64,0,26.64,40560818756,26.66,649451090,26.68,0,26.68,12636736641,26.68,35979554,26.68,8540610,26.68,86777887,26.68,293179,100.00,0,100.00,927,100.00,8,100.00,4,100.00,293175,100.00,4227810,26.67,1112238,26.67,0,26.67,0,26.67
200,100,3603104932,26.65,19379239750,26.65,4456596,26.67,0,26.68,40535629692,26.70,646649180,26.70,0,26.69,12638863872,26.68,37319461,26.66,7973297,26.65,86693850,26.65,293175,100.00,0,100.00,962,100.00,11,100.00,1,100.00,293174,100.00,4393680,26.65,1107301,26.65,0,26.65,0,26.65
200,100,3607245083,26.65,19376494312,26.65,4416920,26.66,0,26.67,40545801920,26.69,647799531,26.70,0,26.69,12629990825,26.69,35482280,26.67,8450921,26.66,86687714,26.66,293179,100.00,0,100.00,976,100.00,8,100.00,4,100.00,293175,100.00,4287775,26.65,1087596,26.65,0,26.65,0,26.65
200,100,3607684644,26.65,19379492003,26.65,4374943,26.65,0,26.66,40514933197,26.67,649469567,26.68,0,26.67,12646365891,26.68,36461829,26.67,8048398,26.67,87049225,26.67,293180,100.00,0,100.00,810,100.00,14,100.00,1,100.00,293179,100.00,4301752,26.67,1166029,26.67,0,26.67,0,26.66
200,100,3608444116,26.65,19395526282,26.65,4558713,26.66,0,26.67,40580240813,26.69,646780783,26.70,0,26.70,12624860110,26.69,36786025,26.68,8629794,26.66,86793936,26.66,293178,100.00,0,100.00,1027,100.00,13,100.00,4,100.00,293174,100.00,4156956,26.65,1128077,26.65,0,26.65,0,26.65
200,100,3614956968,26.63,19402322959,26.64,4624685,26.65,0,26.67,40576539242,26.69,647166671,26.70,0,26.70,12625962542,26.69,37194595,26.69,7314629,26.69,86716552,26.68,293176,100.00,0,100.00,1133,100.00,21,100.00,1,100.00,293175,100.00,4289704,26.66,1099500,26.65,0,26.64,0,26.63
200,100,3612134565,26.64,19387380549,26.63,4447026,26.64,0,26.66,40532324984,26.67,646806460,26.68,0,26.68,12637525690,26.68,36448291,26.68,7650634,26.68,86744709,26.68,293181,100.00,0,100.00,1016,100.00,8,100.00,4,100.00,293177,100.00,4296885,26.68,1075728,26.67,0,26.67,0,26.65
200,100,3613198024,26.64,19386422274,26.64,4523407,26.65,0,26.67,40544558092,26.68,648578716,26.68,0,26.68,12637327490,26.68,36703871,26.68,7852500,26.67,86882195,26.67,293173,100.00,0,100.00,989,100.00,13,100.00,1,100.00,293172,100.00,4244112,26.67,1107659,26.67,0,26.66,0,26.65
200,100,3602757451,26.65,19388342960,26.65,4403418,26.66,0,26.67,40546756246,26.69,646882442,26.70,0,26.69,12633110139,26.68,36880022,26.67,8269031,26.66,86672532,26.66,293178,100.00,0,100.00,981,100.00,7,100.00,4,100.00,293174,100.00,4325296,26.66,1100730,26.66,0,26.66,0,26.65
200,100,3606072595,26.64,19398604029,26.65,4624040,26.66,0,26.67,40576158212,26.69,644536429,26.70,0,26.70,12628024237,26.70,37423732,26.69,7843098,26.68,86709381,26.66,293173,100.00,0,100.00,871,100.00,11,100.00,1,100.00,293172,100.00,4236362,26.65,1124265,26.64,0,26.64,0,26.64
200,100,3609867986,26.66,19381837161,26.64,4385501,26.64,0,26.64,40537585286,26.66,647891850,26.67,0,26.68,12636642195,26.68,36413789,26.68,7816711,26.68,86695992,26.68,293176,100.00,0,100.00,968,100.00,6,100.00,4,100.00,293172,100.00,4307046,26.68,1093866,26.68,0,26.67,0,26.67
200,100,3610466966,26.64,19388385520,26.63,4655668,26.64,0,26.65,40532759363,26.67,650781454,26.68,0,26.68,12630139112,26.68,34019312,26.68,8386792,26.68,87039729,26.68,293177,100.00,0,100.00,868,100.00,10,100.00,1,100.00,293176,100.00,4266120,26.68,1093029,26.68,0,26.67,0,26.65
200,100,3611962107,26.64,19390635876,26.64,4594523,26.66,0,26.67,40558030145,26.69,647485817,26.70,0,26.70,12629552857,26.69,37050782,26.70,7237490,26.69,86594893,26.67,293180,100.00,0,100.00,913,100.00,7,100.00,4,100.00,293176,100.00,4157344,26.66,1103844,26.64,0,26.63,0,26.64
200,100,3611526226,26.63,19384492269,26.65,4496555,26.67,0,26.68,40586862741,26.69,648838060,26.69,0,26.69,12633562614,26.69,35866667,26.68,8369970,26.68,86934548,26.67,293176,100.00,0,100.00,965,100.00,21,100.00,1,100.00,293175,100.00,4113250,26.66,1163265,26.65,0,26.63,0,26.63
200,100,3597687176,26.66,19383939115,26.66,4344759,26.67,0,26.67,40500431744,26.66,647164909,26.67,0,26.67,12643769988,26.66,35687904,26.67,8270627,26.67,86822244,26.67,293181,100.00,0,100.00,862,100.00,7,100.00,4,100.00,293177,100.00,4287604,26.67,1125952,26.67,0,26.67,0,26.67
200,100,3602711779,26.66,19372711102,26.68,4435187,26.68,0,26.68,40472422216,26.68,646794309,26.67,0,26.67,12649325767,26.66,36947192,26.66,7739079,26.66,86810781,26.66,293174,100.00,0,100.00,908,100.00,20,100.00,1,100.00,293173,100.00,4465563,26.66,1103827,26.66,0,26.66,0,26.66
200,100,3607519935,26.66,19376140192,26.66,4517416,26.66,0,26.66,40556515547,26.67,648407032,26.67,0,26.67,12643150319,26.67,36853014,26.67,7894503,26.67,86792180,26.67,293181,100.00,0,100.00,975,100.00,7,100.00,4,100.00,293177,100.00,4188617,26.67,1082544,26.67,0,26.67,0,26.66
200,100,3605441886,26.65,19385378849,26.67,4497426,26.68,0,26.69,40501403395,26.71,646806750,26.70,0,26.69,12638660643,26.67,36678918,26.66,7533222,26.65,86746588,26.65,293176,100.00,0,100.00,878,100.00,13,100.00,1,100.00,293175,100.00,4225326,26.65,1116191,26.65,0,26.65,0,26.65
200,100,3605296427,26.66,19374165642,26.65,4295460,26.66,0,26.67,40492276934,26.67,647999343,26.68,0,26.68,12640647624,26.67,36796671,26.67,8198731,26.67,86594893,26.67,293178,100.00,0,100.00,931,100.00,11,100.00,4,100.00,293174,100.00,4299233,26.67,1122686,26.66,0,26.66,0,26.66
200,100,3609046139,26.65,19373398843,26.66,4434645,26.66,0,26.66,40553617193,26.67,649308397,26.67,0,26.67,12642628767,26.67,35946653,26.67,7553735,26.67,86788753,26.67,293174,100.00,0,100.00,811,100.00,13,100.00,1,100.00,293173,100.00,4143359,26.67,1113210,26.67,0,26.67,0,26.66
200,100,3610939480,26.65,19396220957,26.63,4404503,26.63,0,26.64,40559532754,26.66,645478249,26.68,0,26.68,12629410558,26.68,37190773,26.68,7325963,26.68,86629434,26.68,293178,100.00,0,100.00,953,100.00,14,100.00,4,100.00,293174,100.00,4249233,26.68,1094093,26.68,0,26.67,0,26.66
200,100,3609087082,26.64,19401600166,26.65,4688858,26.67,0,26.68,40588398972,26.69,646278628,26.70,0,26.70,12626688875,26.69,35550734,26.68,8162047,26.67,86751572,26.66,293177,100.00,0,100.00,1073,100.00,24,100.00,1,100.00,293176,100.00,4227928,26.65,1105309,26.64,0,26.64,0,26.64
200,100,3608174420,26.65,19374509702,26.66,4572972,26.67,0,26.68,40537906441,26.70,645569812,26.70,0,26.70,12634363596,26.68,36331209,26.67,7622809,26.66,86538490,26.65,293177,100.00,0,100.00,949,100.00,17,100.00,4,100.00,293173,100.00,4286115,26.65,1076029,26.65,0,26.65,0,26.65
200,100,3605041496,26.66,19372296883,26.67,4374026,26.67,0,26.67,40501989728,26.67,647876793,26.67,0,26.67,12644432510,26.67,37427986,26.67,7864765,26.66,86875889,26.67,293173,100.00,0,100.00,817,100.00,14,100.00,1,100.00,293172,100.00,4353475,26.66,1116625,26.66,0,26.66,0,26.66
200,100,3614014079,26.63,19395949025,26.63,4519050,26.64,0,26.66,40581589084,26.68,646472348,26.69,0,26.69,12636637829,26.69,37481750,26.68,7421531,26.68,86667170,26.68,293179,100.00,0,100.00,832,100.00,5,100.00,4,100.00,293175,100.00,4117179,26.68,1065247,26.67,0,26.65,0,26.64
200,100,3603085934,26.66,19387812968,26.66,4381283,26.66,0,26.66,40488014497,26.67,646359821,26.67,0,26.67,12642031246,26.67,37736049,26.67,7609681,26.67,86722466,26.67,293174,100.00,0,100.00,787,100.00,8,100.00,1,100.00,293173,100.00,4408472,26.67,1095219,26.67,0,26.67,0,26.67
200,100,3614176453,26.63,19389266351,26.63,4510520,26.65,0,26.66,40578203077,26.68,649195550,26.68,0,26.68,12632607901,26.68,36185696,26.68,8241847,26.68,86918696,26.68,293178,100.00,0,100.00,1072,100.00,7,100.00,4,100.00,293174,100.00,4202713,26.68,1098554,26.68,0,26.66,0,26.65
200,100,3608158383,26.66,19392669817,26.65,4452728,26.65,0,26.66,40496660857,26.66,648482823,26.67,0,26.68,12639237817,26.68,37423136,26.67,7826848,26.67,86887568,26.67,293173,100.00,0,100.00,938,100.00,13,100.00,1,100.00,293172,100.00,4376089,26.67,1575693,26.67,0,26.67,0,26.67
200,100,3601381201,26.67,19384070174,26.66,4303171,26.65,0,26.65,40521029174,26.66,647781199,26.67,0,26.67,12641975510,26.67,36920783,26.67,8099417,26.67,86716164,26.67,293177,100.00,0,100.00,893,100.00,9,100.00,4,100.00,293173,100.00,4323476,26.67,1093828,26.67,0,26.67,0,26.67
200,100,3606892439,26.66,19376456099,26.66,4363804,26.66,0,26.67,40522667102,26.67,647844522,26.67,0,26.67,12644913749,26.67,36489350,26.67,7984498,26.67,86879271,26.67,293176,100.00,0,100.00,737,100.00,10,100.00,1,100.00,293175,100.00,4268820,26.67,1142621,26.67,0,26.66,0,26.66
200,100,3614062859,26.63,19388319744,26.63,4569704,26.65,0,26.66,40601367328,26.68,648179302,26.69,0,26.70,12621022825,26.69,36899634,26.69,7620564,26.69,86649884,26.68,293177,100.00,0,100.00,1002,100.00,21,100.00,4,100.00,293173,100.00,4204685,26.67,1091369,26.66,0,26.64,0,26.64
200,100,3613639537,26.64,19393019139,26.63,4499630,26.64,0,26.66,40556470473,26.68,648038716,26.69,0,26.69,12630799153,26.69,36237967,26.69,7569883,26.68,86724715,26.68,293177,100.00,0,100.00,1030,100.00,14,100.00,1,100.00,293176,100.00,4227329,26.67,1095816,26.67,0,26.66,0,26.65
200,100,3600382636,26.66,19382982622,26.66,4253461,26.66,0,26.68,40531126556,26.68,645172215,26.69,0,26.68,12641161425,26.67,36682301,26.67,8351273,26.66,86705111,26.66,293178,100.00,0,100.00,1067,100.00,9,100.00,4,100.00,293174,100.00,4326525,26.66,1129136,26.66,0,26.66,0,26.66
200,100,3601549810,26.66,19367011223,26.67,4497017,26.68,0,26.70,40501952551,26.70,646656230,26.68,0,26.67,12644882456,26.66,36726196,26.65,8076755,26.66,86795501,26.66,293180,100.00,0,100.00,1001,100.00,23,100.00,1,100.00,293179,100.00,4417418,26.65,1089630,26.65,0,26.65,0,26.65
200,100,3601878386,26.66,19379222116,26.66,4269017,26.66,0,26.68,40547740983,26.68,647565855,26.68,0,26.68,12640754839,26.67,35821968,26.66,7701115,26.66,86534920,26.67,293178,100.00,0,100.00,797,100.00,6,100.00,4,100.00,293174,100.00,4409076,26.66,1063045,26.66,0,26.66,0,26.66
200,100,3611984639,26.63,19397013087,26.64,4589040,26.65,0,26.67,40561418601,26.68,646479458,26.69,0,26.69,12629515671,26.69,36705504,26.69,7546171,26.69,86612655,26.68,293180,100.00,0,100.00,803,100.00,13,100.00,1,100.00,293179,100.00,4205890,26.66,1090860,26.65,0,26.64,0,26.63
200,100,3602683531,26.65,19373950981,26.65,4417166,26.66,0,26.67,40554764141,26.69,645523987,26.70,0,26.70,12631841120,26.69,36513942,26.67,7902679,26.66,86677123,26.66,293177,100.00,0,100.00,1051,100.00,6,100.00,4,100.00,293173,100.00,4190441,26.65,1120305,26.65,0,26.65,0,26.65
200,100,3606920288,26.65,19377542577,26.66,4442653,26.68,0,26.69,40510464535,26.70,648604235,26.70,0,26.70,12636642229,26.68,36415323,26.67,8141851,26.65,86825438,26.64,293174,100.00,0,100.00,949,100.00,19,100.00,1,100.00,293173,100.00,4182766,26.64,1115889,26.64,0,26.64,0,26.64
200,100,3613592246,26.64,19394931826,26.64,4567480,26.65,0,26.67,40595622291,26.68,647713330,26.70,0,26.70,12628011706,26.70,36916927,26.69,8202065,26.68,86648964,26.67,293177,100.00,0,100.00,1475,100.00,5,100.00,4,100.00,293173,100.00,4212207,26.66,1117912,26.64,0,26.64,0,26.64
200,100,3606365946,26.65,19372950787,26.67,4480652,26.68,0,26.70,40510053320,26.71,647385777,26.70,0,26.69,12637283069,26.67,36935865,26.66,8250402,26.65,86750576,26.65,293175,100.00,0,100.00,895,100.00,13,100.00,1,100.00,293174,100.00,4286502,26.65,1092415,26.65,0,26.64,0,26.65
200,100,3612536256,26.63,19396350149,26.63,4441984,26.64,0,26.66,40595021279,26.68,646699747,26.69,0,26.70,12628111926,26.70,37245488,26.69,8169605,26.69,86630250,26.68,293176,100.00,0,100.00,826,100.00,12,100.00,4,100.00,293172,100.00,4128914,26.68,1080903,26.66,0,26.65,0,26.64
200,100,3610863042,26.63,19387860382,26.65,4400820,26.67,0,26.68,40595024154,26.69,647631327,26.69,0,26.69,12636720529,26.68,36207489,26.68,7916623,26.68,86762751,26.68,293174,100.00,0,100.00,825,100.00,19,100.00,1,100.00,293173,100.00,4176473,26.66,1156884,26.65,0,26.63,0,26.63
200,100,3612894891,26.64,19388570681,26.64,4617450,26.65,0,26.66,40573504254,26.68,648177749,26.69,0,26.70,12626374536,26.69,35458084,26.69,8315554,26.68,86769445,26.68,293177,100.00,0,100.00,1080,100.00,23,100.00,4,100.00,293173,100.00,4243572,26.67,1111837,26.65,0,26.64,0,26.64
200,100,3610166800,26.64,19374896924,26.66,4558318,26.68,0,26.69,40578171272,26.70,648125943,26.70,0,26.70,12634321034,26.69,36976646,26.68,8071663,26.67,86790957,26.65,293178,100.00,0,100.00,884,100.00,23,100.00,1,100.00,293177,100.00,4232081,26.64,1114553,26.64,0,26.63,0,26.63
200,100,3597018151,26.66,19379784072,26.66,4238838,26.67,0,26.67,40521187421,26.67,647397377,26.68,0,26.67,12646641616,26.67,36052470,26.67,8579552,26.67,86705131,26.67,293179,100.00,0,100.00,923,100.00,5,100.00,4,100.00,293175,100.00,4304280,26.67,1086907,26.67,0,26.66,0,26.66
200,100,3603758947,26.64,19375021420,26.66,4530694,26.68,0,26.69,40552900342,26.70,648311358,26.70,0,26.70,12637580229,26.68,36540435,26.67,8232315,26.65,86778308,26.64,293175,100.00,0,100.00,830,100.00,11,100.00,1,100.00,293174,100.00,4213598,26.64,1121092,26.64,0,26.64,0,26.64
200,100,3605816423,26.66,19383047368,26.65,4340965,26.65,0,26.65,40548445111,26.65,647818012,26.67,0,26.67,12637505215,26.67,36307262,26.68,8064056,26.68,86771515,26.68,293177,100.00,0,100.00,930,100.00,9,100.00,4,100.00,293173,100.00,4268922,26.67,1109105,26.67,0,26.67,0,26.67
200,100,3612687044,26.63,19384707560,26.64,4422538,26.66,0,26.68,40579460964,26.69,649301513,26.69,0,26.68,12634140459,26.68,36491139,26.68,8313667,26.68,86955514,26.67,293173,100.00,0,100.00,839,100.00,24,100.00,1,100.00,293172,100.00,4134695,26.67,1162366,26.66,0,26.65,0,26.64
200,100,3609407348,26.66,19386920194,26.66,4461079,26.65,0,26.66,40540581094,26.66,645906878,26.67,0,26.68,12644097416,26.68,36979724,26.68,7860789,26.67,86700027,26.67,293180,100.00,0,100.00,1206,100.00,29,100.00,4,100.00,293176,100.00,4332918,26.67,1089664,26.66,0,26.67,0,26.67
200,100,3604642174,26.66,19369857913,26.67,4386118,26.69,0,26.70,40475271949,26.69,648858392,26.68,0,26.66,12645967390,26.66,36668228,26.66,8173185,26.66,86786886,26.66,293178,100.00,0,100.00,923,100.00,14,100.00,1,100.00,293177,100.00,4478214,26.66,1112886,26.66,0,26.66,0,26.65
200,100,3606373551,26.65,19392322423,26.66,4659223,26.67,0,26.69,40567687327,26.70,644623891,26.70,0,26.69,12632003532,26.67,36723941,26.66,8210390,26.65,86466973,26.65,293176,100.00,0,100.00,1019,100.00,17,100.00,4,100.00,293172,100.00,4298031,26.65,1074731,26.65,0,26.65,0,26.65
200,100,3609920559,26.63,19380783655,26.65,4522341,26.67,0,26.69,40606518880,26.70,647182748,26.69,0,26.69,12635453784,26.69,36275250,26.68,8121431,26.68,86819013,26.67,293178,100.00,0,100.00,741,100.00,12,100.00,1,100.00,293177,100.00,4159140,26.66,1108134,26.64,0,26.63,0,26.63
200,100,3601101077,26.66,19363064922,26.67,4454192,26.69,0,26.70,40531441020,26.70,645455575,26.70,0,26.68,12646816325,26.67,36945137,26.65,7972082,26.65,86751210,26.65,293179,100.00,0,100.00,973,100.00,19,100.00,4,100.00,293175,100.00,4297325,26.65,1091095,26.65,0,26.64,0,26.65
200,100,3603612328,26.66,19377240367,26.66,4424638,26.67,0,26.66,40498079430,26.67,646716912,26.67,0,26.67,12642179110,26.67,36892390,26.67,7870361,26.67,86621961,26.67,293173,100.00,0,100.00,834,100.00,14,100.00,1,100.00,293172,100.00,4527688,26.67,1085868,26.67,0,26.67,0,26.66
200,100,3602841751,26.66,19380196335,26.66,4267206,26.67,0,26.67,40524398267,26.68,648570719,26.68,0,26.67,12639319387,26.67,35744455,26.67,8327007,26.66,86715866,26.66,293179,100.00,0,100.00,955,100.00,9,100.00,4,100.00,293175,100.00,4341956,26.66,1111203,26.66,0,26.66,0,26.66
200,100,3612593082,26.64,19370798865,26.66,4636613,26.67,0,26.68,40546537647,26.69,650046463,26.69,0,26.69,12632980627,26.69,35986247,26.68,8330669,26.68,86826348,26.67,293174,100.00,0,100.00,1004,100.00,18,100.00,1,100.00,293173,100.00,4260042,26.66,1113358,26.64,0,26.63,0,26.63
200,100,3614277307,26.63,19388984684,26.63,4606875,26.65,0,26.66,40562291623,26.68,648258359,26.69,0,26.69,12631172280,26.69,36063623,26.69,7845013,26.69,86816723,26.68,293177,100.00,0,100.00,882,100.00,16,100.00,4,100.00,293173,100.00,4164080,26.68,1107810,26.66,0,26.65,0,26.64
200,100,3615369710,26.63,19385507492,26.64,4517029,26.66,0,26.68,40581158745,26.69,648608865,26.69,0,26.69,12632321419,26.69,36665575,26.68,8101170,26.68,86773409,26.68,293182,100.00,0,100.00,808,100.00,17,100.00,1,100.00,293181,100.00,4142258,26.67,1740231,26.65,0,26.64,0,26.63
200,100,3604513124,26.64,19382179827,26.64,4306362,26.65,0,26.67,40542474930,26.68,646578416,26.70,0,26.70,12632149766,26.70,36684490,26.69,8178983,26.67,86555433,26.66,293177,100.00,0,100.00,912,100.00,9,100.00,4,100.00,293173,100.00,4315733,26.65,1082120,26.65,0,26.65,0,26.65
200,100,3607238513,26.64,19393451017,26.65,4655954,26.66,0,26.68,40589750458,26.69,643821829,26.70,0,26.70,12626604794,26.69,36464351,26.68,7618058,26.67,86446287,26.65,293175,100.00,0,100.00,912,100.00,29,100.00,1,100.00,293174,100.00,4264078,26.64,1080884,26.64,0,26.64,0,26.64
200,100,3614824965,26.63,19395138754,26.63,4524854,26.64,0,26.66,40539370471,26.67,648351305,26.69,0,26.69,12624104283,26.69,36565574,26.70,7866474,26.70,86683146,26.69,293179,100.00,0,100.00,876,100.00,4,100.00,4,100.00,293175,100.00,4149876,26.68,1077521,26.66,0,26.65,0,26.63
200,100,3611127822,26.63,19393736903,26.65,4586611,26.66,0,26.68,40599912873,26.69,646690493,26.69,0,26.69,12630133123,26.68,36455571,26.68,8102962,26.68,86800230,26.68,293177,100.00,0,100.00,862,100.00,15,100.00,1,100.00,293176,100.00,4158344,26.67,1093519,26.65,0,26.64,0,26.63
200,100,3612981197,26.63,19393912920,26.63,4422132,26.64,0,26.65,40601635450,26.67,648368732,26.68,0,26.69,12630391400,26.69,36406351,26.69,7545557,26.69,86649802,26.69,293186,100.00,0,100.00,870,100.00,8,100.00,4,100.00,293182,100.00,4084429,26.69,1333690,26.68,0,26.66,0,26.65
200,100,3604889030,26.65,19383146514,26.65,4385692,26.67,0,26.68,40501613013,26.70,644482195,26.71,0,26.69,12637667330,26.68,36760495,26.67,7757957,26.66,86748515,26.65,293176,100.00,0,100.00,753,100.00,14,100.00,1,100.00,293175,100.00,4279085,26.65,1142774,26.65,0,26.65,0,26.65
200,100,3602465462,26.65,19380259573,26.65,4323862,26.66,0,26.67,40568677079,26.69,646721657,26.70,0,26.70,12631232862,26.69,35962705,26.67,8477617,26.66,86597669,26.65,293177,100.00,0,100.00,897,100.00,7,100.00,4,100.00,293173,100.00,4251820,26.65,1111580,26.65,0,26.65,0,26.65
200,100,3612137694,26.63,19384124507,26.64,4487055,26.66,0,26.68,40568975300,26.69,649344827,26.69,0,26.68,12636665200,26.68,35789302,26.68,8776033,26.68,86992771,26.68,293177,100.00,0,100.00,803,100.00,13,100.00,1,100.00,293176,100.00,4107983,26.67,1147422,26.66,0,26.64,0,26.63
200,100,3613256663,26.63,19388774124,26.63,4481521,26.64,0,26.66,40579768450,26.67,646565835,26.69,0,26.69,12628718348,26.69,36414995,26.69,7855302,26.69,86699929,26.68,293176,100.00,0,100.00,897,100.00,6,100.00,4,100.00,293172,100.00,4192021,26.68,1111640,26.66,0,26.65,0,26.64
200,100,3611672386,26.64,19378952156,26.66,4627987,26.68,0,26.69,40575570281,26.70,647486787,26.69,0,26.69,12631651350,26.69,36719756,26.69,8203975,26.67,86719727,26.65,293172,100.00,0,100.00,879,100.00,10,100.00,1,100.00,293171,100.00,4169016,26.64,1121654,26.63,0,26.63,0,26.63
200,100,3610709664,26.65,19386591600,26.64,4329427,26.64,0,26.64,40570085617,26.66,649551984,26.68,0,26.68,12635739262,26.68,35646569,26.68,8447132,26.68,86791411,26.68,293181,100.00,0,100.00,803,100.00,9,100.00,4,100.00,293177,100.00,4003267,26.68,1092297,26.68,0,26.67,0,26.66
200,100,3601899650,26.66,19385756819,26.65,4378277,26.65,0,26.66,40493014412,26.66,648879132,26.67,0,26.67,12643956994,26.67,36657553,26.67,8406765,26.67,86898406,26.67,293175,100.00,0,100.00,769,100.00,14,100.00,1,100.00,293174,100.00,4414469,26.67,1167305,26.67,0,26.67,0,26.66
200,100,3612295142,26.63,19396267983,26.63,4527388,26.64,0,26.66,40588359823,26.67,647340159,26.68,0,26.68,12628773812,26.68,36380657,26.68,7656551,26.69,86600394,26.69,293177,100.00,0,100.00,812,100.00,5,100.00,4,100.00,293173,100.00,4156440,26.68,1095845,26.67,0,26.66,0,26.64
200,100,3617770416,26.63,19389893825,26.64,4527567,26.65,0,26.67,40580690447,26.68,649497122,26.69,0,26.69,12621765735,26.69,36846354,26.69,7630097,26.68,86816160,26.68,293175,100.00,0,100.00,938,100.00,21,100.00,1,100.00,293174,100.00,4143449,26.67,1143096,26.66,0,26.64,0,26.64
200,100,3612983247,26.64,19394612454,26.64,4530309,26.65,0,26.66,40579418907,26.67,646961168,26.69,0,26.69,12623482438,26.69,35788466,26.70,7881178,26.69,86869880,26.67,293175,100.00,0,100.00,874,100.00,6,100.00,4,100.00,293171,100.00,4160453,26.66,1066129,26.65,0,26.64,0,26.64
200,100,3613983001,26.63,19394793901,26.64,4415198,26.66,0,26.67,40562704198,26.69,648975968,26.69,0,26.69,12636598891,26.68,36905821,26.68,7471980,26.68,86808456,26.68,293176,100.00,0,100.00,743,100.00,16,100.00,1,100.00,293175,100.00,4118023,26.67,1111235,26.66,0,26.65,0,26.63
200,100,3604193775,26.65,19374606537,26.66,4391354,26.68,0,26.69,40494679360,26.70,647478612,26.69,0,26.67,12643464547,26.66,37144427,26.66,7546275,26.66,86727672,26.66,293179,100.00,0,100.00,809,100.00,7,100.00,4,100.00,293175,100.00,4376083,26.66,1097965,26.66,0,26.66,0,26.65
200,100,3606999865,26.64,19388683018,26.64,4547113,26.66,0,26.68,40575359345,26.70,645529920,26.71,0,26.70,12633273378,26.69,36240684,26.69,7718146,26.67,86598127,26.66,293176,100.00,0,100.00,779,100.00,13,100.00,1,100.00,293175,100.00,4199040,26.65,1103383,26.64,0,26.64,0,26.64
200,100,3605737369,26.64,19381169156,26.64,4532944,26.65,0,26.67,40632359947,26.68,645978711,26.70,0,26.70,12632350870,26.70,35896183,26.69,8173756,26.68,86513171,26.66,293177,100.00,0,100.00,852,100.00,6,100.00,4,100.00,293173,100.00,4175916,26.65,1055219,26.64,0,26.64,0,26.64
200,100,3601129726,26.65,19386504607,26.65,4491766,26.67,0,26.69,40499446406,26.70,646473147,26.70,0,26.69,12637044249,26.68,35913920,26.66,8591989,26.66,86824821,26.65,293173,100.00,0,100.00,926,100.00,22,100.00,1,100.00,293172,100.00,4321557,26.65,1100497,26.65,0,26.65,0,26.65
200,100,3606987091,26.65,19387688560,26.65,4499337,26.66,0,26.67,40578556548,26.68,647392087,26.70,0,26.70,12632566924,26.70,36493187,26.69,8047696,26.67,86580297,26.66,293182,100.00,0,100.00,920,100.00,5,100.00,4,100.00,293178,100.00,4206500,26.65,1079073,26.64,0,26.64,0,26.64
200,100,3612657423,26.65,19376993454,26.65,4522703,26.66,0,26.67,40580221486,26.68,649887010,26.68,0,26.67,12639881821,26.68,36677987,26.67,7630660,26.67,86787299,26.67,293177,100.00,0,100.00,783,100.00,9,100.00,1,100.00,293176,100.00,4111252,26.67,1086185,26.67,0,26.66,0,26.66
200,100,3602380946,26.66,19375893304,26.65,4367454,26.66,0,26.66,40512780095,26.67,647742886,26.67,0,26.68,12645647577,26.68,37152485,26.68,7973577,26.68,86763735,26.67,293179,100.00,0,100.00,994,100.00,16,100.00,4,100.00,293175,100.00,4323554,26.67,1098634,26.66,0,26.66,0,26.66
200,100,3600376364,26.66,19373080010,26.67,4424831,26.68,0,26.68,40507762374,26.68,647468385,26.67,0,26.66,12648287303,26.67,37347354,26.66,7742833,26.66,86817329,26.66,293176,100.00,0,100.00,787,100.00,13,100.00,1,100.00,293175,100.00,4305913,26.66,1104613,26.66,0,26.66,0,26.66
200,100,3616739103,26.64,19384010000,26.64,4932232,26.65,0,26.66,40538923452,26.69,647134998,26.70,0,26.69,12638954179,26.68,37108081,26.68,8251706,26.68,86829257,26.67,293176,100.00,0,100.00,3057,100.00,333,100.00,4,100.00,293172,100.00,4641749,26.67,1116559,26.66,0,26.65,0,26.65
200,100,3607440083,26.64,19385118795,26.66,4667411,26.68,0,26.69,40588343313,26.70,646139658,26.70,0,26.69,12632371526,26.69,36692760,26.68,8296674,26.66,86804021,26.65,293174,100.00,0,100.00,826,100.00,16,100.00,1,100.00,293173,100.00,4154215,26.64,1101373,26.64,0,26.64,0,26.64
200,100,3603221185,26.66,19372269933,26.66,4390013,26.67,0,26.67,40478885788,26.68,649137004,26.68,0,26.67,12644414127,26.67,36297459,26.67,8111870,26.67,86814486,26.67,293180,100.00,0,100.00,792,100.00,12,100.00,4,100.00,293176,100.00,4407860,26.66,1095112,26.66,0,26.66,0,26.66
200,100,3612497049,26.66,19367799283,26.67,4313105,26.68,0,26.68,40546758990,26.68,648752340,26.67,0,26.67,12642123056,26.66,36136650,26.66,7697940,26.66,86797627,26.66,293174,100.00,0,100.00,759,100.00,19,100.00,1,100.00,293173,100.00,4046520,26.66,1146322,26.66,0,26.66,0,26.66
200,100,3614043184,26.63,19402980937,26.64,4572988,26.65,0,26.67,40591604845,26.69,645326309,26.70,0,26.69,12627395007,26.69,36615942,26.68,7524898,26.68,86637586,26.68,293178,100.00,0,100.00,1153,100.00,8,100.00,4,100.00,293174,100.00,4112922,26.67,1079925,26.65,0,26.64,0,26.63
200,100,3614445694,26.63,19385382354,26.64,4429238,26.66,0,26.67,40565164157,26.68,647719166,26.68,0,26.68,12636428296,26.68,36715841,26.68,7743988,26.68,86841438,26.68,293174,100.00,0,100.00,913,100.00,9,100.00,1,100.00,293173,100.00,4141478,26.67,1110769,26.67,0,26.65,0,26.64
200,100,3602405562,26.66,19389053169,26.64,4378256,26.64,0,26.64,40537216760,26.65,646051716,26.67,0,26.68,12641423332,26.68,36541232,26.68,8289027,26.68,86814648,26.68,293179,100.00,0,100.00,886,100.00,7,100.00,4,100.00,293175,100.00,4194323,26.67,1127858,26.67,0,26.67,0,26.67
200,100,3612072111,26.64,19400979508,26.64,4516780,26.66,0,26.67,40582872876,26.69,645879683,26.70,0,26.69,12623880019,26.69,36735573,26.69,7519656,26.68,86695158,26.67,293175,100.00,0,100.00,844,100.00,20,100.00,1,100.00,293174,100.00,4155060,26.66,1132518,26.64,0,26.64,0,26.64
200,100,3603874359,26.66,19368444530,26.66,4300413,26.68,0,26.68,40485518337,26.69,647516783,26.68,0,26.67,12643821567,26.66,37519112,26.66,7484327,26.67,86680126,26.66,293177,100.00,0,100.00,818,100.00,7,100.00,4,100.00,293173,100.00,4306717,26.66,1078621,26.66,0,26.66,0,26.66
200,100,3604349982,26.64,19378408887,26.66,4589877,26.68,0,26.69,40539980683,26.71,647166904,26.70,0,26.70,12637211445,26.69,36888060,26.67,7820051,26.66,86684787,26.65,293174,100.00,0,100.00,729,100.00,17,100.00,1,100.00,293173,100.00,4159853,26.64,1090714,26.64,0,26.64,0,26.64
200,100,3610513877,26.64,19381767369,26.65,4719888,26.66,0,26.68,40540246612,26.69,643804647,26.70,0,26.69,12628647494,26.68,38139034,26.68,7206637,26.67,86551253,26.66,293186,100.00,0,100.00,1270,100.00,45,100.00,4,100.00,293182,100.00,4339192,26.65,1078937,26.65,0,26.65,0,26.64
200,100,3609133835,26.64,19381560254,26.65,4416686,26.67,0,26.68,40521228677,26.69,645165222,26.69,0,26.69,12640187005,26.69,37075578,26.69,8163733,26.68,86757366,26.67,293175,100.00,0,100.00,915,100.00,28,100.00,1,100.00,293174,100.00,4325888,26.66,1108506,26.64,0,26.63,0,26.63
200,100,3613575140,26.63,19389569906,26.63,4455483,26.64,0,26.66,40594066665,26.67,650114429,26.69,0,26.70,12630680412,26.70,36893083,26.70,7994592,26.69,86632194,26.68,293178,100.00,0,100.00,843,100.00,8,100.00,4,100.00,293174,100.00,4138952,26.67,1096583,26.66,0,26.64,0,26.63
200,100,3614588621,26.63,19384494446,26.65,4398154,26.66,0,26.68,40563740371,26.69,648094904,26.69,0,26.69,12631242574,26.68,36090415,26.68,7150694,26.68,86668946,26.68,293175,100.00,0,100.00,734,100.00,9,100.00,1,100.00,293174,100.00,4066957,26.67,1090135,26.66,0,26.64,0,26.63
200,100,3611352681,26.64,19394836244,26.64,4602609,26.64,0,26.66,40606107501,26.68,644876894,26.69,0,26.70,12623720196,26.70,36555397,26.70,8163189,26.69,86622956,26.68,293177,100.00,0,100.00,1173,100.00,6,100.00,4,100.00,293173,100.00,4248470,26.66,1087578,26.65,0,26.64,0,26.64
200,100,3610078029,26.66,19386185261,26.65,4618695,26.65,0,26.66,40547971202,26.67,650174452,26.68,0,26.68,12638023602,26.68,36950621,26.68,8022443,26.67,86894238,26.67,293176,100.00,0,100.00,1744,100.00,32,100.00,1,100.00,293175,100.00,4314428,26.67,1131507,26.67,0,26.67,0,26.66
200,100,3601988361,26.65,19381575371,26.66,4427188,26.67,0,26.69,40509918268,26.70,647167005,26.69,0,26.68,12642006986,26.66,36746632,26.66,7505113,26.66,86627249,26.66,293176,100.00,0,100.00,909,100.00,7,100.00,4,100.00,293172,100.00,4397929,26.66,1072389,26.66,0,26.65,0,26.65
200,100,3602898392,26.64,19378106152,26.66,4388041,26.67,0,26.69,40542717574,26.70,645593864,26.70,0,26.70,12640413847,26.69,36041650,26.68,8313772,26.67,86840878,26.65,293176,100.00,0,100.00,999,100.00,14,100.00,1,100.00,293175,100.00,4434604,26.64,1109142,26.64,0,26.63,0,26.63
200,100,3604993335,26.64,19380989374,26.64,4563982,26.65,0,26.67,40551424978,26.68,647737192,26.70,0,26.70,12630770328,26.69,36382767,26.69,8502374,26.68,86611726,26.67,293182,100.00,0,100.00,1029,100.00,27,100.00,4,100.00,293178,100.00,4292443,26.66,1122878,26.65,0,26.64,0,26.64
200,100,3601907559,26.66,19374312524,26.68,4348430,26.69,0,26.69,40484395630,26.69,646963051,26.67,0,26.66,12642875109,26.66,36899638,26.66,7909433,26.66,86774020,26.66,293178,100.00,0,100.00,1064,100.00,11,100.00,1,100.00,293177,100.00,4378669,26.66,1168855,26.66,0,26.66,0,26.66
200,100,3607953950,26.65,19388288741,26.64,4419714,26.63,0,26.64,40609174212,26.66,648060392,26.68,0,26.68,12636380666,26.68,36779093,26.68,7355898,26.68,86532140,26.68,293177,100.00,0,100.00,798,100.00,6,100.00,4,100.00,293173,100.00,4087882,26.68,1045006,26.68,0,26.67,0,26.66
200,100,3606422113,26.65,19363500897,26.67,4321507,26.68,0,26.70,40524710743,26.70,647785983,26.69,0,26.68,12641991022,26.67,35496907,26.66,8215828,26.65,86868582,26.65,293176,100.00,0,100.00,790,100.00,13,100.00,1,100.00,293175,100.00,4255899,26.65,1092078,26.65,0,26.65,0,26.65
200,100,3611537244,26.63,19389721171,26.64,4438169,26.65,0,26.67,40595865582,26.68,646843872,26.69,0,26.69,12634603452,26.69,36033862,26.69,8195604,26.69,86778255,26.68,293182,100.00,0,100.00,894,100.00,9,100.00,4,100.00,293178,100.00,4084458,26.68,1099918,26.66,0,26.65,0,26.64
200,100,3612502956,26.63,19386216690,26.64,4479179,26.66,0,26.68,40569327697,26.69,646640484,26.69,0,26.69,12635049833,26.68,37031425,26.68,7569548,26.68,86631076,26.68,293174,100.00,0,100.00,830,100.00,10,100.00,1,100.00,293173,100.00,4138862,26.67,1068377,26.66,0,26.64,0,26.63
200,100,3607859491,26.66,19395998533,26.64,4320560,26.64,0,26.64,40554100097,26.65,648120712,26.67,0,26.68,12634096557,26.68,35831095,26.68,8320702,26.68,86800793,26.68,293180,100.00,0,100.00,838,100.00,9,100.00,4,100.00,293176,100.00,4204308,26.68,1114800,26.67,0,26.67,0,26.67
200,100,3613184369,26.63,19389944996,26.64,4500891,26.65,0,26.67,40572152671,26.69,646861084,26.70,0,26.70,12632776624,26.69,36112652,26.69,8119104,26.69,86715496,26.68,293180,100.00,0,100.00,759,100.00,19,100.00,1,100.00,293179,100.00,4177739,26.66,1108948,26.65,0,26.64,0,26.63
200,100,3612186462,26.64,19388421044,26.63,4383965,26.64,0,26.66,40605601655,26.67,647548103,26.69,0,26.69,12633493628,26.69,35549842,26.69,8041578,26.68,86774790,26.68,293180,100.00,0,100.00,940,100.00,7,100.00,4,100.00,293176,100.00,4106586,26.68,1107034,26.67,0,26.66,0,26.64
200,100,3607894295,26.64,19389830054,26.65,4438792,26.66,0,26.67,40532784550,26.69,645054616,26.70,0,26.70,12629366798,26.70,36216170,26.68,7949244,26.66,86732337,26.65,293175,100.00,0,100.00,789,100.00,7,100.00,1,100.00,293174,100.00,4244974,26.64,1097297,26.64,0,26.64,0,26.65
200,100,3613909937,26.64,19387764608,26.63,4490154,26.64,0,26.66,40558245780,26.67,650401196,26.69,0,26.69,12640478376,26.68,34931610,26.68,8471573,26.68,86896825,26.68,293177,100.00,0,100.00,900,100.00,4,100.00,4,100.00,293173,100.00,4113357,26.68,1103724,26.68,0,26.66,0,26.65
200,100,3603261477,26.66,19366395541,26.68,4266380,26.69,0,26.69,40500856361,26.68,649495361,26.67,0,26.66,12647495286,26.66,36994608,26.66,7856202,26.66,86808272,26.66,293176,100.00,0,100.00,787,100.00,14,100.00,1,100.00,293175,100.00,4318345,26.66,1107907,26.66,0,26.66,0,26.65
200,100,3605810754,26.66,19390728198,26.66,4222721,26.67,0,26.67,40490734983,26.68,646910730,26.68,0,26.67,12636650716,26.67,35960239,26.67,8162828,26.66,86948752,26.66,293178,100.00,0,100.00,865,100.00,5,100.00,4,100.00,293174,100.00,4331410,26.66,1131196,26.66,0,26.67,0,26.66
