run_uuid,hostname,run_num,total_runs,order_type,random_seed,time_start,time_stop
faab71a1-a186-11ec-8e8b-1c34da757fa2,hp009.utah.cloudlab.us,0,200,fixed,1647036164.4871678,337834.656922551,337912.208587844
be1cda8c-a187-11ec-91d0-1c34da757fa2,hp009.utah.cloudlab.us,1,200,random,1647036164.4871678,338162.569342901,338240.079906618
8189ed41-a188-11ec-8105-1c34da757fa2,hp009.utah.cloudlab.us,2,200,fixed,1647036164.4871678,338490.419216536,338567.900469184
44f6635e-a189-11ec-9c9d-1c34da757fa2,hp009.utah.cloudlab.us,3,200,random,1647036164.4871678,338818.308003639,338895.969264292
08810171-a18a-11ec-ae25-1c34da757fa2,hp009.utah.cloudlab.us,4,200,fixed,1647036164.4871678,339146.350905187,339224.020433248
cc03aba0-a18a-11ec-a279-1c34da757fa2,hp009.utah.cloudlab.us,5,200,random,1647036164.4871678,339474.365809576,339551.857952292
8f65294d-a18b-11ec-9cc1-1c34da757fa2,hp009.utah.cloudlab.us,6,200,fixed,1647036164.4871678,339802.158625828,339879.789408896
52d619b3-a18c-11ec-b9a4-1c34da757fa2,hp009.utah.cloudlab.us,7,200,random,1647036164.4871678,340130.073244672,340207.590335741
16498283-a18d-11ec-a9b5-1c34da757fa2,hp009.utah.cloudlab.us,8,200,fixed,1647036164.4871678,340457.984731127,340535.518190235
d9b9c974-a18d-11ec-9f1a-1c34da757fa2,hp009.utah.cloudlab.us,9,200,random,1647036164.4871678,340785.877893065,340863.507731187
9d30701b-a18e-11ec-b5b5-1c34da757fa2,hp009.utah.cloudlab.us,10,200,fixed,1647036164.4871678,341113.811781743,341191.243953105
6099c6e4-a18f-11ec-a57e-1c34da757fa2,hp009.utah.cloudlab.us,11,200,random,1647036164.4871678,341441.655953084,341519.236463921
2418234e-a190-11ec-9796-1c34da757fa2,hp009.utah.cloudlab.us,12,200,fixed,1647036164.4871678,341769.641154185,341847.287076608
e799cf1c-a190-11ec-9c0f-1c34da757fa2,hp009.utah.cloudlab.us,13,200,random,1647036164.4871678,342097.645350299,342175.142357938
ab04804b-a191-11ec-82d0-1c34da757fa2,hp009.utah.cloudlab.us,14,200,fixed,1647036164.4871678,342425.500766497,342503.159470918
6e87c841-a192-11ec-967a-1c34da757fa2,hp009.utah.cloudlab.us,15,200,random,1647036164.4871678,342753.5185787,342831.231386469
3213d91d-a193-11ec-8bc4-1c34da757fa2,hp009.utah.cloudlab.us,16,200,fixed,1647036164.4871678,343081.568709161,343159.121768862
f58b7045-a193-11ec-a91e-1c34da757fa2,hp009.utah.cloudlab.us,17,200,random,1647036164.4871678,343409.531748681,343487.120701588
b90b9262-a194-11ec-b640-1c34da757fa2,hp009.utah.cloudlab.us,18,200,fixed,1647036164.4871678,343737.524699993,343814.985672285
7c710a3f-a195-11ec-a384-1c34da757fa2,hp009.utah.cloudlab.us,19,200,random,1647036164.4871678,344065.346906731,344142.833999318
3fdaf8d9-a196-11ec-91ab-1c34da757fa2,hp009.utah.cloudlab.us,20,200,fixed,1647036164.4871678,344393.176291061,344470.768798548
0351ee4b-a197-11ec-967f-1c34da757fa2,hp009.utah.cloudlab.us,21,200,random,1647036164.4871678,344721.131461506,344798.562221751
c6b2c975-a197-11ec-a1ab-1c34da757fa2,hp009.utah.cloudlab.us,22,200,fixed,1647036164.4871678,345048.922127851,345126.76771357
8a4fc6cb-a198-11ec-9cc0-1c34da757fa2,hp009.utah.cloudlab.us,23,200,random,1647036164.4871678,345377.106582478,345454.73357768
4dcefe3a-a199-11ec-9062-1c34da757fa2,hp009.utah.cloudlab.us,24,200,fixed,1647036164.4871678,345705.096004035,345782.776608056
115d4d64-a19a-11ec-abbc-1c34da757fa2,hp009.utah.cloudlab.us,25,200,random,1647036164.4871678,346033.18508581,346110.785729354
d4d2573e-a19a-11ec-8c63-1c34da757fa2,hp009.utah.cloudlab.us,26,200,fixed,1647036164.4871678,346361.107623707,346438.735156732
98528ddd-a19b-11ec-bb22-1c34da757fa2,hp009.utah.cloudlab.us,27,200,random,1647036164.4871678,346689.083199646,346766.37969049
5b9c5839-a19c-11ec-9aca-1c34da757fa2,hp009.utah.cloudlab.us,28,200,fixed,1647036164.4871678,347016.741147002,347094.414124246
1f22420c-a19d-11ec-8852-1c34da757fa2,hp009.utah.cloudlab.us,29,200,random,1647036164.4871678,347344.800321299,347422.219624844
e284c7ac-a19d-11ec-aa0c-1c34da757fa2,hp009.utah.cloudlab.us,30,200,fixed,1647036164.4871678,347672.577778269,347750.151266927
a5fb5c5c-a19e-11ec-89e1-1c34da757fa2,hp009.utah.cloudlab.us,31,200,random,1647036164.4871678,348000.511042451,348078.188802122
69827f69-a19f-11ec-bdc0-1c34da757fa2,hp009.utah.cloudlab.us,32,200,fixed,1647036164.4871678,348328.551624054,348406.102975459
2cf5f7b2-a1a0-11ec-a6ab-1c34da757fa2,hp009.utah.cloudlab.us,33,200,random,1647036164.4871678,348656.462925254,348734.026999881
f06ab6c2-a1a0-11ec-90a2-1c34da757fa2,hp009.utah.cloudlab.us,34,200,fixed,1647036164.4871678,348984.377240088,349061.623683141
b3ae9f84-a1a1-11ec-914b-1c34da757fa2,hp009.utah.cloudlab.us,35,200,random,1647036164.4871678,349311.986347894,349389.723047641
773821d7-a1a2-11ec-9be3-1c34da757fa2,hp009.utah.cloudlab.us,36,200,fixed,1647036164.4871678,349640.022261774,349717.784052694
3abcbd5e-a1a3-11ec-a87e-1c34da757fa2,hp009.utah.cloudlab.us,37,200,random,1647036164.4871678,349968.047798353,350045.466639066
fe18fc04-a1a3-11ec-9618-1c34da757fa2,hp009.utah.cloudlab.us,38,200,fixed,1647036164.4871678,350295.808748823,350373.636986092
c1b3cadb-a1a4-11ec-8ba7-1c34da757fa2,hp009.utah.cloudlab.us,39,200,random,1647036164.4871678,350623.997530025,350701.225846411
84f5fbbf-a1a5-11ec-93f9-1c34da757fa2,hp009.utah.cloudlab.us,40,200,fixed,1647036164.4871678,350951.567822661,351029.057082634
485d52fb-a1a6-11ec-9a05-1c34da757fa2,hp009.utah.cloudlab.us,41,200,random,1647036164.4871678,351279.421118243,351357.099365977
0be4503d-a1a7-11ec-a037-1c34da757fa2,hp009.utah.cloudlab.us,42,200,fixed,1647036164.4871678,351607.441898224,351685.090893547
cf644e02-a1a7-11ec-9cbf-1c34da757fa2,hp009.utah.cloudlab.us,43,200,random,1647036164.4871678,351935.455505171,352013.062419158
92e03da3-a1a8-11ec-842b-1c34da757fa2,hp009.utah.cloudlab.us,44,200,fixed,1647036164.4871678,352263.422988722,352340.798052599
563640ee-a1a9-11ec-a83e-1c34da757fa2,hp009.utah.cloudlab.us,45,200,random,1647036164.4871678,352591.143116385,352668.511480512
19946f76-a1aa-11ec-a92e-1c34da757fa2,hp009.utah.cloudlab.us,46,200,fixed,1647036164.4871678,352918.913269804,352996.452891761
dd05db0f-a1aa-11ec-ac39-1c34da757fa2,hp009.utah.cloudlab.us,47,200,random,1647036164.4871678,353246.81375557,353324.105184943
a04c6b4f-a1ab-11ec-8a43-1c34da757fa2,hp009.utah.cloudlab.us,48,200,fixed,1647036164.4871678,353574.414943747,353651.909269283
63af02a4-a1ac-11ec-9f05-1c34da757fa2,hp009.utah.cloudlab.us,49,200,random,1647036164.4871678,353902.215298521,353979.7391592
27195cc4-a1ad-11ec-8e28-1c34da757fa2,hp009.utah.cloudlab.us,50,200,fixed,1647036164.4871678,354230.080241339,354307.698304093
ea921a8e-a1ad-11ec-b41e-1c34da757fa2,hp009.utah.cloudlab.us,51,200,random,1647036164.4871678,354558.014982335,354635.620175162
ae0ab589-a1ae-11ec-b5b9-1c34da757fa2,hp009.utah.cloudlab.us,52,200,fixed,1647036164.4871678,354885.980764403,354963.614691981
718b7128-a1af-11ec-9433-1c34da757fa2,hp009.utah.cloudlab.us,53,200,random,1647036164.4871678,355213.980176628,355291.629329482
350de131-a1b0-11ec-a710-1c34da757fa2,hp009.utah.cloudlab.us,54,200,fixed,1647036164.4871678,355541.990955633,355619.716616877
f89c24fa-a1b0-11ec-9648-1c34da757fa2,hp009.utah.cloudlab.us,55,200,random,1647036164.4871678,355870.059150079,355947.769500982
bc24d99c-a1b1-11ec-adb3-1c34da757fa2,hp009.utah.cloudlab.us,56,200,fixed,1647036164.4871678,356198.110406958,356275.661121723
7f9396b6-a1b2-11ec-adee-1c34da757fa2,hp009.utah.cloudlab.us,57,200,random,1647036164.4871678,356526.010373146,356603.516664627
43004696-a1b3-11ec-8603-1c34da757fa2,hp009.utah.cloudlab.us,58,200,fixed,1647036164.4871678,356853.878898452,356931.64456263
069466f8-a1b4-11ec-8863-1c34da757fa2,hp009.utah.cloudlab.us,59,200,random,1647036164.4871678,357181.985872066,357259.631501958
ca13a43e-a1b4-11ec-9363-1c34da757fa2,hp009.utah.cloudlab.us,60,200,fixed,1647036164.4871678,357509.996047424,357587.700255937
8d9ecaac-a1b5-11ec-a55d-1c34da757fa2,hp009.utah.cloudlab.us,61,200,random,1647036164.4871678,357838.044140001,357915.448020873
50f8c073-a1b6-11ec-bfd6-1c34da757fa2,hp009.utah.cloudlab.us,62,200,fixed,1647036164.4871678,358165.80842567,358243.459808319
14784cae-a1b7-11ec-bb92-1c34da757fa2,hp009.utah.cloudlab.us,63,200,random,1647036164.4871678,358493.80001676,358571.286022948
d7e1fbcb-a1b7-11ec-bd2e-1c34da757fa2,hp009.utah.cloudlab.us,64,200,fixed,1647036164.4871678,358821.648011686,358899.353986009
9b6d24a3-a1b8-11ec-85bc-1c34da757fa2,hp009.utah.cloudlab.us,65,200,random,1647036164.4871678,359149.716300665,359227.289398537
5ee3d081-a1b9-11ec-a1f3-1c34da757fa2,hp009.utah.cloudlab.us,66,200,fixed,1647036164.4871678,359477.651394788,359555.410985673
22771a3e-a1ba-11ec-b3dc-1c34da757fa2,hp009.utah.cloudlab.us,67,200,random,1647036164.4871678,359805.770706155,359883.33139984
e5ec02d6-a1ba-11ec-96f2-1c34da757fa2,hp009.utah.cloudlab.us,68,200,fixed,1647036164.4871678,360133.691953158,360211.391124244
a9766888-a1bb-11ec-a0d0-1c34da757fa2,hp009.utah.cloudlab.us,69,200,random,1647036164.4871678,360461.754865263,360539.346009003
6cf04135-a1bc-11ec-a3a0-1c34da757fa2,hp009.utah.cloudlab.us,70,200,fixed,1647036164.4871678,360789.691415022,360867.178951298
3057703b-a1bd-11ec-883d-1c34da757fa2,hp009.utah.cloudlab.us,71,200,random,1647036164.4871678,361117.520526608,361195.181327908
f3d863a9-a1bd-11ec-a224-1c34da757fa2,hp009.utah.cloudlab.us,72,200,fixed,1647036164.4871678,361445.522980482,361523.130294849
b7518d36-a1be-11ec-9cd6-1c34da757fa2,hp009.utah.cloudlab.us,73,200,random,1647036164.4871678,361773.491735807,361851.02118727
7ac10686-a1bf-11ec-b20a-1c34da757fa2,hp009.utah.cloudlab.us,74,200,fixed,1647036164.4871678,362101.378162889,362179.120242212
3e51f297-a1c0-11ec-a2d1-1c34da757fa2,hp009.utah.cloudlab.us,75,200,random,1647036164.4871678,362429.482627833,362507.17313979
01e1352e-a1c1-11ec-93d3-1c34da757fa2,hp009.utah.cloudlab.us,76,200,fixed,1647036164.4871678,362757.558980753,362834.993164927
c53fde88-a1c1-11ec-bee6-1c34da757fa2,hp009.utah.cloudlab.us,77,200,random,1647036164.4871678,363085.335242361,363162.83107887
88a72aba-a1c2-11ec-ac26-1c34da757fa2,hp009.utah.cloudlab.us,78,200,fixed,1647036164.4871678,363413.167278523,363490.527813031
4bfac869-a1c3-11ec-97aa-1c34da757fa2,hp009.utah.cloudlab.us,79,200,random,1647036164.4871678,363740.871291791,363818.400638109
0f61f4c5-a1c4-11ec-a302-1c34da757fa2,hp009.utah.cloudlab.us,80,200,fixed,1647036164.4871678,364068.702289446,364146.232572061
d2cef189-a1c4-11ec-959d-1c34da757fa2,hp009.utah.cloudlab.us,81,200,random,1647036164.4871678,364396.592807618,364474.215095037
964dc6b7-a1c5-11ec-bd0b-1c34da757fa2,hp009.utah.cloudlab.us,82,200,fixed,1647036164.4871678,364724.580664349,364801.983437843
59ab2587-a1c6-11ec-86be-1c34da757fa2,hp009.utah.cloudlab.us,83,200,random,1647036164.4871678,365052.34561992,365129.762996895
1d09ee23-a1c7-11ec-bd08-1c34da757fa2,hp009.utah.cloudlab.us,84,200,fixed,1647036164.4871678,365380.125181864,365457.708071385
e081b174-a1c7-11ec-9a7f-1c34da757fa2,hp009.utah.cloudlab.us,85,200,random,1647036164.4871678,365708.043141301,365785.433466757
a3d9df04-a1c8-11ec-ab21-1c34da757fa2,hp009.utah.cloudlab.us,86,200,fixed,1647036164.4871678,366035.798534274,366113.500025176
67643267-a1c9-11ec-9162-1c34da757fa2,hp009.utah.cloudlab.us,87,200,random,1647036164.4871678,366363.839246354,366441.274087758
2ac310e7-a1ca-11ec-af18-1c34da757fa2,hp009.utah.cloudlab.us,88,200,fixed,1647036164.4871678,366691.617101826,366769.372420854
ee52e6cf-a1ca-11ec-818d-1c34da757fa2,hp009.utah.cloudlab.us,89,200,random,1647036164.4871678,367019.735402991,367097.375648929
b1d36bce-a1cb-11ec-9634-1c34da757fa2,hp009.utah.cloudlab.us,90,200,fixed,1647036164.4871678,367347.713661079,367425.324981576
75536818-a1cc-11ec-ab12-1c34da757fa2,hp009.utah.cloudlab.us,91,200,random,1647036164.4871678,367675.703077865,367753.274296707
38cbfe4a-a1cd-11ec-b336-1c34da757fa2,hp009.utah.cloudlab.us,92,200,fixed,1647036164.4871678,368003.67509643,368081.390102488
fc506fbb-a1cd-11ec-927b-1c34da757fa2,hp009.utah.cloudlab.us,93,200,random,1647036164.4871678,368331.697646035,368409.125507203
bfb07d5d-a1ce-11ec-b775-1c34da757fa2,hp009.utah.cloudlab.us,94,200,fixed,1647036164.4871678,368659.482816756,368737.358511369
835500d8-a1cf-11ec-9e85-1c34da757fa2,hp009.utah.cloudlab.us,95,200,random,1647036164.4871678,368987.714964446,369065.196347162
46c447bb-a1d0-11ec-ac90-1c34da757fa2,hp009.utah.cloudlab.us,96,200,fixed,1647036164.4871678,369315.601207781,369393.237764889
0a44c4d2-a1d1-11ec-aab0-1c34da757fa2,hp009.utah.cloudlab.us,97,200,random,1647036164.4871678,369643.599889271,369721.209397347
cdc1a0e3-a1d1-11ec-a851-1c34da757fa2,hp009.utah.cloudlab.us,98,200,fixed,1647036164.4871678,369971.573994483,370049.294112783
914f6c04-a1d2-11ec-ba51-1c34da757fa2,hp009.utah.cloudlab.us,99,200,random,1647036164.4871678,370299.658875847,370377.141785242
54b844cf-a1d3-11ec-bc7c-1c34da757fa2,hp009.utah.cloudlab.us,100,200,fixed,1647036164.4871678,370627.499757565,370705.008481645
181c781e-a1d4-11ec-a3ae-1c34da757fa2,hp009.utah.cloudlab.us,101,200,random,1647036164.4871678,370955.312798129,371033.003622644
dba4f2e4-a1d4-11ec-9e45-1c34da757fa2,hp009.utah.cloudlab.us,102,200,fixed,1647036164.4871678,371283.345517039,371360.84877739
9f02a106-a1d5-11ec-a3e1-1c34da757fa2,hp009.utah.cloudlab.us,103,200,random,1647036164.4871678,371611.13370563,371688.690544846
62765569-a1d6-11ec-8815-1c34da757fa2,hp009.utah.cloudlab.us,104,200,fixed,1647036164.4871678,371939.047253997,372016.559712818
25dbb04f-a1d7-11ec-92bc-1c34da757fa2,hp009.utah.cloudlab.us,105,200,random,1647036164.4871678,372266.867370331,372344.290767616
e93bed0d-a1d7-11ec-9f72-1c34da757fa2,hp009.utah.cloudlab.us,106,200,fixed,1647036164.4871678,372594.65355538,372672.196891518
acadca82-a1d8-11ec-8181-1c34da757fa2,hp009.utah.cloudlab.us,107,200,random,1647036164.4871678,372922.556562042,373000.040335198
7016b444-a1d9-11ec-8523-1c34da757fa2,hp009.utah.cloudlab.us,108,200,fixed,1647036164.4871678,373250.379333889,373328.92586011
34264199-a1da-11ec-8f5c-1c34da757fa2,hp009.utah.cloudlab.us,109,200,random,1647036164.4871678,373579.33382232,373656.756119642
f7860700-a1da-11ec-b5cd-1c34da757fa2,hp009.utah.cloudlab.us,110,200,fixed,1647036164.4871678,373907.119326136,373984.544065699
baec2d99-a1db-11ec-bf17-1c34da757fa2,hp009.utah.cloudlab.us,111,200,random,1647036164.4871678,374234.942311413,374312.470036845
7e5beb11-a1dc-11ec-8989-1c34da757fa2,hp009.utah.cloudlab.us,112,200,fixed,1647036164.4871678,374562.830044629,374640.430181814
41d140f6-a1dd-11ec-b1c8-1c34da757fa2,hp009.utah.cloudlab.us,113,200,random,1647036164.4871678,374890.735925053,374968.345680002
054aa4a3-a1de-11ec-975c-1c34da757fa2,hp009.utah.cloudlab.us,114,200,fixed,1647036164.4871678,375218.705865405,375296.269995571
c8c64724-a1de-11ec-9bc8-1c34da757fa2,hp009.utah.cloudlab.us,115,200,random,1647036164.4871678,375546.673276294,375624.055778711
8c1fe169-a1df-11ec-9ee8-1c34da757fa2,hp009.utah.cloudlab.us,116,200,fixed,1647036164.4871678,375874.415449311,375952.254718472
4fc53948-a1e0-11ec-8521-1c34da757fa2,hp009.utah.cloudlab.us,117,200,random,1647036164.4871678,376202.634833631,376280.335303802
8677f5e6-a1e1-11ec-a1ea-1c34da757fa2,hp009.utah.cloudlab.us,118,200,fixed,1647036164.4871678,376723.92125104,376801.57491435
4a025f64-a1e2-11ec-b390-1c34da757fa2,hp009.utah.cloudlab.us,119,200,random,1647036164.4871678,377051.984051294,377129.307891988
0d524ee0-a1e3-11ec-84f8-1c34da757fa2,hp009.utah.cloudlab.us,120,200,fixed,1647036164.4871678,377379.64238373,377457.287834681
d0d0cc24-a1e3-11ec-847d-1c34da757fa2,hp009.utah.cloudlab.us,121,200,random,1647036164.4871678,377707.647243797,377785.178785943
9440747d-a1e4-11ec-bc85-1c34da757fa2,hp009.utah.cloudlab.us,122,200,fixed,1647036164.4871678,378035.535409896,378113.154715946
57bdbc20-a1e5-11ec-9855-1c34da757fa2,hp009.utah.cloudlab.us,123,200,random,1647036164.4871678,378363.511053506,378441.011731517
1b2fa078-a1e6-11ec-84ce-1c34da757fa2,hp009.utah.cloudlab.us,124,200,fixed,1647036164.4871678,378691.414846125,378768.847170496
de8d07a2-a1e6-11ec-8fcf-1c34da757fa2,hp009.utah.cloudlab.us,125,200,random,1647036164.4871678,379019.182878068,379096.681540819
a1f7c464-a1e7-11ec-a7cf-1c34da757fa2,hp009.utah.cloudlab.us,126,200,fixed,1647036164.4871678,379347.036838591,379424.437018822
655460b8-a1e8-11ec-b385-1c34da757fa2,hp009.utah.cloudlab.us,127,200,random,1647036164.4871678,379674.782344224,379752.366787065
28c9d8ae-a1e9-11ec-b939-1c34da757fa2,hp009.utah.cloudlab.us,128,200,fixed,1647036164.4871678,380002.707574548,380080.48912948
ec5d6ba0-a1e9-11ec-abde-1c34da757fa2,hp009.utah.cloudlab.us,129,200,random,1647036164.4871678,380330.841371822,380408.413323349
afd2a384-a1ea-11ec-8907-1c34da757fa2,hp009.utah.cloudlab.us,130,200,fixed,1647036164.4871678,380658.772393169,380736.257086949
733c4d00-a1eb-11ec-bebf-1c34da757fa2,hp009.utah.cloudlab.us,131,200,random,1647036164.4871678,380986.613163876,381064.224538967
36b877e7-a1ec-11ec-b8b6-1c34da757fa2,hp009.utah.cloudlab.us,132,200,fixed,1647036164.4871678,381314.589575623,381392.404568561
fa54e494-a1ec-11ec-963c-1c34da757fa2,hp009.utah.cloudlab.us,133,200,random,1647036164.4871678,381642.771373269,381720.34471645
bdcadfc7-a1ed-11ec-b883-1c34da757fa2,hp009.utah.cloudlab.us,134,200,fixed,1647036164.4871678,381970.692658045,382048.293919791
8145190e-a1ee-11ec-b4eb-1c34da757fa2,hp009.utah.cloudlab.us,135,200,random,1647036164.4871678,382298.635674912,382376.346625247
44cd6e6e-a1ef-11ec-841f-1c34da757fa2,hp009.utah.cloudlab.us,136,200,fixed,1647036164.4871678,382626.7046564,382704.115643637
08324253-a1f0-11ec-aa22-1c34da757fa2,hp009.utah.cloudlab.us,137,200,random,1647036164.4871678,382954.521608081,383031.920010295
cb9504b9-a1f0-11ec-a381-1c34da757fa2,hp009.utah.cloudlab.us,138,200,fixed,1647036164.4871678,383282.306433955,383359.948644384
8f13ff9e-a1f1-11ec-8119-1c34da757fa2,hp009.utah.cloudlab.us,139,200,random,1647036164.4871678,383610.312305307,383687.853490646
528051c1-a1f2-11ec-b510-1c34da757fa2,hp009.utah.cloudlab.us,140,200,fixed,1647036164.4871678,383938.159436586,384015.852557477
1605e7d2-a1f3-11ec-94be-1c34da757fa2,hp009.utah.cloudlab.us,141,200,random,1647036164.4871678,384266.203817549,384343.675174056
d96c4601-a1f3-11ec-a1f3-1c34da757fa2,hp009.utah.cloudlab.us,142,200,fixed,1647036164.4871678,384594.036065936,384671.748214951
9cf7d3f5-a1f4-11ec-ac0c-1c34da757fa2,hp009.utah.cloudlab.us,143,200,random,1647036164.4871678,384922.105414883,384999.603154224
60614e1f-a1f5-11ec-8db4-1c34da757fa2,hp009.utah.cloudlab.us,144,200,fixed,1647036164.4871678,385249.951999094,385327.371712525
23c05ea4-a1f6-11ec-9e84-1c34da757fa2,hp009.utah.cloudlab.us,145,200,random,1647036164.4871678,385577.732438507,385655.293807483
e728b88c-a1f6-11ec-ada0-1c34da757fa2,hp009.utah.cloudlab.us,146,200,fixed,1647036164.4871678,385905.572412188,385983.058981208
aa991902-a1f7-11ec-ba9f-1c34da757fa2,hp009.utah.cloudlab.us,147,200,random,1647036164.4871678,386233.456708227,386311.034448891
6e0f51a4-a1f8-11ec-9864-1c34da757fa2,hp009.utah.cloudlab.us,148,200,fixed,1647036164.4871678,386561.39516598,386638.953120504
3183f677-a1f9-11ec-9eef-1c34da757fa2,hp009.utah.cloudlab.us,149,200,random,1647036164.4871678,386889.31543588,386966.904380568
f4fb127e-a1f9-11ec-ae90-1c34da757fa2,hp009.utah.cloudlab.us,150,200,fixed,1647036164.4871678,387217.249526845,387294.701272168
b852ea14-a1fa-11ec-ad51-1c34da757fa2,hp009.utah.cloudlab.us,151,200,random,1647036164.4871678,387544.982764727,387622.432478212
7bb70455-a1fb-11ec-8423-1c34da757fa2,hp009.utah.cloudlab.us,152,200,fixed,1647036164.4871678,387872.793927945,387950.366403407
3f2ea089-a1fc-11ec-adc6-1c34da757fa2,hp009.utah.cloudlab.us,153,200,random,1647036164.4871678,388200.713447886,388278.289574009
02a38e3a-a1fd-11ec-8be4-1c34da757fa2,hp009.utah.cloudlab.us,154,200,fixed,1647036164.4871678,388528.656971308,388606.4028497
c634ac47-a1fd-11ec-b302-1c34da757fa2,hp009.utah.cloudlab.us,155,200,random,1647036164.4871678,388856.756394004,388934.32818348
89aa0cc2-a1fe-11ec-befc-1c34da757fa2,hp009.utah.cloudlab.us,156,200,fixed,1647036164.4871678,389184.687317588,389262.130610015
4d0d4dca-a1ff-11ec-828b-1c34da757fa2,hp009.utah.cloudlab.us,157,200,random,1647036164.4871678,389512.494123117,389590.134948744
108e83f8-a200-11ec-b8db-1c34da757fa2,hp009.utah.cloudlab.us,158,200,fixed,1647036164.4871678,389840.476165568,389918.097561373
d40902c7-a200-11ec-98f7-1c34da757fa2,hp009.utah.cloudlab.us,159,200,random,1647036164.4871678,390168.454381702,390246.198632899
97978b6e-a201-11ec-92d2-1c34da757fa2,hp009.utah.cloudlab.us,160,200,fixed,1647036164.4871678,390496.523473149,390574.19553482
5b1a5a37-a202-11ec-9d56-1c34da757fa2,hp009.utah.cloudlab.us,161,200,random,1647036164.4871678,390824.555557554,390902.10150453
1e8ceca5-a203-11ec-bd07-1c34da757fa2,hp009.utah.cloudlab.us,162,200,fixed,1647036164.4871678,391152.465545589,391229.978855587
e1fa70b4-a203-11ec-ba42-1c34da757fa2,hp009.utah.cloudlab.us,163,200,random,1647036164.4871678,391480.31701523,391557.867798857
a56a66f6-a204-11ec-a7be-1c34da757fa2,hp009.utah.cloudlab.us,164,200,fixed,1647036164.4871678,391808.225522155,391885.798655304
68e0fc29-a205-11ec-9cac-1c34da757fa2,hp009.utah.cloudlab.us,165,200,random,1647036164.4871678,392136.138383557,392213.677640769
2c4ee313-a206-11ec-9023-1c34da757fa2,hp009.utah.cloudlab.us,166,200,fixed,1647036164.4871678,392464.035570968,392541.416473391
efa85074-a206-11ec-b0b1-1c34da757fa2,hp009.utah.cloudlab.us,167,200,random,1647036164.4871678,392791.757330388,392869.153866687
8e05fe87-a207-11ec-aace-1c34da757fa2,hp009.utah.cloudlab.us,168,200,fixed,1647036164.4871678,393082.62715458,393160.299358717
608aae77-a208-11ec-b885-1c34da757fa2,hp009.utah.cloudlab.us,169,200,random,1647036164.4871678,393410.66159651,393488.240118749
24028262-a209-11ec-b6d3-1c34da757fa2,hp009.utah.cloudlab.us,170,200,fixed,1647036164.4871678,393738.583294343,393816.316690131
e78e859e-a209-11ec-8304-1c34da757fa2,hp009.utah.cloudlab.us,171,200,random,1647036164.4871678,394066.676269363,394144.512932264
ab2d9d0f-a20a-11ec-8fa0-1c34da757fa2,hp009.utah.cloudlab.us,172,200,fixed,1647036164.4871678,394394.857008784,394472.658438397
6ecb7490-a20b-11ec-ace3-1c34da757fa2,hp009.utah.cloudlab.us,173,200,random,1647036164.4871678,394723.064564972,394800.552394174
32356b26-a20c-11ec-90f1-1c34da757fa2,hp009.utah.cloudlab.us,174,200,fixed,1647036164.4871678,395050.913488887,395128.278145566
f58c0656-a20c-11ec-b4ea-1c34da757fa2,hp009.utah.cloudlab.us,175,200,random,1647036164.4871678,395378.639664262,395456.425894734
b92a1329-a20d-11ec-b285-1c34da757fa2,hp009.utah.cloudlab.us,176,200,fixed,1647036164.4871678,395706.830924566,395784.553890235
7cb80b3d-a20e-11ec-ac7c-1c34da757fa2,hp009.utah.cloudlab.us,177,200,random,1647036164.4871678,396034.916026482,396112.584754977
403dbe4a-a20f-11ec-b6c7-1c34da757fa2,hp009.utah.cloudlab.us,178,200,fixed,1647036164.4871678,396362.948909904,396440.607409943
03c8c42c-a210-11ec-94ba-1c34da757fa2,hp009.utah.cloudlab.us,179,200,random,1647036164.4871678,396691.014357748,396768.587905964
c73fa28b-a210-11ec-8bc4-1c34da757fa2,hp009.utah.cloudlab.us,180,200,fixed,1647036164.4871678,397018.948727257,397096.443839947
8ab10bd6-a211-11ec-80d5-1c34da757fa2,hp009.utah.cloudlab.us,181,200,random,1647036164.4871678,397346.848587672,397424.418237716
4e278e00-a212-11ec-b917-1c34da757fa2,hp009.utah.cloudlab.us,182,200,fixed,1647036164.4871678,397674.762309329,397752.395072711
11a4cfc9-a213-11ec-aaa6-1c34da757fa2,hp009.utah.cloudlab.us,183,200,random,1647036164.4871678,398002.739016196,398080.049546974
d4f0b795-a213-11ec-a126-1c34da757fa2,hp009.utah.cloudlab.us,184,200,fixed,1647036164.4871678,398330.41082302,398407.994573388
9868ec88-a214-11ec-8d9b-1c34da757fa2,hp009.utah.cloudlab.us,185,200,random,1647036164.4871678,398658.353930201,398735.844560652
5bcb6e79-a215-11ec-a0d3-1c34da757fa2,hp009.utah.cloudlab.us,186,200,fixed,1647036164.4871678,398986.155036171,399063.724874136
1f3d943f-a216-11ec-9478-1c34da757fa2,hp009.utah.cloudlab.us,187,200,random,1647036164.4871678,399314.040213532,399391.734051279
e2c418a8-a216-11ec-b956-1c34da757fa2,hp009.utah.cloudlab.us,188,200,fixed,1647036164.4871678,399642.071512511,399719.471309579
a61d190d-a217-11ec-8e71-1c34da757fa2,hp009.utah.cloudlab.us,189,200,random,1647036164.4871678,399969.837522969,400047.404487616
69999ca6-a218-11ec-be12-1c34da757fa2,hp009.utah.cloudlab.us,190,200,fixed,1647036164.4871678,400297.806494233,400375.175739432
2cf190b1-a219-11ec-aee5-1c34da757fa2,hp009.utah.cloudlab.us,191,200,random,1647036164.4871678,400625.533399058,400703.092964432
f06beaf1-a219-11ec-9340-1c34da757fa2,hp009.utah.cloudlab.us,192,200,fixed,1647036164.4871678,400953.488877031,401030.978406509
b3d51f86-a21a-11ec-af84-1c34da757fa2,hp009.utah.cloudlab.us,193,200,random,1647036164.4871678,401281.323203745,401358.968223238
775a97b2-a21b-11ec-a852-1c34da757fa2,hp009.utah.cloudlab.us,194,200,fixed,1647036164.4871678,401609.373658902,401686.827942277
3abf9596-a21c-11ec-850e-1c34da757fa2,hp009.utah.cloudlab.us,195,200,random,1647036164.4871678,401937.189386872,402014.884466579
fe48c7d8-a21c-11ec-8ce5-1c34da757fa2,hp009.utah.cloudlab.us,196,200,fixed,1647036164.4871678,402265.224787591,402342.797074386
c1bb8bba-a21d-11ec-bb71-1c34da757fa2,hp009.utah.cloudlab.us,197,200,random,1647036164.4871678,402593.152492843,402670.610785411
85204855-a21e-11ec-bbed-1c34da757fa2,hp009.utah.cloudlab.us,198,200,fixed,1647036164.4871678,402920.968250286,402998.508189732
4891a045-a21f-11ec-ba64-1c34da757fa2,hp009.utah.cloudlab.us,199,200,random,1647036164.4871678,403248.847344449,403326.445889995
